1100.043823	0.126655117
1098.989746	0.159422651
1098.052124	0.104203746
1096.99646	0.098417595
1096.057495	0.126855075
1095.000122	0.105426848
1093.942017	0.101963565
1093.000854	0.123441622
1091.94104	0.104633935
1090.998413	0.11733821
1090.055054	0.100371063
1088.99292	0.108260095
1088.048096	0.094169356
1086.984497	0.13551262
1086.038208	0.097850263
1084.9729	0.102376439
1084.025269	0.142703444
1082.958374	0.111599542
1082.009277	0.121760413
1080.940796	0.152990907
1079.990356	0.106254704
1079.039185	0.113118686
1077.968384	0.150948554
1077.015869	0.115582854
1075.943359	0.12907137
1074.98938	0.119282745
1074.03479	0.085344031
1072.960083	0.105494835
1072.004028	0.151133791
1071.047363	0.107522599
1069.970215	0.123140216
1069.012085	0.139315248
1068.053345	0.128095567
1066.973999	0.14613165
1066.013794	0.125898883
1065.052979	0.13229911
1063.971313	0.12530005
1063.009033	0.153921142
1062.046143	0.134604886
1060.962158	0.123577304
1059.997925	0.147489309
1059.032959	0.139384136
1057.946655	0.143718436
1056.980347	0.151224136
1056.013428	0.15529646
1055.045898	0.140931428
1053.956543	0.130788982
1052.987549	0.135042757
1052.017944	0.166758671
1051.047607	0.144347608
1049.9552	0.144411162
1048.983643	0.145372093
1048.01123	0.148888543
1047.03833	0.143283039
1045.942993	0.164113715
1044.968628	0.151165217
1043.993652	0.150030285
1043.018066	0.16245158
1042.041748	0.152500883
1040.942749	0.150455892
1039.965088	0.14735435
1038.986816	0.146708876
1038.007935	0.143733323
1037.028442	0.150611773
1036.048218	0.145989761
1034.944702	0.142500803
1033.963257	0.144301117
1032.981079	0.148814291
1031.998169	0.139658585
1031.014771	0.149457187
1030.03064	0.145954758
1029.045898	0.143463343
1028.060547	0.149642512
1026.951294	0.142147064
1025.9646	0.134958968
1024.977295	0.151857227
1023.989258	0.161503106
1023.000671	0.157400847
1022.011414	0.139791504
1021.021545	0.160240784
1020.031067	0.155423358
1019.039978	0.148131549
1018.048218	0.153771341
1017.055847	0.159102693
1015.93866	0.160571262
1014.944946	0.161327541
1013.950623	0.161338687
1012.955627	0.161818236
1011.960022	0.165912241
1010.963806	0.165894881
1009.96698	0.162779301
1008.969543	0.163194433
1007.971436	0.166466638
1006.972778	0.160050243
1005.97345	0.16476953
1004.973511	0.163204193
1003.9729	0.170473501
1002.971741	0.164447576
1001.96991	0.163713142
1000.967529	0.158704504
999.9644775	0.15953055
998.9608154	0.155902907
997.956543	0.159220472
996.9516602	0.15902096
995.946167	0.155423507
994.9400635	0.151866049
994.0592041	0.15011242
993.0519409	0.152795717
992.0440674	0.150395095
991.0355835	0.152397081
990.0264893	0.147921637
989.0167847	0.147119209
988.0064697	0.149100646
986.9955444	0.149925977
985.9839478	0.137054831
984.9718018	0.146640226
983.9591064	0.149696261
982.9457397	0.147820041
982.0585327	0.138831168
981.0440063	0.141674608
980.0289307	0.144362688
979.0132446	0.143025681
977.9968872	0.142909333
976.9799805	0.14395918
975.9624634	0.139131337
974.9443359	0.136742517
974.0530396	0.140253231
973.0337524	0.136741772
972.013916	0.138230011
970.9934692	0.135978267
969.9724121	0.130987629
968.9508057	0.132944822
968.0563965	0.130799934
967.0336304	0.1371703
966.0102539	0.133327812
964.9863281	0.128367454
963.961731	0.129019767
962.9365845	0.130861789
962.0391235	0.127144292
961.0128784	0.126069322
959.9860229	0.126763597
958.9585571	0.128176302
958.059082	0.125017718
957.0305176	0.127243966
956.0014038	0.123997405
954.9716797	0.122995943
953.9413452	0.120871104
953.0393066	0.12279062
952.0079346	0.122192346
950.9758911	0.122660816
949.9432983	0.123749785
949.0393066	0.122812979
948.0056152	0.121513896
946.9713135	0.121711046
945.9364624	0.119781859
945.0305176	0.1237102
943.9945679	0.121974818
942.9580078	0.120771207
942.0505371	0.120041013
941.0129395	0.120111182
939.9747314	0.119403601
938.9359131	0.122113913
938.0265503	0.120086573
936.9866333	0.121127836
935.946228	0.118779577
935.0353394	0.120048791
933.9937744	0.119246706
932.9517212	0.120356157
932.0393677	0.120212235
930.9962158	0.118726395
929.9524536	0.118087754
929.0386963	0.119136214
927.9938354	0.116584778
926.9484253	0.11904709
926.0332031	0.117646478
924.9867554	0.11811211
923.9396973	0.117517829
923.0230713	0.118792646
921.9749146	0.117807828
921.057373	0.116607532
920.0081787	0.117721185
918.9584351	0.116924569
918.0394287	0.117518343
916.9886475	0.117671832
915.9372559	0.118044406
915.0168457	0.118472412
913.9644165	0.11752706
913.0430298	0.116210885
911.989563	0.119208045
910.9354858	0.120624714
910.0127563	0.118445344
908.9576416	0.12124195
908.0339355	0.119599357
906.9777832	0.121324435
906.0532227	0.123041026
904.9959717	0.124360554
903.9382324	0.124682747
903.012207	0.125589266
901.9534302	0.12820363
901.0264893	0.128762379
899.9666748	0.131667063
899.0388184	0.134032488
897.9779053	0.134599417
897.0491943	0.136364937
895.9872437	0.136580765
895.0576172	0.136502385
893.9946289	0.138011128
893.0640869	0.1389658
892.0001221	0.140600354
890.9355469	0.139094994
890.0036011	0.138818204
888.9380493	0.137628004
888.005188	0.137199447
886.9385986	0.136056483
886.0048828	0.135796487
884.9372559	0.134722814
884.0026245	0.133914366
882.93396	0.132704616
881.9984741	0.130632743
881.0625	0.130706042
879.9923706	0.129381016
879.055542	0.130664736
877.984375	0.128851742
877.0466309	0.127164647
875.9744873	0.1255752
875.0358887	0.124386609
873.9626465	0.125309721
873.0231934	0.124587551
871.9489746	0.12413498
871.008606	0.123646222
869.9334106	0.123618454
868.9921265	0.122700855
868.0504761	0.122708857
866.9738159	0.12164072
866.03125	0.122668646
864.9535522	0.121967204
864.0101318	0.122465499
863.0663452	0.121838853
861.9871826	0.118379355
861.0424805	0.119368643
859.9623413	0.120807618
859.0167847	0.121375434
857.9356079	0.118464865
856.9891968	0.122197591
856.0423584	0.122515544
854.9597778	0.120256342
854.0120239	0.118821196
853.0639648	0.121998914
851.9799194	0.120159313
851.0309448	0.121912293
849.9459229	0.120183416
848.9960938	0.120298341
848.0458374	0.11897134
846.9593506	0.119741343
846.0083008	0.121141143
845.0567627	0.120823443
843.9688721	0.122153215
843.0165405	0.122679845
842.0637817	0.120012038
840.9744873	0.12209101
840.020874	0.123737909
839.0668945	0.12078464
837.9761353	0.12302883
837.0213013	0.123721115
836.06604	0.122788735
834.973877	0.123471998
834.0177612	0.122557074
833.0613403	0.123420507
831.9677124	0.123424292
831.010376	0.12399444
830.0526733	0.122954719
828.9577026	0.123892307
827.9991455	0.123162456
827.0402222	0.123790503
825.9437866	0.122889921
824.9840088	0.123674855
824.0238647	0.123355746
823.0632935	0.124078035
821.9650879	0.124721281
821.0036621	0.125093147
820.0419312	0.124951303
818.9422607	0.123408265
817.9796753	0.123855054
817.0166626	0.124837756
816.0532837	0.125086963
814.9518433	0.124645218
813.9876099	0.123312831
813.0230713	0.126813158
812.0581055	0.125412703
810.9547729	0.125661999
809.9890137	0.125580728
809.0228271	0.125817195
808.0562744	0.126123995
806.9511719	0.123858012
805.9838257	0.1252729
805.0160522	0.124581657
804.0479126	0.126254529
802.94104	0.123872303
801.9721069	0.126919791
801.0027466	0.12564382
800.0330811	0.125062138
799.0629883	0.122695945
797.9538574	0.124835894
796.9829712	0.126091361
796.0117188	0.123872712
795.0401001	0.126192316
794.0680542	0.125675142
792.9567261	0.126167774
791.9838867	0.126982078
791.0107422	0.124711826
790.0371704	0.12677218
789.0632324	0.126380146
787.949707	0.126821369
786.9749756	0.12677756
785.9998779	0.126139462
785.024353	0.125560403
784.0485229	0.127122372
782.9328003	0.125012264
781.9561768	0.128669977
780.979187	0.1277017
780.00177	0.127557755
779.0240479	0.128847033
778.0458984	0.129429489
777.0674438	0.128915817
775.9487305	0.128830046
774.9694824	0.131101638
773.9898071	0.131125614
773.0098267	0.131546319
772.02948	0.1305805
771.0487061	0.131708428
770.067627	0.131605759
768.9459229	0.131632119
767.9640503	0.132980958
766.9818115	0.133253992
765.9992676	0.134440541
765.0162964	0.133955523
764.032959	0.134865522
763.0492554	0.135243684
762.0652466	0.135551304
760.9401855	0.136330649
759.9553833	0.136388362
758.9702148	0.136278912
757.9846802	0.137740284
756.9987793	0.138914287
756.0125732	0.140370578
755.0259399	0.140617773
754.0390015	0.139949575
753.0516968	0.14130199
752.0640259	0.141819179
750.9348145	0.143877104
749.9464111	0.143924415
748.9575806	0.144726411
747.9684448	0.145538181
746.9789429	0.143357068
745.9891357	0.145532385
744.9989624	0.145674065
744.0083618	0.147215694
743.0175171	0.146870285
742.0262451	0.147849008
741.034668	0.148588121
740.0426636	0.148921594
739.050415	0.149804696
738.0577393	0.14946653
737.0647583	0.150258899
735.9295044	0.14851141
734.93573	0.149980962
733.9416504	0.150319159
732.9472046	0.150111482
731.9524536	0.149975449
730.9572754	0.150086686
729.961853	0.149474859
728.9660034	0.150037572
727.9698486	0.15001072
726.9733276	0.147595301
725.9765015	0.148901865
724.9793091	0.147429436
723.9818115	0.148074105
722.9838867	0.148067519
721.9857178	0.146835476
720.9871216	0.147156984
719.9882202	0.147100166
718.9890137	0.146708146
717.9894409	0.145717904
716.989502	0.146075115
715.9892578	0.145733804
714.9886475	0.145833746
713.9877319	0.145349115
712.9864502	0.145658568
711.9848633	0.145349592
710.9829102	0.145630404
709.9806519	0.145527974
708.9780273	0.145006388
707.9750977	0.146039575
706.9718018	0.146024466
705.9682007	0.145623893
704.9642334	0.146661997
703.9599609	0.146622583
702.9553833	0.147407562
701.9504395	0.147034913
700.9451294	0.147486627
699.9395752	0.147791594
698.9335938	0.147875354
698.071106	0.148596615
697.0645752	0.148607329
696.0576782	0.148891434
695.0504761	0.149419278
694.0429688	0.150378734
693.0350952	0.151145637
692.0269165	0.152367815
691.0183716	0.150926277
690.0095215	0.15249081
689.0003662	0.152743489
687.9908447	0.15366295
686.9810791	0.153519303
685.9708862	0.153867275
684.9604492	0.15450196
683.949646	0.154928371
682.9385376	0.15580444
682.0715942	0.155964702
681.0598755	0.156864449
680.0478516	0.157656029
679.0355225	0.158010989
678.0228271	0.15869461
677.0098267	0.159275338
675.996521	0.160186887
674.9829102	0.159659773
673.9689331	0.159992278
672.9546509	0.161753088
671.9400635	0.162484661
671.0701904	0.163278759
670.0549927	0.162849948
669.0394897	0.164364636
668.0236816	0.163889557
667.0075684	0.166483834
665.9911499	0.16715245
664.9743652	0.166874602
663.9573364	0.168649122
662.9399414	0.16917032
662.067627	0.170122996
661.0496826	0.170863226
660.0313721	0.170912981
659.0128174	0.171618849
657.9938965	0.171479598
656.9747314	0.172789037
655.9552002	0.17293939
654.9353638	0.172304586
654.0609741	0.173273653
653.0405884	0.173740119
652.0198364	0.173458144
650.9988403	0.172642514
649.9775391	0.172273979
648.9558716	0.171428427
647.93396	0.171440035
647.0577393	0.170645297
646.0352173	0.169007406
645.0124512	0.168888539
643.9893188	0.167310715
642.9658813	0.166065663
641.9421997	0.166055456
641.0644531	0.165454105
640.0401611	0.163913384
639.015564	0.163576439
637.9906616	0.163301721
636.9655151	0.162367642
635.9400024	0.16140759
635.060791	0.161341414
634.034729	0.160883948
633.0083618	0.160769463
631.9816895	0.159188211
630.9547729	0.160138831
629.9275513	0.159133717
629.046814	0.159511641
628.0189819	0.15992707
626.9909058	0.159502178
625.9625244	0.159199715
624.9338379	0.159916997
624.0518799	0.159854055
623.022644	0.160562277
621.993103	0.160435095
620.9633179	0.161154777
619.9331665	0.161342427
619.0499878	0.161638141
618.0193481	0.161557555
616.9884033	0.162633106
615.9571533	0.162900493
615.072998	0.162631258
614.0411987	0.163711473
613.0091553	0.164920762
611.9768066	0.164853677
610.9441528	0.164983735
610.0587769	0.165980488
609.0255737	0.166387767
607.9921265	0.16803202
606.958374	0.168428063
606.0720825	0.16917102
605.0377808	0.170106918
604.0031738	0.171212673
602.9683228	0.172107592
601.9332275	0.173014417
601.0457153	0.173304632
600.0100098	0.174031258
598.9740601	0.175746307
597.9378662	0.176355124
597.0494385	0.176413536
596.0126343	0.177942127
594.9755859	0.177872092
593.9382935	0.178390279
593.0489502	0.179888144
592.0110474	0.180140436
590.9729614	0.179742962
589.9345703	0.180332601
589.0442505	0.181085497
588.0053711	0.181762308
586.9661255	0.182388574
585.9266968	0.182178676
585.0354614	0.182737097
583.9954834	0.182798326
582.9552002	0.183169827
582.0633545	0.182714149
581.022583	0.18325232
579.9815063	0.183375225
578.9401855	0.182997227
578.0474243	0.183034167
577.0056152	0.18394123
575.963501	0.183627024
575.0700684	0.183367088
574.0274048	0.183564678
572.9845581	0.183867171
571.9414063	0.184061348
571.0470581	0.183495283
570.003418	0.184201539
568.9594727	0.183898091
568.0645142	0.184335545
567.0200806	0.184120044
565.9754028	0.183816344
564.9304199	0.184104621
564.0345459	0.184540272
562.9890747	0.184945643
561.9433594	0.184622154
561.046875	0.184175387
560.0006714	0.184306309
558.9541626	0.184102088
558.0570068	0.183925495
557.0100098	0.183358833
555.9628296	0.18366012
555.0650024	0.18324624
554.0172729	0.182733342
552.9692993	0.182487428
552.0708618	0.182111621
551.0223999	0.181325272
549.9736328	0.181510061
549.0745239	0.181511283
548.0253296	0.18173717
546.9758911	0.181229949
545.9262085	0.181131408
545.0262451	0.181055844
543.9760132	0.181176513
542.9255981	0.180984482
542.0249634	0.181100577
540.9740601	0.181367874
540.0730591	0.18181853
539.0216675	0.181561336
537.9700317	0.182198688
537.0684204	0.182759166
536.0162964	0.183013648
534.9638672	0.183043316
534.0616455	0.183765754
533.0087891	0.184460461
531.9556885	0.185397953
531.0528564	0.185399309
529.9992676	0.186249435
528.9454956	0.187581316
528.0419922	0.187164441
526.9877319	0.188391671
525.9331665	0.189837307
525.0291138	0.190526828
523.9741211	0.191888437
523.0696411	0.193037048
522.0142212	0.194093496
520.9584961	0.195366517
520.0534668	0.196691766
518.9973145	0.198418468
517.940918	0.199404314
517.0352173	0.200580776
515.9783936	0.201794118
515.0723267	0.203158468
514.0150146	0.204179958
512.9574585	0.204716176
512.0507813	0.205259919
510.9927979	0.205995306
509.9345703	0.206538066
509.0273438	0.206663996
507.9686584	0.206163228
507.0610046	0.205871582
506.0018921	0.205691889
504.9425354	0.205888137
504.0343018	0.204938829
502.9745178	0.20443441
502.065918	0.204432175
501.0056763	0.204106569
499.9451904	0.203496635
499.0360107	0.202933788
497.9750977	0.202952579
497.0655212	0.202697426
496.0041809	0.202868819
494.9425964	0.202351913
494.0324707	0.201772913
492.9704285	0.201875985
492.0599365	0.20159182
490.9974976	0.201517865
489.9347839	0.201653749
489.0237427	0.201655731
487.9606018	0.201921105
487.0491943	0.202010125
485.9856567	0.202165097
485.0738525	0.202386394
484.0098877	0.203163669
482.9456787	0.203421339
482.0333252	0.204018444
480.968689	0.204627395
480.0559998	0.205232054
478.9909363	0.205860764
477.9256592	0.206977069
477.0123901	0.208051056
475.9467163	0.209094912
475.0330811	0.210313156
473.96698	0.210941359
473.053009	0.211784944
471.9864807	0.213283822
471.0721436	0.213917479
470.005188	0.215091586
468.9380493	0.216423884
468.0231628	0.217024684
466.9555969	0.218551412
466.0403748	0.219852001
464.9723816	0.220995382
464.0567932	0.222658336
462.9884033	0.223103419
462.0724792	0.223526105
461.0036926	0.22501801
459.9346924	0.224903643
459.018219	0.225721881
457.948822	0.225915238
457.0320129	0.225652799
455.9621887	0.225579515
455.0450439	0.22572127
453.974823	0.225487053
453.0573425	0.224995494
451.9867249	0.225020275
451.0689087	0.224657923
449.9978943	0.224415347
448.9266663	0.224375114
448.0083313	0.224475712
446.9367065	0.224544436
446.0180359	0.224498108
444.9460144	0.224607259
444.0270081	0.224695489
442.9546204	0.22450085
442.0352478	0.225309074
440.9624634	0.225562856
440.0427856	0.225778997
438.9696045	0.226083636
438.0495911	0.226969495
436.9760437	0.227526501
436.0556946	0.228350133
434.9817505	0.228957802
434.0610962	0.229888052
432.9867859	0.230865791
432.0657654	0.232132897
430.9910889	0.232666969
430.0697632	0.233453184
428.9946899	0.234423667
428.0730286	0.235226035
426.9975891	0.237145633
426.0756226	0.238541573
424.9997864	0.239409849
423.9237671	0.240641415
423.0013123	0.241991982
421.9249268	0.243540928
421.0021362	0.244219571
419.9253845	0.246082127
419.0022888	0.246639133
417.9251709	0.248219892
417.0017395	0.24930808
415.9242554	0.250797123
415.0005188	0.251713067
414.0766602	0.252287298
412.9986267	0.252948821
412.0744629	0.253594071
410.9960632	0.254465431
410.0715942	0.255053133
408.9928284	0.255003065
408.0680542	0.255729914
406.9889526	0.256270558
406.0638428	0.25699079
404.984375	0.257434815
404.05896	0.25809738
402.9791565	0.25855571
402.0534363	0.259438157
400.9732666	0.260585427
400.0472717	0.262028873
398.9667358	0.263186425
398.0404358	0.263917804
396.9595642	0.265308738
396.032959	0.267029315
394.9517212	0.268919557
394.0248108	0.270353377
392.9432678	0.27254507
392.0160522	0.274217188
390.9341431	0.275804073
390.0066528	0.278321981
388.924408	0.280475766
387.9966125	0.282835186
387.0686951	0.284558862
385.9859314	0.286986768
385.0577393	0.289462537
383.9746399	0.291854113
383.0461426	0.293725818
381.9627075	0.296505213
381.0339355	0.298145443
379.9501648	0.301160395
379.0210876	0.30309701
377.9370117	0.304755211
377.0076294	0.305643976
375.9232178	0.306760609
374.9935913	0.307438433
374.0638123	0.308136612
372.9789124	0.308866113
372.0488586	0.309608161
370.963623	0.310836285
370.0332947	0.311082125
368.9477539	0.312495709
368.0171204	0.313805759
366.9312439	0.315538228
366.0003662	0.316004455
365.0693359	0.318433821
363.9830017	0.319956154
363.0517273	0.322674781
361.9650574	0.324008614
361.0335083	0.32652244
359.9465027	0.328844458
359.014679	0.331530511
357.9273987	0.334565699
356.9953003	0.337301105
356.0630493	0.338531613
354.9753113	0.341358185
354.0428162	0.34409377
352.9547424	0.346718788
352.0220032	0.349167019
350.9336243	0.35204339
350.0006104	0.353350759
349.0674744	0.355573982
347.9786377	0.358298928
347.0452271	0.360963613
345.9561157	0.362548769
345.0224304	0.363507301
343.9330139	0.365793824
342.9990845	0.368132591
342.0650635	0.369180799
340.9751892	0.370938003
340.0408936	0.372526884
338.9507141	0.375496358
338.0161743	0.376775026
336.9256897	0.37966916
335.9909058	0.381174177
335.0559692	0.382930368
333.9650879	0.38480562
333.0299072	0.388558537
331.9387207	0.392000616
331.0032959	0.39439407
330.067749	0.396318764
328.9761353	0.400026113
328.0403442	0.403378248
326.9484558	0.406104237
326.0124207	0.408464521
325.0762634	0.410204768
323.9839478	0.412818313
323.0475464	0.415060431
321.9549561	0.417420685
321.0183411	0.420477152
319.9254456	0.421891332
318.9885559	0.42469728
318.0515747	0.426169634
316.9582825	0.430508792
316.0210571	0.431974322
314.9274902	0.433339566
313.9900513	0.436680138
313.0524597	0.439393222
311.9584961	0.442014068
311.0206909	0.443139911
309.9264526	0.44562614
308.9884338	0.44868356
308.0502625	0.450621218
306.9556274	0.453454077
306.0172729	0.455468863
304.9223633	0.45646432
303.9837341	0.459438503
303.0450439	0.462756515
301.9497375	0.46687755
301.0108032	0.467600435
300.0717468	0.470559627
298.9760742	0.475667208
298.0368042	0.482281953
296.9408569	0.490829945
296.0013733	0.492736429
295.0617676	0.496747106
293.9654541	0.507927597
293.0256348	0.519337118
291.9290771	0.533550561
290.9890137	0.543334186
290.0488892	0.554709554
288.9519348	0.572286129
288.0115967	0.59010613
287.0711365	0.607664406
285.9738159	0.624827027
285.0331421	0.645702362
283.9355774	0.674859226
282.9946899	0.695203126
282.0537109	0.719447613
280.95578	0.734544575
280.0145874	0.758326471
279.0733032	0.785556138
277.9750061	0.814144731
277.0335083	0.83529985
275.934967	0.861267328
274.9932556	0.881973326
274.0514526	0.91007489
272.9525757	0.939175606
272.0105591	0.963684976
271.0684509	0.975322545
269.9692078	1.003115296
269.0269165	1.024801135
267.9274292	1.048437476
266.9849243	1.060373783
266.0423279	1.06838274
264.9425354	1.086843848
263.9997253	1.095836282
263.0568237	1.104751825
261.9566956	1.111590743
261.0135803	1.115264773
260.0704041	1.116021395
258.9699402	1.113820791
258.0265503	1.108436704
256.9258423	1.10154736
255.9822693	1.09407568
255.03862	1.080427647
253.9375763	1.065500259
252.9937286	1.045851707
252.0497894	1.034327984
250.9484253	1.021203518
250.004303	0.998608649
249.0657043	0.983190358
247.9705811	0.956672609
247.0318298	0.941100538
245.9364929	0.92219168
244.9975433	0.904976249
244.0585175	0.883766949
242.9628754	0.862779617
242.0236511	0.853614867
240.9277954	0.837949157
239.9884033	0.826568306
239.0489349	0.812719524
237.952774	0.800977111
237.0131073	0.794503927
236.0733795	0.790026128
234.9769135	0.783656657
234.0370026	0.782860041
232.9403381	0.783891916
232.0002441	0.786074042
231.0600891	0.790057302
229.9631195	0.798834801
229.0227814	0.809120715
227.9256134	0.826068819
226.9851074	0.840122283
226.0445251	0.860674083
224.9470673	0.885209799
224.0063171	0.924366355
223.0654907	0.961216211
221.9677429	1.00750649
221.0267487	1.043449998
219.9288177	1.10608685
218.9876556	1.169630647
218.0464172	1.252589345
216.9482117	1.340138912
216.0068054	1.403359652
215.0653381	1.466709733
213.9668579	1.55202806
213.0252228	1.642748356
211.9265594	1.71895051
210.9847565	1.771971107
210.0428925	1.835508347
208.9439545	1.940500975
208.0019379	1.990968466
207.059845	2.051150084
205.9606323	2.096760511
205.0183868	2.163383245
204.0760651	2.306370258
202.9766083	2.354946375
202.0341339	2.338101387
200.9345093	2.375651836
199.9917755	2.362232208