  1.2872775e-002  1.0656015e+001  2.1429383e+001  9.2548594e+002
  1.1040984e-002  1.5467078e+001  1.9264718e+001  9.6833135e+002
  1.4665534e-001  2.1615538e+001  3.8173166e+001  9.9792596e+002
  1.6092707e-001  5.6466699e+001  1.7430000e+001  1.0189801e+003
  0.0000000e+000  1.3800000e+001  1.9290000e+001  1.0730000e+003
  0.0000000e+000  2.3990000e+001  1.2880000e+001  1.1170000e+003
  0.0000000e+000  2.6060000e+001  1.9810000e+001  1.1220000e+003
  0.0000000e+000  2.3530000e+001  3.5310000e+001  1.1360000e+003
  0.0000000e+000  1.5680000e+001  5.5030000e+001  1.1940000e+003
  0.0000000e+000  2.3950000e+001  2.1510000e+001  1.2620000e+003
  0.0000000e+000  3.4260000e+001  2.6140000e+001  1.2760000e+003
  0.0000000e+000  1.8750000e+001  3.1060000e+001  1.2890000e+003
  1.0867209e-001  1.0000000e+000  1.0000000e+000  1.0000000e+000
