 -6.4373525e-003  1.0234618e+001  2.1249101e+001  9.2551565e+002
  1.3497048e-002  1.4372564e+001  1.8764009e+001  9.7068973e+002
  1.2030699e-002  9.8452076e+000  2.0065874e+001  9.9018486e+002
  5.1613801e-002  4.5998526e+001  1.7430000e+001  1.0412862e+003
  0.0000000e+000  1.3800000e+001  1.9290000e+001  1.0730000e+003
  0.0000000e+000  2.3990000e+001  1.2880000e+001  1.1170000e+003
  0.0000000e+000  2.6060000e+001  1.9810000e+001  1.1220000e+003
  0.0000000e+000  2.3530000e+001  3.5310000e+001  1.1360000e+003
  0.0000000e+000  1.5680000e+001  5.5030000e+001  1.1940000e+003
  0.0000000e+000  2.3950000e+001  2.1510000e+001  1.2620000e+003
  0.0000000e+000  3.4260000e+001  2.6140000e+001  1.2760000e+003
  0.0000000e+000  1.8750000e+001  3.1060000e+001  1.2890000e+003
  2.9352628e-002  1.0000000e+000  1.0000000e+000  1.0000000e+000
