  7.9397194e-002  9.7089684e+000  2.1537917e+001  9.2547864e+002
  1.3646962e-001  1.3584756e+001  1.7372221e+001  9.6752108e+002
  5.1433003e-001  1.4020511e+001  2.1822184e+001  9.9427655e+002
  2.9401699e-001  4.6354890e+001  1.7430000e+001  1.0403334e+003
  0.0000000e+000  1.3800000e+001  1.9290000e+001  1.0730000e+003
  0.0000000e+000  2.3990000e+001  1.2880000e+001  1.1170000e+003
  0.0000000e+000  2.6060000e+001  1.9810000e+001  1.1220000e+003
  0.0000000e+000  2.3530000e+001  3.5310000e+001  1.1360000e+003
  0.0000000e+000  1.5680000e+001  5.5030000e+001  1.1940000e+003
  0.0000000e+000  2.3950000e+001  2.1510000e+001  1.2620000e+003
  0.0000000e+000  3.4260000e+001  2.6140000e+001  1.2760000e+003
  0.0000000e+000  1.8750000e+001  3.1060000e+001  1.2890000e+003
  1.6867978e-001  1.0000000e+000  1.0000000e+000  1.0000000e+000
