1100.013062	0.151996464
1098.95752	0.160068616
1098.018433	0.226152867
1096.961182	0.083278179
1096.020752	0.171089321
1094.961914	0.191390857
1094.02002	0.140020281
1092.959595	0.217908263
1092.016357	0.145523951
1090.954224	0.144329161
1090.009521	0.122930668
1088.945923	0.146012247
1087.999756	0.173112586
1087.052856	0.15379037
1085.986816	0.166052908
1085.038574	0.186794564
1083.970947	0.15347895
1083.02124	0.13744624
1081.952026	0.119644702
1081.000977	0.16523838
1080.049194	0.12471731
1078.977539	0.171929568
1078.024414	0.164530218
1076.951294	0.197554976
1075.996704	0.150920525
1075.041382	0.178363085
1073.965942	0.199598968
1073.009277	0.156932771
1072.05188	0.185287967
1070.974121	0.191657603
1070.015381	0.188805819
1069.055908	0.17204684
1067.97583	0.1670001
1067.015015	0.186683863
1066.053589	0.142344713
1064.971069	0.185946062
1064.008179	0.169150114
1063.044678	0.175205723
1061.959961	0.191032067
1060.995117	0.168650612
1060.029541	0.198219851
1058.942505	0.193029821
1057.975464	0.192125663
1057.007935	0.171238512
1056.039673	0.175100416
1054.949585	0.175120443
1053.97998	0.193753108
1053.009644	0.17402643
1052.038696	0.194325343
1050.945679	0.199941978
1049.973267	0.195830077
1049.000366	0.20114325
1048.026733	0.197312713
1047.05249	0.205769911
1045.955688	0.19579643
1044.97998	0.200794116
1044.003784	0.206347734
1043.026855	0.20218356
1042.049316	0.194355875
1040.94873	0.190467149
1039.969849	0.190036103
1038.990234	0.197426438
1038.01001	0.182742924
1037.029175	0.19072485
1036.047729	0.19396466
1034.942749	0.20747526
1033.959961	0.18036671
1032.97644	0.192119628
1031.99231	0.194978893
1031.007568	0.202594146
1030.022217	0.183963135
1029.036133	0.200415626
1028.049438	0.194250599
1026.938721	0.196181834
1025.950684	0.198027521
1024.962036	0.200190425
1023.972839	0.209698573
1022.98291	0.189145327
1021.992371	0.210660771
1021.001221	0.199316084
1020.009399	0.213484839
1019.016968	0.208939925
1018.023926	0.212797508
1017.030273	0.20623681
1016.03595	0.214033276
1015.041016	0.207585588
1014.045471	0.226763099
1013.049255	0.224696964
1012.052429	0.220715717
1011.054993	0.226221591
1010.056946	0.230585381
1009.058289	0.237299979
1008.05896	0.236643255
1007.059021	0.242573217
1006.058472	0.251801938
1005.057312	0.249955535
1004.055542	0.253634274
1003.053162	0.264875889
1002.05011	0.261604816
1001.046448	0.270202279
1000.042236	0.268706054
999.0373535	0.277173996
998.0318604	0.276762605
997.0257568	0.278385907
996.0189819	0.286601424
995.0116577	0.288875192
994.0037231	0.286679566
992.9951782	0.287461549
991.9859619	0.282381803
990.9761963	0.284375221
989.9658203	0.289741308
988.9547729	0.281374872
987.9431763	0.27340579
987.0574951	0.276279926
986.0447388	0.26710245
985.0313721	0.268491089
984.017395	0.263824701
983.0028076	0.259090453
981.9876099	0.250381023
980.9718018	0.253124654
979.9554443	0.252149224
978.9384155	0.249634653
978.0480347	0.242306724
977.0299072	0.243733317
976.0111694	0.242475122
974.9918213	0.240821257
973.9718628	0.2364676
972.951355	0.233220875
972.0578613	0.232258767
971.0361938	0.228731528
970.013916	0.223500237
968.9910889	0.224334106
967.9675903	0.222847521
966.9435425	0.217130929
966.0469971	0.207270786
965.0218506	0.207998604
963.9960938	0.204566032
962.9697266	0.201914027
961.942749	0.201276273
961.0436401	0.193405658
960.015564	0.188597158
958.9869385	0.194699958
957.9577026	0.186434418
957.0565796	0.182234436
956.0262451	0.173399329
954.9953003	0.177823871
953.9637451	0.174202725
953.0606689	0.170885444
952.0280151	0.16877383
950.994751	0.168619081
949.9609375	0.166325226
949.0559082	0.168036893
948.0209961	0.166970104
946.9854736	0.162758246
945.9494019	0.163957253
945.0423584	0.16389522
944.005188	0.163223386
942.9674072	0.162081808
942.0588989	0.166270256
941.0200195	0.163197979
939.9805908	0.16448772
938.9406128	0.165879443
938.0301514	0.163501561
936.9890137	0.164024025
935.9473267	0.167503804
935.0354004	0.16775474
933.9926758	0.169033468
932.9493408	0.172995523
932.0359497	0.168993652
930.9915161	0.168873772
929.9465332	0.166593164
929.0317383	0.171571016
927.9856567	0.170359641
926.9390259	0.168198347
926.0227661	0.169885725
924.9750977	0.165124565
924.0578613	0.166413471
923.0090942	0.165389285
921.9597778	0.162674934
921.0411377	0.162380174
919.9907227	0.158780873
918.9397583	0.158807442
918.0197144	0.157459885
916.9676514	0.155190289
916.0466309	0.154005826
914.9935913	0.15228577
913.9399414	0.150577754
913.0175171	0.152242139
911.9627686	0.151830211
911.0394287	0.152148977
909.9837036	0.149956793
909.0594482	0.148881465
908.0026245	0.148758695
906.9452515	0.150074065
906.0195313	0.147953183
904.9611206	0.148780495
904.0345459	0.149084777
902.9750977	0.149541006
902.0476074	0.147103921
900.9870605	0.150375292
900.0586548	0.148939431
898.9970703	0.153647095
897.9349976	0.153722167
897.005188	0.152669355
895.9420166	0.15519847
895.0113525	0.156273902
893.9471436	0.158203557
893.0155029	0.158419803
891.9503174	0.160327956
891.0177612	0.160393074
889.9515381	0.161630511
889.0181274	0.16268231
887.9508667	0.162161306
887.0165405	0.162858456
885.9482422	0.160612032
885.0130005	0.16154103
883.9436646	0.160490602
883.0075684	0.160292983
881.9371948	0.159255207
881.0002441	0.158084974
880.0628052	0.157273263
878.9909668	0.157228574
878.0526733	0.155204564
876.9797974	0.154297024
876.0405884	0.153891742
874.9667358	0.153119385
874.0266113	0.151897892
872.9517822	0.151582345
872.0108032	0.150432274
870.9348755	0.150311142
869.993042	0.147956833
869.0507813	0.147425488
867.9734497	0.150247842
867.0302734	0.149804145
865.9519043	0.147535056
865.0079346	0.150897399
864.0634766	0.147435337
862.9836426	0.146171376
862.0383301	0.144859761
860.9575195	0.147380114
860.0113525	0.147665381
859.0647583	0.144723743
857.9824829	0.146405786
857.0350342	0.145456761
855.9517822	0.145074457
855.003418	0.148520336
854.0547485	0.145958856
852.9699707	0.146989152
852.0204468	0.146234691
850.9346924	0.146347329
849.9842529	0.145810857
849.0334473	0.146102771
847.9462891	0.147072971
846.9945679	0.147936881
846.0424805	0.145443231
844.9538574	0.14627254
844.0009155	0.145945191
843.0475464	0.150021628
841.9575195	0.149743184
841.0033569	0.145808324
840.0487671	0.147974327
838.9572754	0.146416411
838.0018311	0.146646857
837.0459595	0.146151006
835.953125	0.147630349
834.9963989	0.146955922
834.0393066	0.147715539
832.9450684	0.146986753
831.9871216	0.148842856
831.0288086	0.146552354
829.9331055	0.146381959
828.973938	0.147030041
828.0143433	0.148128241
827.0544434	0.147167221
825.9568481	0.146425843
824.9960938	0.148236886
824.0349121	0.148355559
822.9359741	0.148269415
821.973938	0.149049163
821.0115967	0.149600133
820.0487671	0.148228914
818.947998	0.150707096
817.984375	0.149853736
817.0203857	0.148112282
816.0560303	0.150968194
814.9534302	0.152713463
813.9882202	0.148501679
813.022583	0.151482359
812.0566406	0.15075548
810.9522095	0.152633235
809.9854126	0.151681036
809.0182495	0.152602911
808.0506592	0.150941148
806.944397	0.153084844
805.9760742	0.152974084
805.0072632	0.151008219
804.038147	0.152057558
803.0686646	0.150648981
801.960144	0.153904989
800.9898071	0.152929217
800.019104	0.15162389
799.0480347	0.151228532
797.9377441	0.150634289
796.9658813	0.15072149
795.9935913	0.150108591
795.0209961	0.153437704
794.0479736	0.149643317
792.9354858	0.150159508
791.9616699	0.1481511
790.9874878	0.151369989
790.0128784	0.146964535
789.0379639	0.1483109
788.0626221	0.149667576
786.9475098	0.14869529
785.9714355	0.148042753
784.9949341	0.148503721
784.0180664	0.148842052
783.0408936	0.147837952
782.0632935	0.150163814
780.9455566	0.150698856
779.9671631	0.150651947
778.9884644	0.151496813
778.0093384	0.150589913
777.0298462	0.151248634
776.0499878	0.151512668
775.0697632	0.151112318
773.9490356	0.151298508
772.9680786	0.152778745
771.9866943	0.15401122
771.0049438	0.154512122
770.0228882	0.153396949
769.0404053	0.155819297
768.0575562	0.155417442
766.9338989	0.15724656
765.9503174	0.15905124
764.9663696	0.160329491
763.9819946	0.16010043
762.9973145	0.161449865
762.0122681	0.162900463
761.0269165	0.163889065
760.0411377	0.165317848
759.0549927	0.167304814
758.0685425	0.165701792
756.9406738	0.166970059
755.9534302	0.168113098
754.9658203	0.171271503
753.9779053	0.17251122
752.989563	0.17462571
752.0009155	0.177236974
751.0118408	0.176653266
750.0224609	0.177218556
749.0327759	0.180008218
748.0426636	0.180690214
747.0522461	0.182553276
746.0614014	0.185885653
745.0703125	0.186584443
743.9371338	0.188887268
742.9451904	0.188347668
741.9529419	0.189626798
740.9603882	0.191766754
739.9674072	0.193675101
738.9741211	0.195084989
737.9804688	0.1949711
736.9864502	0.196327284
735.9921265	0.197831258
734.9974365	0.197614953
734.0023804	0.197889879
733.007019	0.198277101
732.0112915	0.198305041
731.0151978	0.19910112
730.0187988	0.198280573
729.0220337	0.196348146
728.0249023	0.195458517
727.0274658	0.195746586
726.0296631	0.193505749
725.0314941	0.192853421
724.03302	0.193314657
723.0341797	0.190666184
722.0350342	0.188901186
721.0355225	0.188357413
720.0356445	0.187101945
719.0354614	0.185961008
718.0349731	0.18445611
717.0340576	0.183919564
716.0328979	0.182920784
715.031311	0.182482779
714.02948	0.182351068
713.0272217	0.182255238
712.0246582	0.182176322
711.0217896	0.18113102
710.0185547	0.181294501
709.0150146	0.18127045
708.0111084	0.181146726
707.006897	0.181154236
706.0023193	0.181532234
704.9974365	0.181552753
703.9921875	0.182014108
702.9866333	0.183090434
701.9807129	0.182356864
700.9744873	0.182513043
699.9679565	0.183564678
698.9610596	0.183570921
697.9538574	0.183929205
696.9462891	0.184710503
695.9384155	0.184391186
694.9302368	0.185658112
694.0657959	0.186343297
693.0569458	0.186917633
692.0477905	0.187433317
691.0383301	0.188187018
690.0285645	0.189408541
689.0184326	0.191020131
688.0079956	0.191152364
686.9971924	0.192981333
685.986145	0.194234163
684.9747314	0.194753453
683.9629517	0.197441325
682.9509277	0.19944562
681.9385376	0.200125992
681.0704956	0.202484295
680.0574951	0.201980084
679.0441895	0.204808146
678.0305786	0.205138058
677.0166626	0.206296861
676.0023804	0.2078235
674.987793	0.209341198
673.9729004	0.210100785
672.9576416	0.210840896
671.9421387	0.213719606
671.0714111	0.213766918
670.0552979	0.213946551
669.0388184	0.216578573
668.0220947	0.217912242
667.0050049	0.217078224
665.9876099	0.220852613
664.9699097	0.221253634
663.9519043	0.222823352
662.9335327	0.224765539
662.0604248	0.227211848
661.0415649	0.227254048
660.0223389	0.228597686
659.0028076	0.230103552
657.9829102	0.230820775
656.9627686	0.232268974
655.9423218	0.230623424
655.0673828	0.231509864
654.0463257	0.231209204
653.0249634	0.231014922
652.0032959	0.230942056
650.9813232	0.230439052
649.9590454	0.228008464
648.9364624	0.225584611
648.0597534	0.224421293
647.0366211	0.22314544
646.0131226	0.221450314
644.9893799	0.220080957
643.965332	0.217580721
642.940918	0.215487436
642.0626831	0.211981684
641.0377197	0.211055607
640.0125122	0.209765151
638.9869385	0.207154661
637.9611206	0.205833361
636.9349976	0.203420803
636.0551758	0.202316806
635.0285034	0.199596345
634.0014648	0.19941178
632.9741821	0.197357565
631.9465942	0.197963417
631.0655518	0.196253359
630.0374146	0.196313813
629.0089722	0.195647091
627.9802246	0.194523335
626.9511719	0.194765329
626.0689087	0.194232389
625.0393066	0.195744947
624.0093994	0.194703117
622.979248	0.195963219
621.9487915	0.196214974
621.0652466	0.19640401
620.0342407	0.196785137
619.0029297	0.197055176
617.9713135	0.197528288
616.9394531	0.197886005
616.0547485	0.198283956
615.0222778	0.198293522
613.989563	0.199173436
612.956543	0.200077742
612.0708618	0.200507373
611.0372925	0.201162502
610.003479	0.20223181
608.9693604	0.20309408
607.9349365	0.204218611
607.0480347	0.205100566
606.0131226	0.2073991
604.9778442	0.208547935
603.9423218	0.210776508
603.0545044	0.211531922
602.0184937	0.213487551
600.9821167	0.214667305
599.9455566	0.216411516
599.0567627	0.21820499
598.0196533	0.220055774
596.9821777	0.221415311
595.944519	0.223113895
595.0548096	0.223981664
594.0166016	0.224526942
592.9780884	0.225330547
591.93927	0.22628203
591.048645	0.227989376
590.0093384	0.227522731
588.9697266	0.228695855
587.9298706	0.229657739
587.0383301	0.229630724
585.9979858	0.230799332
584.9573364	0.23155883
584.0651245	0.23347871
583.0239258	0.234125286
581.9824829	0.236600265
580.9407349	0.237452984
580.0476685	0.23906821
579.0054321	0.240396589
577.9628906	0.241790578
577.0690918	0.243532181
576.026123	0.243714705
574.9828491	0.243919477
573.93927	0.244911611
573.0446167	0.244397268
572.0005493	0.243480802
570.9561768	0.242094263
570.0608521	0.241740212
569.0160522	0.240413562
567.9709473	0.239109367
566.9255981	0.237494096
566.0293579	0.236321092
564.9834595	0.235420823
563.9373779	0.234184235
563.0404663	0.233311683
561.9938354	0.233071834
560.9469604	0.231800452
560.0494385	0.231224239
559.0020142	0.230535299
557.9544067	0.228698567
557.0562134	0.227965489
556.0080566	0.227539346
554.9597168	0.226300865
554.0608521	0.224780187
553.0119629	0.223354802
551.9628296	0.222250193
551.0633545	0.221907198
550.0137329	0.220696434
548.9638672	0.219587967
548.0637817	0.218519554
547.0134277	0.218152538
545.9627686	0.217790276
545.0620728	0.216958463
544.0109253	0.216518775
542.9595947	0.215859816
542.0582275	0.215664849
541.0064087	0.21532692
539.9542847	0.215254217
539.0523071	0.215502188
537.9997559	0.215262026
536.9469604	0.215372875
536.0443115	0.215944126
534.9910278	0.216261536
533.9375	0.216802999
533.0343018	0.216924503
531.9802856	0.217619777
530.9260254	0.218541905
530.0221558	0.219869643
528.9674683	0.220476225
528.0631714	0.221778333
527.0079956	0.223106533
525.9525757	0.223758042
525.0477295	0.225922912
523.9918213	0.227350548
522.9356689	0.22912699
522.0302124	0.23124826
520.9736328	0.232194617
520.0678101	0.234168127
519.0107422	0.236070842
517.9534302	0.238031313
517.0469971	0.239697501
515.9891968	0.241765723
514.9312134	0.243721202
514.0241699	0.244686469
512.9656982	0.246798933
512.0582886	0.248127341
510.9993896	0.249307156
509.9402466	0.24997583
509.0322266	0.249934778
507.9726563	0.25006932
507.0642395	0.249554724
506.0042114	0.249358133
504.9439392	0.247696981
504.0349426	0.246915981
502.9742432	0.245860651
502.0648499	0.244932219
501.0037231	0.242776319
499.9423218	0.242544308
499.0323792	0.240219638
497.9705505	0.239487752
497.0602112	0.238847941
495.9979553	0.237705737
494.9354553	0.236185506
494.0245667	0.235324368
492.9616394	0.234404221
492.050354	0.233906642
490.9869995	0.233057261
490.0753479	0.233379543
489.0115662	0.233141735
487.9475403	0.232674435
487.0353394	0.232601956
485.9708862	0.233127743
485.0583191	0.23313877
483.9934387	0.233300254
482.9283447	0.233349636
482.0152283	0.23438783
480.9496765	0.235344797
480.0361938	0.236630708
478.9702454	0.237524912
478.0563965	0.238579646
476.9900208	0.240288496
476.0758057	0.24157308
475.0090332	0.243600622
473.9420166	0.245076522
473.0272522	0.247045845
471.9598389	0.248922646
471.0447388	0.250656188
469.9768982	0.252152175
469.0614319	0.253496856
467.9931641	0.254454255
466.9247131	0.256009221
466.0086975	0.257033318
464.9398193	0.258650929
464.023468	0.259163946
462.9541626	0.260119051
462.0374756	0.261041045
460.9677734	0.261663616
460.0507202	0.261864245
458.9806213	0.262126088
458.0632324	0.261873841
456.9927368	0.262008995
456.0749817	0.261333317
455.0040894	0.260621011
453.9329834	0.260266602
453.0147095	0.259411126
451.9432068	0.259020478
451.0245972	0.258167625
449.9526672	0.257689416
449.0337219	0.256928027
447.9614258	0.256383479
447.0421448	0.256062806
445.9694519	0.256460816
445.0498352	0.256054252
443.9767456	0.256088525
443.0567932	0.256219715
441.9833374	0.256559879
441.0630493	0.256719708
439.9891968	0.257638395
439.068573	0.257561833
437.9943237	0.258799344
437.0733643	0.259583026
435.9987488	0.260567993
434.9239197	0.261965632
434.0024719	0.262896448
432.9272461	0.264231771
432.0054626	0.265270025
430.9298706	0.26677537
430.007782	0.267885029
428.9318237	0.269662261
428.0093994	0.271080554
426.9330444	0.272927612
426.0102844	0.27386713
424.9335632	0.27552253
424.010498	0.276922435
422.9334106	0.278731048
422.0100403	0.280544311
420.9325867	0.281956375
420.0088806	0.282734662
418.9310608	0.284664333
418.007019	0.286556363
416.928833	0.288484812
416.0045166	0.289762348
414.9259338	0.290962637
414.0013123	0.291700006
413.0765076	0.29313764
411.9974365	0.293881357
411.0723267	0.294328511
409.9928894	0.294858277
409.0674744	0.294777125
407.9876709	0.294858486
407.0619507	0.295285195
405.981781	0.29539904
405.0557861	0.295898557
403.9752502	0.296176314
403.0489197	0.296902746
401.9680481	0.297522992
401.0414429	0.298504055
399.9602051	0.299354732
399.0332642	0.300012887
397.9516907	0.301406235
397.0244751	0.303641617
395.9425354	0.305867285
395.0150146	0.307755858
393.9327393	0.30964157
393.0049438	0.312644422
392.0769958	0.314288408
390.9942017	0.317312241
390.0659485	0.320156097
388.9828491	0.322812051
388.0542908	0.326557279
386.9708252	0.329844624
386.0420227	0.33269763
384.9581909	0.336767942
384.0290833	0.33887744
382.9449463	0.341220737
382.0155334	0.347015888
380.9310608	0.350427508
380.0013733	0.353830487
379.0715637	0.355692864
377.9865723	0.35745436
377.056488	0.358689994
375.9711914	0.359435886
375.040802	0.358547211
373.9551697	0.359235019
373.0245056	0.358554632
371.9385376	0.359792531
371.0075989	0.360587269
370.0765076	0.360948026
368.9900818	0.361534476
368.0587463	0.363261014
366.9719849	0.365067095
366.0403442	0.367157519
364.9532776	0.369028956
364.0213623	0.371743262
362.9339905	0.373928279
362.0018005	0.376214534
361.0694885	0.379972547
359.9816284	0.384446919
359.0490723	0.38759324
357.960907	0.392333567
357.0280457	0.396181196
355.9395752	0.400796413
355.0064392	0.404473901
354.0732117	0.408613414
352.9842834	0.412959814
352.0507813	0.416875154
350.9615173	0.421432167
350.0277405	0.424087018
348.9382019	0.427118808
348.0041809	0.429201871
347.0700073	0.431141675
345.980011	0.433253884
345.0455933	0.434819788
343.9553223	0.436376154
343.0206299	0.436232895
341.9300232	0.43738541
340.9951172	0.438734561
340.0600586	0.440230101
338.9690247	0.441379666
338.0337219	0.442670226
336.9423828	0.444152564
336.0068359	0.446831197
335.071167	0.448931396
333.9794006	0.452794671
333.043457	0.453996718
331.951416	0.458201051
331.0152283	0.462099105
329.9228821	0.46612668
328.9864807	0.472040683
328.0499268	0.474176765
326.9571533	0.479262233
326.0203857	0.481962264
324.9273376	0.486935228
323.9902954	0.490378708
323.0531616	0.491331488
321.9596863	0.494970173
321.0223083	0.498453021
319.9285583	0.501824558
318.9909363	0.503407955
318.0531921	0.506643355
316.9590454	0.510536254
316.0210571	0.514837325
314.9266357	0.518725276
313.9884338	0.525915086
313.0501099	0.528402269
311.9552612	0.533307135
311.0167236	0.538681209
310.078064	0.547160506
308.9828186	0.551183522
308.0439148	0.556898177
306.9484253	0.562487364
306.0093079	0.568879902
305.0700684	0.574460208
303.9741516	0.582425654
303.0346985	0.587163031
301.9385376	0.593447924
300.9988403	0.605798662
300.0590515	0.61405158
298.9625244	0.622526646
298.0224915	0.630204558
296.9256897	0.645326614
295.9854431	0.659910917
295.045105	0.673813522
293.9479065	0.692321301
293.0073547	0.711430311
292.0666809	0.72532177
290.9691162	0.74502635
290.0282288	0.764882982
288.9304199	0.786573947
287.9893188	0.801282585
287.0481262	0.820351601
285.9499207	0.840498209
285.0085144	0.858623087
284.0669861	0.87390542
282.9684448	0.888358116
282.0267029	0.90281564
280.9279175	0.919283629
279.9859619	0.933448851
279.0439453	0.94433409
277.9447632	0.961135626
277.002533	0.972428918
276.0601807	0.985542059
274.9606628	0.99580276
274.0181274	1.007960916
273.07547	1.012712002
271.9756165	1.025725484
271.0327759	1.030597329
269.9326477	1.04222703
268.989624	1.048560262
268.0464783	1.055713058
266.9460144	1.060314894
266.0026855	1.069275141
265.0592346	1.07700932
263.9584351	1.083891034
263.014801	1.086922407
262.0710754	1.099053264
260.9699402	1.105201244
260.0260315	1.110328317
258.9246826	1.118934274
257.9805603	1.11978662
257.0363464	1.123192906
255.9346619	1.124447703
254.9902649	1.123434186
254.0457764	1.118982553
252.9437561	1.115992785
251.9990845	1.106985211
251.0543213	1.100406051
249.9522705	1.090561867
249.0129547	1.087992787
248.0735474	1.075918198
246.9774628	1.063887119
246.0378723	1.047178984
244.9415894	1.028822303
244.0018158	1.020123601
243.0619507	1.009389639
241.9653473	0.990771294
241.0253143	0.974793375
239.9284973	0.960868776
238.9882813	0.951916456
238.0479889	0.936427653
236.9508667	0.922711909
236.0103912	0.912148297
235.0698395	0.90485841
233.9724121	0.896631181
233.0316772	0.891238153
231.9340668	0.886291623
230.9931488	0.885720849
230.0521698	0.887393355
228.9542542	0.888608813
228.013092	0.897993863
227.0718536	0.905312002
225.9736481	0.91915369
225.0322571	0.935305059
223.9338531	0.950994015
222.9922791	0.97223568
222.0506287	0.998228908
220.9519348	1.032890439
220.0101318	1.059378862
219.0682373	1.082809806
217.9692688	1.130538344
217.0272217	1.175211668
215.9280701	1.242360234
214.9858551	1.276961684
214.0435638	1.309493542
212.9441376	1.381475091
212.0016937	1.447909594
211.0591736	1.521048427
209.9594727	1.595393419
209.0167999	1.642225027
208.0740509	1.708946943
206.9740753	1.791855335
206.0311737	1.841207027
204.9310303	1.887184739
203.9879761	1.946585178
203.0448456	2.01943326
201.9444427	1.984916091
201.0011749	2.001251221
200.0578308	2.067345381