1100.043823	0.074118353
1098.989746	0.099082246
1098.052124	0.102400519
1096.99646	0.091350138
1096.057495	0.112406395
1095.000122	0.076940432
1093.942017	0.085254937
1093.000854	0.071661331
1091.94104	0.092830151
1090.998413	0.090790428
1090.055054	0.092120811
1088.99292	0.067682274
1088.048096	0.079720132
1086.984497	0.082754634
1086.038208	0.093052961
1084.9729	0.0949542
1084.025269	0.087078556
1082.958374	0.075943217
1082.009277	0.072179765
1080.940796	0.096272677
1079.990356	0.082695633
1079.039185	0.089602292
1077.968384	0.07783632
1077.015869	0.088473789
1075.943359	0.086931042
1074.98938	0.087120727
1074.03479	0.092616111
1072.960083	0.093193486
1072.004028	0.087644465
1071.047363	0.085733444
1069.970215	0.089516267
1069.012085	0.087036483
1068.053345	0.087922968
1066.973999	0.089217983
1066.013794	0.093055658
1065.052979	0.093930773
1063.971313	0.095376514
1063.009033	0.098820575
1062.046143	0.106053047
1060.962158	0.099788919
1059.997925	0.109920427
1059.032959	0.110043809
1057.946655	0.103220783
1056.980347	0.107829258
1056.013428	0.109675102
1055.045898	0.105136626
1053.956543	0.113737784
1052.987549	0.107113861
1052.017944	0.116385914
1051.047607	0.120486297
1049.9552	0.117077373
1048.983643	0.114771865
1048.01123	0.117341839
1047.03833	0.12066152
1045.942993	0.123820417
1044.968628	0.126956627
1043.993652	0.126025543
1043.018066	0.125350699
1042.041748	0.126723796
1040.942749	0.127837434
1039.965088	0.129300535
1038.986816	0.125621006
1038.007935	0.132066116
1037.028442	0.133181483
1036.048218	0.131128699
1034.944702	0.132095024
1033.963257	0.124854669
1032.981079	0.122705698
1031.998169	0.122263961
1031.014771	0.125444219
1030.03064	0.124013692
1029.045898	0.122371785
1028.060547	0.121507935
1026.951294	0.123103097
1025.9646	0.123601213
1024.977295	0.120708309
1023.989258	0.123367302
1023.000671	0.122430772
1022.011414	0.127361789
1021.021545	0.124934562
1020.031067	0.130987003
1019.039978	0.13218452
1018.048218	0.132690534
1017.055847	0.13421005
1015.93866	0.137433767
1014.944946	0.135471672
1013.950623	0.142655626
1012.955627	0.141372174
1011.960022	0.148258165
1010.963806	0.147052378
1009.96698	0.152164444
1008.969543	0.154463425
1007.971436	0.15730457
1006.972778	0.159450278
1005.97345	0.164278776
1004.973511	0.163161114
1003.9729	0.166823357
1002.971741	0.167341232
1001.96991	0.174089029
1000.967529	0.174333528
999.9644775	0.179718643
998.9608154	0.178024024
997.956543	0.18181172
996.9516602	0.179034263
995.946167	0.183002517
994.9400635	0.180626378
994.0592041	0.183398366
993.0519409	0.181875929
992.0440674	0.181328341
991.0355835	0.177987203
990.0264893	0.178285927
989.0167847	0.174275324
988.0064697	0.171173438
986.9955444	0.170463041
985.9839478	0.165081143
984.9718018	0.162935033
983.9591064	0.158524916
982.9457397	0.156593502
982.0585327	0.154408082
981.0440063	0.150471956
980.0289307	0.149065614
979.0132446	0.148917794
977.9968872	0.148190826
976.9799805	0.146151692
975.9624634	0.146121025
974.9443359	0.145208031
974.0530396	0.146530226
973.0337524	0.145914003
972.013916	0.145347536
970.9934692	0.144455239
969.9724121	0.143375069
968.9508057	0.143077031
968.0563965	0.140512839
967.0336304	0.137906566
966.0102539	0.134306714
964.9863281	0.132537127
963.961731	0.128554374
962.9365845	0.126076415
962.0391235	0.123890273
961.0128784	0.120028526
959.9860229	0.116383307
958.9585571	0.113483198
958.059082	0.109714292
957.0305176	0.10867431
956.0014038	0.105344161
954.9716797	0.101944022
953.9413452	0.100042447
953.0393066	0.099268042
952.0079346	0.097333834
950.9758911	0.09526664
949.9432983	0.09383592
949.0393066	0.092509657
948.0056152	0.091509737
946.9713135	0.090808481
945.9364624	0.09028127
945.0305176	0.088959098
943.9945679	0.088861801
942.9580078	0.087926485
942.0505371	0.087923415
941.0129395	0.087491505
939.9747314	0.087854549
938.9359131	0.087544858
938.0265503	0.088665448
936.9866333	0.088832423
935.946228	0.089973353
935.0353394	0.089553393
933.9937744	0.090542406
932.9517212	0.089990772
932.0393677	0.091519356
930.9962158	0.091755912
929.9524536	0.091128968
929.0386963	0.091821596
927.9938354	0.09120781
926.9484253	0.089015342
926.0332031	0.090351827
924.9867554	0.087999076
923.9396973	0.087100476
923.0230713	0.086381666
921.9749146	0.084120132
921.057373	0.084436566
920.0081787	0.081611969
918.9584351	0.080755033
918.0394287	0.079717897
916.9886475	0.079341196
915.9372559	0.078375049
915.0168457	0.077178299
913.9644165	0.076871097
913.0430298	0.07612887
911.989563	0.075334549
910.9354858	0.076065578
910.0127563	0.074133679
908.9576416	0.073955536
908.0339355	0.073488541
906.9777832	0.073504515
906.0532227	0.073456533
904.9959717	0.074330688
903.9382324	0.074131623
903.012207	0.074527331
901.9534302	0.073897138
901.0264893	0.074120939
899.9666748	0.074779466
899.0388184	0.074474044
897.9779053	0.075066395
897.0491943	0.075253151
895.9872437	0.075813957
895.0576172	0.076670088
893.9946289	0.077345707
893.0640869	0.077190265
892.0001221	0.077892683
890.9355469	0.077724352
890.0036011	0.078743204
888.9380493	0.079510152
888.005188	0.079166472
886.9385986	0.078988679
886.0048828	0.079803802
884.9372559	0.079312146
884.0026245	0.078901999
882.93396	0.078911871
881.9984741	0.078989953
881.0625	0.078802511
879.9923706	0.077613935
879.055542	0.077722929
877.984375	0.076749124
877.0466309	0.07557869
875.9744873	0.075788409
875.0358887	0.075260848
873.9626465	0.073810115
873.0231934	0.074437261
871.9489746	0.073091507
871.008606	0.073586226
869.9334106	0.073676609
868.9921265	0.072707817
868.0504761	0.072788797
866.9738159	0.073780142
866.03125	0.073413983
864.9535522	0.072630793
864.0101318	0.073064767
863.0663452	0.073785849
861.9871826	0.073315136
861.0424805	0.072441794
859.9623413	0.073488541
859.0167847	0.072226748
857.9356079	0.073218241
856.9891968	0.072181538
856.0423584	0.072913393
854.9597778	0.072939299
854.0120239	0.072135143
853.0639648	0.07178802
851.9799194	0.072069891
851.0309448	0.071877964
849.9459229	0.071660601
848.9960938	0.072013974
848.0458374	0.071965791
846.9593506	0.072342105
846.0083008	0.072456904
845.0567627	0.072443753
843.9688721	0.072124869
843.0165405	0.071160443
842.0637817	0.071733691
840.9744873	0.072509453
840.020874	0.072677366
839.0668945	0.072173469
837.9761353	0.071616635
837.0213013	0.071684413
836.06604	0.072136909
834.973877	0.072076492
834.0177612	0.072284408
833.0613403	0.071957082
831.9677124	0.071670525
831.010376	0.071673453
830.0526733	0.071028844
828.9577026	0.071845345
827.9991455	0.072283946
827.0402222	0.07176014
825.9437866	0.071927913
824.9840088	0.071444042
824.0238647	0.071760044
823.0632935	0.07240314
821.9650879	0.071572378
821.0036621	0.072325438
820.0419312	0.071568407
818.9422607	0.072417602
817.9796753	0.072691225
817.0166626	0.07296288
816.0532837	0.073093712
814.9518433	0.072981924
813.9876099	0.07231801
813.0230713	0.073360652
812.0581055	0.074429736
810.9547729	0.073720075
809.9890137	0.073962413
809.0228271	0.073725656
808.0562744	0.075277224
806.9511719	0.075075939
805.9838257	0.075124837
805.0160522	0.074456252
804.0479126	0.075235233
802.94104	0.07446111
801.9721069	0.074495092
801.0027466	0.074268028
800.0330811	0.074693374
799.0629883	0.074766397
797.9538574	0.073119871
796.9829712	0.07335826
796.0117188	0.073114023
795.0401001	0.073421247
794.0680542	0.07234975
792.9567261	0.072408035
791.9838867	0.07194373
791.0107422	0.072080895
790.0371704	0.072319046
789.0632324	0.07182885
787.949707	0.07145524
786.9749756	0.07083153
785.9998779	0.071485609
785.024353	0.071693569
784.0485229	0.071673267
782.9328003	0.070973732
781.9561768	0.071551621
780.979187	0.072185144
780.00177	0.071977399
779.0240479	0.072019197
778.0458984	0.072720788
777.0674438	0.071843728
775.9487305	0.073040813
774.9694824	0.073639065
773.9898071	0.073189937
773.0098267	0.07406383
772.02948	0.073954403
771.0487061	0.074857794
770.067627	0.074865483
768.9459229	0.075252905
767.9640503	0.075643197
766.9818115	0.076220982
765.9992676	0.076634571
765.0162964	0.076886237
764.032959	0.077710517
763.0492554	0.078675874
762.0652466	0.079099379
760.9401855	0.080012463
759.9553833	0.079812638
758.9702148	0.081163503
757.9846802	0.081368536
756.9987793	0.08235196
756.0125732	0.083258115
755.0259399	0.084518291
754.0390015	0.084883899
753.0516968	0.086230226
752.0640259	0.087364294
750.9348145	0.088707648
749.9464111	0.089688241
748.9575806	0.09044937
747.9684448	0.091467462
746.9789429	0.09240102
745.9891357	0.093679063
744.9989624	0.094985388
744.0083618	0.096146591
743.0175171	0.096653745
742.0262451	0.098190464
741.034668	0.100021556
740.0426636	0.100549802
739.050415	0.102257311
738.0577393	0.103124209
737.0647583	0.104158536
735.9295044	0.104766592
734.93573	0.105684117
733.9416504	0.106062859
732.9472046	0.106534161
731.9524536	0.107086331
730.9572754	0.106788971
729.961853	0.106589809
728.9660034	0.105796121
727.9698486	0.105812937
726.9733276	0.104998842
725.9765015	0.103862286
724.9793091	0.102740631
723.9818115	0.101433337
722.9838867	0.100361213
721.9857178	0.09884505
720.9871216	0.097715937
719.9882202	0.096896835
718.9890137	0.095904693
717.9894409	0.09485136
716.989502	0.093886815
715.9892578	0.093169622
714.9886475	0.092235141
713.9877319	0.092173047
712.9864502	0.091528751
711.9848633	0.091287404
710.9829102	0.091010019
709.9806519	0.090639003
708.9780273	0.090617187
707.9750977	0.090887807
706.9718018	0.090745412
705.9682007	0.090809062
704.9642334	0.091000631
703.9599609	0.091141261
702.9553833	0.091525942
701.9504395	0.091770433
700.9451294	0.091718696
699.9395752	0.092139475
698.9335938	0.092875421
698.071106	0.092944667
697.0645752	0.093232468
696.0576782	0.094144955
695.0504761	0.094418138
694.0429688	0.094946668
693.0350952	0.095943496
692.0269165	0.096743137
691.0183716	0.097309709
690.0095215	0.098613732
689.0003662	0.099215172
687.9908447	0.100312516
686.9810791	0.101045832
685.9708862	0.102500282
684.9604492	0.103791796
683.949646	0.10498295
682.9385376	0.10596595
682.0715942	0.106797516
681.0598755	0.107351176
680.0478516	0.108361542
679.0355225	0.109473482
678.0228271	0.110277891
677.0098267	0.111098945
675.996521	0.111598536
674.9829102	0.11276874
673.9689331	0.113209344
672.9546509	0.113869824
671.9400635	0.114338055
671.0701904	0.114870362
670.0549927	0.115471259
669.0394897	0.116230205
668.0236816	0.116350249
667.0075684	0.11696896
665.9911499	0.118111946
664.9743652	0.118770666
663.9573364	0.119278349
662.9399414	0.120560475
662.067627	0.121455237
661.0496826	0.122137472
660.0313721	0.123452939
659.0128174	0.12390732
657.9938965	0.124811187
656.9747314	0.125176325
655.9552002	0.125638217
654.9353638	0.125759333
654.0609741	0.125523463
653.0405884	0.12469779
652.0198364	0.123964794
650.9988403	0.123161458
649.9775391	0.121901326
648.9558716	0.1203577
647.93396	0.119020365
647.0577393	0.117646784
646.0352173	0.116225839
645.0124512	0.115236282
643.9893188	0.11340411
642.9658813	0.111524075
641.9421997	0.109891251
641.0644531	0.10873685
640.0401611	0.106951997
639.015564	0.105280064
637.9906616	0.103590094
636.9655151	0.102654979
635.9400024	0.100994155
635.060791	0.099929102
634.034729	0.098972082
633.0083618	0.097772151
631.9816895	0.096860856
630.9547729	0.096393794
629.9275513	0.0957122
629.046814	0.09550228
628.0189819	0.095059358
626.9909058	0.094706692
625.9625244	0.094826922
624.9338379	0.09463574
624.0518799	0.094970375
623.022644	0.095485188
621.993103	0.095641859
620.9633179	0.095366903
619.9331665	0.095682256
619.0499878	0.096296616
618.0193481	0.096394666
616.9884033	0.096749417
615.9571533	0.097272851
615.072998	0.097591825
614.0411987	0.098240383
613.0091553	0.098949812
611.9768066	0.099707596
610.9441528	0.100430362
610.0587769	0.101518907
609.0255737	0.102811873
607.9921265	0.103977084
606.958374	0.105405696
606.0720825	0.106349871
605.0377808	0.108395435
604.0031738	0.109903887
602.9683228	0.111946233
601.9332275	0.113807648
601.0457153	0.115378909
600.0100098	0.11681585
598.9740601	0.118413419
597.9378662	0.119241901
597.0494385	0.120580941
596.0126343	0.121398166
594.9755859	0.121597901
593.9382935	0.121779844
593.0489502	0.121467017
592.0110474	0.121512801
590.9729614	0.121546872
589.9345703	0.120845668
589.0442505	0.121156097
588.0053711	0.120896921
586.9661255	0.120849431
585.9266968	0.121260427
585.0354614	0.121264331
583.9954834	0.121791393
582.9552002	0.122411177
582.0633545	0.123176925
581.022583	0.124203369
579.9815063	0.124853388
578.9401855	0.125735164
578.0474243	0.126310334
577.0056152	0.127170861
575.963501	0.128004149
575.0700684	0.12822102
574.0274048	0.128220126
572.9845581	0.127996668
571.9414063	0.127882153
571.0470581	0.127323434
570.003418	0.126268029
568.9594727	0.12518248
568.0645142	0.124046624
567.0200806	0.123133235
565.9754028	0.122494228
564.9304199	0.121379167
564.0345459	0.120688044
562.9890747	0.119923934
561.9433594	0.119288027
561.046875	0.119073145
560.0006714	0.118555971
558.9541626	0.117957376
558.0570068	0.117250718
557.0100098	0.116597608
555.9628296	0.115525469
555.0650024	0.114959233
554.0172729	0.114008568
552.9692993	0.113398157
552.0708618	0.112427555
551.0223999	0.111683093
549.9736328	0.110799328
549.0745239	0.110058747
548.0253296	0.109517083
546.9758911	0.109177649
545.9262085	0.108632319
545.0262451	0.108129315
543.9760132	0.107582524
542.9255981	0.107037574
542.0249634	0.106942326
540.9740601	0.10738194
540.0730591	0.107134931
539.0216675	0.1067615
537.9700317	0.106437445
537.0684204	0.10665632
536.0162964	0.106833898
534.9638672	0.106445409
534.0616455	0.106859155
533.0087891	0.10751047
531.9556885	0.107732706
531.0528564	0.10813795
529.9992676	0.108352013
528.9454956	0.109762318
528.0419922	0.110474482
526.9877319	0.111282922
525.9331665	0.112462334
525.0291138	0.113102965
523.9741211	0.114578046
523.0696411	0.115753129
522.0142212	0.117252685
520.9584961	0.118743785
520.0534668	0.11989402
518.9973145	0.121777579
517.940918	0.123437189
517.0352173	0.124890417
515.9783936	0.126937792
515.0723267	0.128488392
514.0150146	0.13006027
512.9574585	0.131689072
512.0507813	0.133089379
510.9927979	0.134500057
509.9345703	0.135866553
509.0273438	0.136502057
507.9686584	0.136739999
507.0610046	0.136772737
506.0018921	0.136597171
504.9425354	0.136065841
504.0343018	0.134771079
502.9745178	0.133360535
502.065918	0.132374674
501.0056763	0.130699232
499.9451904	0.129181922
499.0360107	0.127723932
497.9750977	0.126269728
497.0655212	0.125211388
496.0041809	0.123973608
494.9425964	0.12280532
494.0324707	0.121516876
492.9704285	0.120217659
492.0599365	0.120072275
490.9974976	0.119782575
489.9347839	0.118850261
489.0237427	0.118391179
487.9606018	0.118572019
487.0491943	0.118507236
485.9856567	0.117872275
485.0738525	0.118076712
484.0098877	0.11907927
482.9456787	0.119495519
482.0333252	0.119979009
480.968689	0.120655611
480.0559998	0.121361986
478.9909363	0.122227296
477.9256592	0.123048998
477.0123901	0.124573484
475.9467163	0.125847489
475.0330811	0.127069369
473.96698	0.128205508
473.053009	0.129170835
471.9864807	0.130785763
471.0721436	0.1318634
470.005188	0.133300006
468.9380493	0.134400174
468.0231628	0.135096774
466.9555969	0.136113107
466.0403748	0.137059882
464.9723816	0.13814044
464.0567932	0.138905168
462.9884033	0.139623389
462.0724792	0.14008522
461.0036926	0.140747294
459.9346924	0.141301781
459.018219	0.14142938
457.948822	0.141229287
457.0320129	0.141069233
455.9621887	0.140143186
455.0450439	0.139359951
453.974823	0.138413578
453.0573425	0.137573525
451.9867249	0.13677004
451.0689087	0.136051104
449.9978943	0.135213628
448.9266663	0.134544373
448.0083313	0.134026423
446.9367065	0.133329421
446.0180359	0.133159533
444.9460144	0.132736534
444.0270081	0.132238954
442.9546204	0.131994903
442.0352478	0.132040829
440.9624634	0.131941795
440.0427856	0.132128581
438.9696045	0.132262856
438.0495911	0.132543683
436.9760437	0.132968307
436.0556946	0.133342445
434.9817505	0.133768693
434.0610962	0.134201691
432.9867859	0.13532649
432.0657654	0.1360607
430.9910889	0.1371402
430.0697632	0.137838408
428.9946899	0.13865453
428.0730286	0.139753535
426.9975891	0.1409114
426.0756226	0.142104611
424.9997864	0.143238828
423.9237671	0.144374669
423.0013123	0.145594463
421.9249268	0.146963522
421.0021362	0.148224324
419.9253845	0.149901778
419.0022888	0.150917411
417.9251709	0.15249449
417.0017395	0.153884441
415.9242554	0.155442834
415.0005188	0.15631716
414.0766602	0.156878159
412.9986267	0.157708183
412.0744629	0.157806903
410.9960632	0.158129931
410.0715942	0.158299819
408.9928284	0.157860324
408.0680542	0.157989904
406.9889526	0.157791078
406.0638428	0.157786384
404.984375	0.157717332
404.05896	0.157817394
402.9791565	0.1578684
402.0534363	0.158051297
400.9732666	0.158393964
400.0472717	0.15889588
398.9667358	0.159548834
398.0404358	0.160332859
396.9595642	0.161394075
396.032959	0.162563503
394.9517212	0.164032623
394.0248108	0.165965125
392.9432678	0.167527974
392.0160522	0.169153482
390.9341431	0.171771035
390.0066528	0.173639834
388.924408	0.175652742
387.9966125	0.177347198
387.0686951	0.17913051
385.9859314	0.181283265
385.0577393	0.182940856
383.9746399	0.185136303
383.0461426	0.187265113
381.9627075	0.189361528
381.0339355	0.191211015
379.9501648	0.193231523
379.0210876	0.19496043
377.9370117	0.195942923
377.0076294	0.196571067
375.9232178	0.196381182
374.9935913	0.196191788
374.0638123	0.195860267
372.9789124	0.195524409
372.0488586	0.195408702
370.963623	0.195221588
370.0332947	0.195543781
368.9477539	0.196070135
368.0171204	0.196791485
366.9312439	0.197733045
366.0003662	0.198596805
365.0693359	0.199847475
363.9830017	0.201577157
363.0517273	0.203857645
361.9650574	0.206023768
361.0335083	0.207717538
359.9465027	0.210208729
359.014679	0.213463381
357.9273987	0.216326401
356.9953003	0.219137505
356.0630493	0.221749261
354.9753113	0.224636391
354.0428162	0.227768153
352.9547424	0.230693564
352.0220032	0.232146546
350.9336243	0.234969154
350.0006104	0.236748576
349.0674744	0.238693237
347.9786377	0.240545198
347.0452271	0.241374075
345.9561157	0.242263228
345.0224304	0.242790401
343.9330139	0.243613675
342.9990845	0.24419187
342.0650635	0.244515881
340.9751892	0.244861394
340.0408936	0.244925633
338.9507141	0.245812461
338.0161743	0.246725828
336.9256897	0.247427419
335.9909058	0.248473704
335.0559692	0.249776334
333.9650879	0.252251715
333.0299072	0.254315376
331.9387207	0.257662833
331.0032959	0.259985775
330.067749	0.2627967
328.9761353	0.266435087
328.0403442	0.269490928
326.9484558	0.273288518
326.0124207	0.275104106
325.0762634	0.277290732
323.9839478	0.280347347
323.0475464	0.282648772
321.9549561	0.285051256
321.0183411	0.286324561
319.9254456	0.288355559
318.9885559	0.290664941
318.0515747	0.292813718
316.9582825	0.295496196
316.0210571	0.297709942
314.9274902	0.3007617
313.9900513	0.303826541
313.0524597	0.307964861
311.9584961	0.31190449
311.0206909	0.314973295
309.9264526	0.319002748
308.9884338	0.324843824
308.0502625	0.330183178
306.9556274	0.336490512
306.0172729	0.342243135
304.9223633	0.35029456
303.9837341	0.359985203
303.0450439	0.37166813
301.9497375	0.385515779
301.0108032	0.394985437
300.0717468	0.409010232
298.9760742	0.427844226
298.0368042	0.44558537
296.9408569	0.465004504
296.0013733	0.477235138
295.0617676	0.49447906
293.9654541	0.512887597
293.0256348	0.533731759
291.9290771	0.557477295
290.9890137	0.569831848
290.0488892	0.584300876
288.9519348	0.603865683
288.0115967	0.620839059
287.0711365	0.633574426
285.9738159	0.648895502
285.0331421	0.663153291
283.9355774	0.684528232
282.9946899	0.698265791
282.0537109	0.711956739
280.95578	0.72591579
280.0145874	0.73858738
279.0733032	0.752779901
277.9750061	0.7694453
277.0335083	0.781315625
275.934967	0.795943558
274.9932556	0.806912839
274.0514526	0.820129871
272.9525757	0.833469927
272.0105591	0.844425023
271.0684509	0.853465974
269.9692078	0.863308966
269.0269165	0.870410025
267.9274292	0.877688944
266.9849243	0.880657256
266.0423279	0.883103967
264.9425354	0.883538067
263.9997253	0.8837744
263.0568237	0.88191253
261.9566956	0.879513204
261.0135803	0.876716912
260.0704041	0.873060525
258.9699402	0.865801156
258.0265503	0.855669022
256.9258423	0.844616592
255.9822693	0.835269809
255.03862	0.821527064
253.9375763	0.803824246
252.9937286	0.790624797
252.0497894	0.780822456
250.9484253	0.763886571
250.004303	0.747931659
249.0657043	0.736193299
247.9705811	0.719449341
247.0318298	0.708103836
245.9364929	0.695953429
244.9975433	0.680823505
244.0585175	0.668789327
242.9628754	0.659424484
242.0236511	0.653177381
240.9277954	0.645943761
239.9884033	0.640672624
239.0489349	0.638065398
237.952774	0.637521267
237.0131073	0.639766336
236.0733795	0.645195544
234.9769135	0.65546453
234.0370026	0.66887027
232.9403381	0.694402516
232.0002441	0.720489681
231.0600891	0.754543722
229.9631195	0.808653235
229.0227814	0.851492226
227.9256134	0.936105967
226.9851074	1.023934245
226.0445251	1.11253655
224.9470673	1.263860464
224.0063171	1.396323085
223.0654907	1.554064035
221.9677429	1.761811256
221.0267487	1.96231544
219.9288177	2.228296518
218.9876556	2.470341682
218.0464172	2.70763731
216.9482117	2.977542877
216.0068054	3.166827679
215.0653381	3.167294025
213.9668579	3.239946604
213.0252228	3.309895754
211.9265594	3.253866434
210.9847565	3.254526377
210.0428925	3.322805882
208.9439545	3.202506781
208.0019379	3.385210514
207.059845	3.247872353
205.9606323	3.267376661
205.0183868	3.136861324
204.0760651	3.321004391
202.9766083	3.018655539
202.0341339	2.921382904
200.9345093	2.642459631
199.9917755	2.448847532