1100.043823	0.141592175
1098.989746	0.155697137
1098.052124	0.164002195
1096.99646	0.154271662
1096.057495	0.153721184
1095.000122	0.137693048
1093.942017	0.14285624
1093.000854	0.135767281
1091.94104	0.15798451
1090.998413	0.145896733
1090.055054	0.14570494
1088.99292	0.127371877
1088.048096	0.126957238
1086.984497	0.140511081
1086.038208	0.16323255
1084.9729	0.151978359
1084.025269	0.151739076
1082.958374	0.142753393
1082.009277	0.153049752
1080.940796	0.145082951
1079.990356	0.144694224
1079.039185	0.142743141
1077.968384	0.138400897
1077.015869	0.153017789
1075.943359	0.143716663
1074.98938	0.147275791
1074.03479	0.158007607
1072.960083	0.157565877
1072.004028	0.157903999
1071.047363	0.148263842
1069.970215	0.15275766
1069.012085	0.161825255
1068.053345	0.157790065
1066.973999	0.154959664
1066.013794	0.161934719
1065.052979	0.17041038
1063.971313	0.160589129
1063.009033	0.160912335
1062.046143	0.169710875
1060.962158	0.159945518
1059.997925	0.173240796
1059.032959	0.171578318
1057.946655	0.174476489
1056.980347	0.172300696
1056.013428	0.18049331
1055.045898	0.173842207
1053.956543	0.176269427
1052.987549	0.173999921
1052.017944	0.187481895
1051.047607	0.184672087
1049.9552	0.179239899
1048.983643	0.192072853
1048.01123	0.185383245
1047.03833	0.190171361
1045.942993	0.19334428
1044.968628	0.197070181
1043.993652	0.191502363
1043.018066	0.195713669
1042.041748	0.195075259
1040.942749	0.200215757
1039.965088	0.204701379
1038.986816	0.198054284
1038.007935	0.201797754
1037.028442	0.19879359
1036.048218	0.19487536
1034.944702	0.196824238
1033.963257	0.196574166
1032.981079	0.190670878
1031.998169	0.193602398
1031.014771	0.19181475
1030.03064	0.192314789
1029.045898	0.19413054
1028.060547	0.194513559
1026.951294	0.191513911
1025.9646	0.191215605
1024.977295	0.189057708
1023.989258	0.194402292
1023.000671	0.194176838
1022.011414	0.193393901
1021.021545	0.195854083
1020.031067	0.20191142
1019.039978	0.201699719
1018.048218	0.200007409
1017.055847	0.208981514
1015.93866	0.208475679
1014.944946	0.209066629
1013.950623	0.212108612
1012.955627	0.215851486
1011.960022	0.21939522
1010.963806	0.221151963
1009.96698	0.223530605
1008.969543	0.227590799
1007.971436	0.228973031
1006.972778	0.233228102
1005.97345	0.233122304
1004.973511	0.235815466
1003.9729	0.239813089
1002.971741	0.244028747
1001.96991	0.245222151
1000.967529	0.249038294
999.9644775	0.251783669
998.9608154	0.25387907
997.956543	0.254109591
996.9516602	0.252441466
995.946167	0.25612554
994.9400635	0.253845215
994.0592041	0.253393054
993.0519409	0.253440142
992.0440674	0.25187844
991.0355835	0.249498949
990.0264893	0.248160437
989.0167847	0.243096024
988.0064697	0.238806233
986.9955444	0.236893162
985.9839478	0.232835382
984.9718018	0.228211895
983.9591064	0.225365609
982.9457397	0.222761393
982.0585327	0.220429435
981.0440063	0.217351794
980.0289307	0.21484609
979.0132446	0.214326769
977.9968872	0.21356982
976.9799805	0.211631566
975.9624634	0.211441144
974.9443359	0.209593117
974.0530396	0.208895698
973.0337524	0.208389089
972.013916	0.208238214
970.9934692	0.207059458
969.9724121	0.206377998
968.9508057	0.203761697
968.0563965	0.201175019
967.0336304	0.199809954
966.0102539	0.194916025
964.9863281	0.193236545
963.961731	0.190821528
962.9365845	0.1864205
962.0391235	0.183721378
961.0128784	0.178638861
959.9860229	0.176439092
958.9585571	0.173018888
958.059082	0.169413254
957.0305176	0.167565897
956.0014038	0.16445452
954.9716797	0.161039352
953.9413452	0.158973813
953.0393066	0.158171997
952.0079346	0.156032428
950.9758911	0.153495908
949.9432983	0.153558269
949.0393066	0.151629135
948.0056152	0.149858967
946.9713135	0.148722991
945.9364624	0.147181943
945.0305176	0.147581041
943.9945679	0.146867305
942.9580078	0.146032512
942.0505371	0.14672415
941.0129395	0.145474449
939.9747314	0.14583078
938.9359131	0.146052867
938.0265503	0.146006927
936.9866333	0.146682054
935.946228	0.146673963
935.0353394	0.146426424
933.9937744	0.147412136
932.9517212	0.148092344
932.0393677	0.148821741
930.9962158	0.149546593
929.9524536	0.148526862
929.0386963	0.149308533
927.9938354	0.148154274
926.9484253	0.147213295
926.0332031	0.147218883
924.9867554	0.145024926
923.9396973	0.144431636
923.0230713	0.143575877
921.9749146	0.141022861
921.057373	0.140803784
920.0081787	0.138745084
918.9584351	0.137011334
918.0394287	0.136140943
916.9886475	0.135647386
915.9372559	0.134774923
915.0168457	0.134198874
913.9644165	0.132723421
913.0430298	0.131867826
911.989563	0.131043285
910.9354858	0.131590858
910.0127563	0.129953355
908.9576416	0.129879654
908.0339355	0.129263163
906.9777832	0.129588708
906.0532227	0.129750222
904.9959717	0.130490258
903.9382324	0.130621761
903.012207	0.130506828
901.9534302	0.130695805
901.0264893	0.130839363
899.9666748	0.131943584
899.0388184	0.13145721
897.9779053	0.131524667
897.0491943	0.132373408
895.9872437	0.133168653
895.0576172	0.134372637
893.9946289	0.134214073
893.0640869	0.134582162
892.0001221	0.13578324
890.9355469	0.135076672
890.0036011	0.136144742
888.9380493	0.136804164
888.005188	0.137142226
886.9385986	0.136947379
886.0048828	0.137231693
884.9372559	0.136999577
884.0026245	0.136527374
882.93396	0.136570022
881.9984741	0.136797994
881.0625	0.136399239
879.9923706	0.135398254
879.055542	0.135127768
877.984375	0.133520782
877.0466309	0.133528069
875.9744873	0.132827938
875.0358887	0.132541895
873.9626465	0.131423578
873.0231934	0.131284446
871.9489746	0.130529881
871.008606	0.130949169
869.9334106	0.130848423
868.9921265	0.129384086
868.0504761	0.129240826
866.9738159	0.129436493
866.03125	0.129236922
864.9535522	0.128659397
864.0101318	0.128227562
863.0663452	0.128962681
861.9871826	0.129444763
861.0424805	0.127831221
859.9623413	0.12799938
859.0167847	0.127651617
857.9356079	0.128087297
856.9891968	0.12652956
856.0423584	0.12816076
854.9597778	0.127325341
854.0120239	0.127900124
853.0639648	0.128003478
851.9799194	0.127541855
851.0309448	0.126760051
849.9459229	0.127411768
848.9960938	0.127226859
848.0458374	0.128430739
846.9593506	0.127863213
846.0083008	0.127495214
845.0567627	0.128690615
843.9688721	0.127490878
843.0165405	0.128529981
842.0637817	0.129224479
840.9744873	0.129641533
840.020874	0.128729343
839.0668945	0.129196897
837.9761353	0.128444031
837.0213013	0.128784031
836.06604	0.12892665
834.973877	0.129431814
834.0177612	0.130229339
833.0613403	0.130524904
831.9677124	0.129984006
831.010376	0.130263656
830.0526733	0.130699232
828.9577026	0.130509242
827.9991455	0.131612167
827.0402222	0.131370083
825.9437866	0.131858185
824.9840088	0.131278738
824.0238647	0.132319018
823.0632935	0.13323313
821.9650879	0.132577166
821.0036621	0.133557111
820.0419312	0.132581413
818.9422607	0.134227619
817.9796753	0.134583816
817.0166626	0.135305315
816.0532837	0.135438561
814.9518433	0.135647878
813.9876099	0.135214344
813.0230713	0.136260599
812.0581055	0.136642486
810.9547729	0.136489615
809.9890137	0.137317196
809.0228271	0.137316987
808.0562744	0.137234464
806.9511719	0.138180509
805.9838257	0.137930468
805.0160522	0.138160229
804.0479126	0.138164505
802.94104	0.137151271
801.9721069	0.137253031
801.0027466	0.137002245
800.0330811	0.137469426
799.0629883	0.136497885
797.9538574	0.135722414
796.9829712	0.136732265
796.0117188	0.135021284
795.0401001	0.135213137
794.0680542	0.134334818
792.9567261	0.133976981
791.9838867	0.133393481
791.0107422	0.133274674
790.0371704	0.133150786
789.0632324	0.132534057
787.949707	0.13193503
786.9749756	0.132056996
785.9998779	0.131866813
785.024353	0.132703394
784.0485229	0.132034481
782.9328003	0.131790295
781.9561768	0.132769421
780.979187	0.132282123
780.00177	0.132885337
779.0240479	0.133193031
778.0458984	0.133459613
777.0674438	0.133605033
775.9487305	0.135216668
774.9694824	0.135342509
773.9898071	0.135488257
773.0098267	0.136148915
772.02948	0.136645645
771.0487061	0.13683556
770.067627	0.138047487
768.9459229	0.13823022
767.9640503	0.139267758
766.9818115	0.139877334
765.9992676	0.140804112
765.0162964	0.141327411
764.032959	0.142642468
763.0492554	0.143298626
762.0652466	0.14396289
760.9401855	0.145678595
759.9553833	0.146322534
758.9702148	0.147424027
757.9846802	0.149421096
756.9987793	0.150374934
756.0125732	0.151874676
755.0259399	0.153417692
754.0390015	0.154511824
753.0516968	0.156842381
752.0640259	0.15816775
750.9348145	0.159958124
749.9464111	0.161512107
748.9575806	0.163564622
747.9684448	0.165455207
746.9789429	0.166175753
745.9891357	0.1692072
744.9989624	0.17070128
744.0083618	0.172611043
743.0175171	0.174438223
742.0262451	0.176456317
741.034668	0.178799763
740.0426636	0.180309817
739.050415	0.182139576
738.0577393	0.183233023
737.0647583	0.184577838
735.9295044	0.186300874
734.93573	0.187329933
733.9416504	0.188012213
732.9472046	0.188673064
731.9524536	0.189153239
730.9572754	0.189020619
729.961853	0.188354775
728.9660034	0.18778415
727.9698486	0.18671371
726.9733276	0.185462549
725.9765015	0.18415162
724.9793091	0.182574764
723.9818115	0.180842072
722.9838867	0.178838208
721.9857178	0.176536456
720.9871216	0.175070345
719.9882202	0.173379257
718.9890137	0.171980292
717.9894409	0.170252055
716.989502	0.16866298
715.9892578	0.167480543
714.9886475	0.166466415
713.9877319	0.16552861
712.9864502	0.16476053
711.9848633	0.164128944
710.9829102	0.163632944
709.9806519	0.163196057
708.9780273	0.162917778
707.9750977	0.163020745
706.9718018	0.162997052
705.9682007	0.162871867
704.9642334	0.162875369
703.9599609	0.163103119
702.9553833	0.16358228
701.9504395	0.163991734
700.9451294	0.16379568
699.9395752	0.164388984
698.9335938	0.165600047
698.071106	0.165749937
697.0645752	0.166131645
696.0576782	0.167048007
695.0504761	0.167107076
694.0429688	0.168591872
693.0350952	0.169448808
692.0269165	0.170536757
691.0183716	0.17163153
690.0095215	0.172979295
689.0003662	0.174118713
687.9908447	0.175691992
686.9810791	0.176449284
685.9708862	0.178171858
684.9604492	0.179840744
683.949646	0.181222752
682.9385376	0.182852507
682.0715942	0.183735475
681.0598755	0.184482351
680.0478516	0.186028332
679.0355225	0.187116846
678.0228271	0.188185856
677.0098267	0.189808264
675.996521	0.190761522
674.9829102	0.191678524
673.9689331	0.192583725
672.9546509	0.193514168
671.9400635	0.194470912
671.0701904	0.19516252
670.0549927	0.196116403
669.0394897	0.197611108
668.0236816	0.197912291
667.0075684	0.199401528
665.9911499	0.201257959
664.9743652	0.201771587
663.9573364	0.203467697
662.9399414	0.205217809
662.067627	0.206783831
661.0496826	0.207659751
660.0313721	0.209076181
659.0128174	0.210251823
657.9938965	0.211561114
656.9747314	0.211782873
655.9552002	0.212365508
654.9353638	0.212177917
654.0609741	0.21188423
653.0405884	0.211140826
652.0198364	0.210490271
650.9988403	0.209014729
649.9775391	0.207274795
648.9558716	0.205273882
647.93396	0.202993721
647.0577393	0.201353952
646.0352173	0.199229941
645.0124512	0.19703342
643.9893188	0.195082232
642.9658813	0.192885339
641.9421997	0.190509498
641.0644531	0.188404456
640.0401611	0.186281875
639.015564	0.184181288
637.9906616	0.181681991
636.9655151	0.179957002
635.9400024	0.178061038
635.060791	0.176257193
634.034729	0.175211221
633.0083618	0.173598841
631.9816895	0.172463313
630.9547729	0.171791717
629.9275513	0.170812249
629.046814	0.170246989
628.0189819	0.169648394
626.9909058	0.169480324
625.9625244	0.16966489
624.9338379	0.169328451
624.0518799	0.16911152
623.022644	0.170056909
621.993103	0.170180604
620.9633179	0.170316652
619.9331665	0.170702204
619.0499878	0.171089292
618.0193481	0.171338096
616.9884033	0.171818659
615.9571533	0.172364026
615.072998	0.173231453
614.0411987	0.173504293
613.0091553	0.174718529
611.9768066	0.175553218
610.9441528	0.176522106
610.0587769	0.177826047
609.0255737	0.17943956
607.9921265	0.180740684
606.958374	0.182443172
606.0720825	0.183735013
605.0377808	0.18602261
604.0031738	0.187739879
602.9683228	0.190023556
601.9332275	0.192248896
601.0457153	0.193899363
600.0100098	0.195812762
598.9740601	0.197303623
597.9378662	0.1985576
597.0494385	0.200129777
596.0126343	0.201287657
594.9755859	0.201815262
593.9382935	0.201672733
593.0489502	0.201734394
592.0110474	0.201861739
590.9729614	0.20182243
589.9345703	0.201531202
589.0442505	0.201896012
588.0053711	0.201733366
586.9661255	0.201636493
585.9266968	0.20228748
585.0354614	0.202288315
583.9954834	0.202830464
582.9552002	0.203674644
582.0633545	0.204609066
581.022583	0.205829576
579.9815063	0.206806451
578.9401855	0.207305253
578.0474243	0.208415657
577.0056152	0.209585771
575.963501	0.210107043
575.0700684	0.210614026
574.0274048	0.210866809
572.9845581	0.21088019
571.9414063	0.210611299
571.0470581	0.210285977
570.003418	0.209442392
568.9594727	0.208345383
568.0645142	0.207349196
567.0200806	0.206608504
565.9754028	0.205786169
564.9304199	0.205117464
564.0345459	0.204683095
562.9890747	0.203931779
561.9433594	0.203796923
561.046875	0.203244299
560.0006714	0.203108296
558.9541626	0.202196598
558.0570068	0.201687977
557.0100098	0.200979486
555.9628296	0.199978039
555.0650024	0.199292362
554.0172729	0.198271617
552.9692993	0.197336122
552.0708618	0.19632569
551.0223999	0.195236042
549.9736328	0.193951339
549.0745239	0.19301109
548.0253296	0.192044094
546.9758911	0.191431955
545.9262085	0.190761045
545.0262451	0.189857468
543.9760132	0.189327389
542.9255981	0.188557804
542.0249634	0.188243583
540.9740601	0.18865259
540.0730591	0.188312471
539.0216675	0.187923297
537.9700317	0.187674791
537.0684204	0.187813744
536.0162964	0.18806155
534.9638672	0.187912166
534.0616455	0.188556716
533.0087891	0.189189941
531.9556885	0.189786062
531.0528564	0.190181434
529.9992676	0.190943584
528.9454956	0.192443907
528.0419922	0.193371505
526.9877319	0.194685563
525.9331665	0.196367919
525.0291138	0.197681218
523.9741211	0.199545398
523.0696411	0.20119378
522.0142212	0.203297347
520.9584961	0.205462664
520.0534668	0.207122847
518.9973145	0.209581375
517.940918	0.212020233
517.0352173	0.213885635
515.9783936	0.216621071
515.0723267	0.218818724
514.0150146	0.221076891
512.9574585	0.223224327
512.0507813	0.22504878
510.9927979	0.227125898
509.9345703	0.22874634
509.0273438	0.229868099
507.9686584	0.230270937
507.0610046	0.23050788
506.0018921	0.230152011
504.9425354	0.229637399
504.0343018	0.227851301
502.9745178	0.226101935
502.065918	0.224983633
501.0056763	0.222644463
499.9451904	0.220602348
499.0360107	0.21868524
497.9750977	0.216970325
497.0655212	0.215635628
496.0041809	0.214167997
494.9425964	0.212565765
494.0324707	0.211085528
492.9704285	0.209719792
492.0599365	0.209356621
490.9974976	0.208871454
489.9347839	0.207920685
489.0237427	0.207538918
487.9606018	0.207597613
487.0491943	0.20758827
485.9856567	0.207265794
485.0738525	0.207498893
484.0098877	0.208283082
482.9456787	0.20894818
482.0333252	0.209510788
480.968689	0.210588262
480.0559998	0.211449906
478.9909363	0.212564588
477.9256592	0.213791311
477.0123901	0.215410575
475.9467163	0.217118427
475.0330811	0.218743369
473.96698	0.220006421
473.053009	0.22136946
471.9864807	0.223273113
471.0721436	0.224693149
470.005188	0.226553842
468.9380493	0.227994546
468.0231628	0.229089394
466.9555969	0.230527028
466.0403748	0.232065961
464.9723816	0.233523905
464.0567932	0.234757677
462.9884033	0.23579368
462.0724792	0.236605719
461.0036926	0.237825364
459.9346924	0.238472447
459.018219	0.238936663
457.948822	0.239121899
457.0320129	0.238840193
455.9621887	0.238240227
455.0450439	0.237591207
453.974823	0.236722946
453.0573425	0.235993713
451.9867249	0.235368028
451.0689087	0.23473008
449.9978943	0.233954325
448.9266663	0.233296484
448.0083313	0.232938409
446.9367065	0.232240394
446.0180359	0.232022375
444.9460144	0.231663674
444.0270081	0.231207699
442.9546204	0.230997041
442.0352478	0.230932489
440.9624634	0.230861619
440.0427856	0.231127963
438.9696045	0.231545776
438.0495911	0.232040167
436.9760437	0.232790262
436.0556946	0.233357787
434.9817505	0.234269679
434.0610962	0.235050499
432.9867859	0.236521989
432.0657654	0.237847209
430.9910889	0.23948586
430.0697632	0.240546331
428.9946899	0.242076278
428.0730286	0.243869633
426.9975891	0.245933846
426.0756226	0.24753964
424.9997864	0.24944897
423.9237671	0.251217187
423.0013123	0.253273606
421.9249268	0.255906642
421.0021362	0.257905364
419.9253845	0.260516584
419.0022888	0.262576044
417.9251709	0.264746785
417.0017395	0.267665088
415.9242554	0.269748032
415.0005188	0.271342158
414.0766602	0.272243619
412.9986267	0.273204565
412.0744629	0.27366671
410.9960632	0.273672193
410.0715942	0.273739338
408.9928284	0.273210734
408.0680542	0.273013383
406.9889526	0.272642374
406.0638428	0.272223026
404.984375	0.271929741
404.05896	0.272083581
402.9791565	0.272119075
402.0534363	0.272322357
400.9732666	0.273009002
400.0472717	0.27369377
398.9667358	0.274990827
398.0404358	0.276390314
396.9595642	0.278306335
396.032959	0.280323267
394.9517212	0.282378376
394.0248108	0.285309166
392.9432678	0.288374037
392.0160522	0.290342152
390.9341431	0.294319958
390.0066528	0.297069758
388.924408	0.300838262
387.9966125	0.303781897
387.0686951	0.306717038
385.9859314	0.310658842
385.0577393	0.313583404
383.9746399	0.317211568
383.0461426	0.320729435
381.9627075	0.324870318
381.0339355	0.327414721
379.9501648	0.331217349
379.0210876	0.333515346
377.9370117	0.33510682
377.0076294	0.335831732
375.9232178	0.335636139
374.9935913	0.33509469
374.0638123	0.334489018
372.9789124	0.333765239
372.0488586	0.333539367
370.963623	0.333296597
370.0332947	0.333765119
368.9477539	0.334068656
368.0171204	0.335283577
366.9312439	0.336559594
366.0003662	0.338096261
365.0693359	0.340394348
363.9830017	0.34387818
363.0517273	0.346567512
361.9650574	0.350212067
361.0335083	0.35318166
359.9465027	0.357311159
359.014679	0.361316979
357.9273987	0.366532534
356.9953003	0.37025097
356.0630493	0.374128044
354.9753113	0.378645331
354.0428162	0.382454276
352.9547424	0.386571646
352.0220032	0.389573842
350.9336243	0.393248648
350.0006104	0.395782888
349.0674744	0.398646087
347.9786377	0.401254863
347.0452271	0.40247938
345.9561157	0.404030204
345.0224304	0.404597998
343.9330139	0.406518191
342.9990845	0.407928437
342.0650635	0.408699036
340.9751892	0.410195649
340.0408936	0.410803229
338.9507141	0.412158996
338.0161743	0.413802117
336.9256897	0.415960193
335.9909058	0.417845935
335.0559692	0.419867486
333.9650879	0.423558474
333.0299072	0.427565128
331.9387207	0.432146967
331.0032959	0.435756981
330.067749	0.439954072
328.9761353	0.444847763
328.0403442	0.450079292
326.9484558	0.455190957
326.0124207	0.458277822
325.0762634	0.461483061
323.9839478	0.466022402
323.0475464	0.469610959
321.9549561	0.472844094
321.0183411	0.474800289
319.9254456	0.47789067
318.9885559	0.481206775
318.0515747	0.484838724
316.9582825	0.488849133
316.0210571	0.491763413
314.9274902	0.496241003
313.9900513	0.501254261
313.0524597	0.50644064
311.9584961	0.512700915
311.0206909	0.51646477
309.9264526	0.522829354
308.9884338	0.530245185
308.0502625	0.536113203
306.9556274	0.545327246
306.0172729	0.550257504
304.9223633	0.559935451
303.9837341	0.570448339
303.0450439	0.584631801
301.9497375	0.600129545
301.0108032	0.613295794
300.0717468	0.627047241
298.9760742	0.6502527
298.0368042	0.668254793
296.9408569	0.690168381
296.0013733	0.704353571
295.0617676	0.720964909
293.9654541	0.741431415
293.0256348	0.760539293
291.9290771	0.784173548
290.9890137	0.798496246
290.0488892	0.811877132
288.9519348	0.834390402
288.0115967	0.851841331
287.0711365	0.866773188
285.9738159	0.884045661
285.0331421	0.898951769
283.9355774	0.917542517
282.9946899	0.932929158
282.0537109	0.946829915
280.95578	0.96169287
280.0145874	0.974887013
279.0733032	0.988551199
277.9750061	1.00701797
277.0335083	1.020836592
275.934967	1.033581853
274.9932556	1.044365168
274.0514526	1.058693171
272.9525757	1.072219253
272.0105591	1.081970334
271.0684509	1.089228034
269.9692078	1.099052787
269.0269165	1.105896115
267.9274292	1.112798095
266.9849243	1.115561128
266.0423279	1.117055655
264.9425354	1.117854953
263.9997253	1.117140889
263.0568237	1.115284204
261.9566956	1.112220526
261.0135803	1.107886791
260.0704041	1.105347991
258.9699402	1.097262859
258.0265503	1.087853193
256.9258423	1.076170325
255.9822693	1.067363262
255.03862	1.054209709
253.9375763	1.03724885
252.9937286	1.023885012
252.0497894	1.013427973
250.9484253	1.000038981
250.004303	0.984891415
249.0657043	0.970290005
247.9705811	0.954869807
247.0318298	0.945217252
245.9364929	0.934134185
244.9975433	0.920513332
244.0585175	0.907827914
242.9628754	0.898705185
242.0236511	0.893384576
240.9277954	0.885727465
239.9884033	0.880156219
239.0489349	0.875530362
237.952774	0.872764647
237.0131073	0.871798813
236.0733795	0.873386681
234.9769135	0.877107143
234.0370026	0.883805275
232.9403381	0.896941543
232.0002441	0.909756601
231.0600891	0.929452956
229.9631195	0.954389513
229.0227814	0.981850922
227.9256134	1.024271488
226.9851074	1.075087547
226.0445251	1.128458738
224.9470673	1.203434467
224.0063171	1.286872864
223.0654907	1.38092649
221.9677429	1.491429806
221.0267487	1.597706556
219.9288177	1.751365662
218.9876556	1.934863448
218.0464172	2.109414577
216.9482117	2.272649288
216.0068054	2.449385166
215.0653381	2.639001131
213.9668579	2.833809614
213.0252228	3.007656336
211.9265594	3.183769226
210.9847565	3.15805459
210.0428925	3.313115835
208.9439545	3.377690315
208.0019379	3.329443932
207.059845	3.262801886
205.9606323	3.302626133
205.0183868	3.18994379
204.0760651	3.196723938
202.9766083	3.137010098
202.0341339	2.889570951
200.9345093	2.723001957
199.9917755	2.571854353