1100.043823	0.204462603
1098.989746	0.183310002
1098.052124	0.169621036
1096.99646	0.196758866
1096.057495	0.20215413
1095.000122	0.195738658
1093.942017	0.189873785
1093.000854	0.202704564
1091.94104	0.181976959
1090.998413	0.179472864
1090.055054	0.191482723
1088.99292	0.176839352
1088.048096	0.182267964
1086.984497	0.20902583
1086.038208	0.196921751
1084.9729	0.178346917
1084.025269	0.183703318
1082.958374	0.189630166
1082.009277	0.197645918
1080.940796	0.209677294
1079.990356	0.190401211
1079.039185	0.18408449
1077.968384	0.203942135
1077.015869	0.200035885
1075.943359	0.19399856
1074.98938	0.211580664
1074.03479	0.214255795
1072.960083	0.20334658
1072.004028	0.20041956
1071.047363	0.200043559
1069.970215	0.215116635
1069.012085	0.199102551
1068.053345	0.20589374
1066.973999	0.194908083
1066.013794	0.198251113
1065.052979	0.199176788
1063.971313	0.212738574
1063.009033	0.206977606
1062.046143	0.201215372
1060.962158	0.207011581
1059.997925	0.213469386
1059.032959	0.208463475
1057.946655	0.208386585
1056.980347	0.21164754
1056.013428	0.216644347
1055.045898	0.217589393
1053.956543	0.220647693
1052.987549	0.214264408
1052.017944	0.223306447
1051.047607	0.227143183
1049.9552	0.226214007
1048.983643	0.235021234
1048.01123	0.229196236
1047.03833	0.239379212
1045.942993	0.235992923
1044.968628	0.235504687
1043.993652	0.236940116
1043.018066	0.241360083
1042.041748	0.236601293
1040.942749	0.236282811
1039.965088	0.233973801
1038.986816	0.239316866
1038.007935	0.240384564
1037.028442	0.228350923
1036.048218	0.229440272
1034.944702	0.232169077
1033.963257	0.229906291
1032.981079	0.226807043
1031.998169	0.222939253
1031.014771	0.226796955
1030.03064	0.227099165
1029.045898	0.224080786
1028.060547	0.220910475
1026.951294	0.219762251
1025.9646	0.224122942
1024.977295	0.219724983
1023.989258	0.217309535
1023.000671	0.219643295
1022.011414	0.222429261
1021.021545	0.22010541
1020.031067	0.22521627
1019.039978	0.220439509
1018.048218	0.230707213
1017.055847	0.223083481
1015.93866	0.228800967
1014.944946	0.227903575
1013.950623	0.233730048
1012.955627	0.234835163
1011.960022	0.237207443
1010.963806	0.238600671
1009.96698	0.242427677
1008.969543	0.239073813
1007.971436	0.245129913
1006.972778	0.243479654
1005.97345	0.250194252
1004.973511	0.250895292
1003.9729	0.251340956
1002.971741	0.252235413
1001.96991	0.257143527
1000.967529	0.258257568
999.9644775	0.25942409
998.9608154	0.25939551
997.956543	0.26084733
996.9516602	0.262532353
995.946167	0.262825072
994.9400635	0.263063639
994.0592041	0.263098598
993.0519409	0.261014313
992.0440674	0.260706991
991.0355835	0.258825243
990.0264893	0.259108126
989.0167847	0.254710406
988.0064697	0.253204703
986.9955444	0.250635743
985.9839478	0.249533653
984.9718018	0.245226473
983.9591064	0.242672339
982.9457397	0.24127616
982.0585327	0.238881782
981.0440063	0.238213167
980.0289307	0.237445742
979.0132446	0.236607149
977.9968872	0.236309707
976.9799805	0.235718265
975.9624634	0.2349094
974.9443359	0.236022696
974.0530396	0.234574422
973.0337524	0.231223926
972.013916	0.231098175
970.9934692	0.229601383
969.9724121	0.228784353
968.9508057	0.224536359
968.0563965	0.223433122
967.0336304	0.221899986
966.0102539	0.217171699
964.9863281	0.214637056
963.961731	0.21155636
962.9365845	0.207865492
962.0391235	0.206371337
961.0128784	0.203338265
959.9860229	0.200230375
958.9585571	0.197989136
958.059082	0.195844054
957.0305176	0.195068315
956.0014038	0.191138774
954.9716797	0.190508932
953.9413452	0.186929494
953.0393066	0.187241569
952.0079346	0.18518725
950.9758911	0.183245331
949.9432983	0.183415502
949.0393066	0.181773007
948.0056152	0.17955035
946.9713135	0.179745242
945.9364624	0.18025054
945.0305176	0.179745868
943.9945679	0.179238647
942.9580078	0.178828329
942.0505371	0.177789331
941.0129395	0.179090515
939.9747314	0.178104878
938.9359131	0.178211346
938.0265503	0.178676352
936.9866333	0.179121211
935.946228	0.180192918
935.0353394	0.181034192
933.9937744	0.181237638
932.9517212	0.181847528
932.0393677	0.18353872
930.9962158	0.18273598
929.9524536	0.181641638
929.0386963	0.182102799
927.9938354	0.181758419
926.9484253	0.180891037
926.0332031	0.180707529
924.9867554	0.178951666
923.9396973	0.177236185
923.0230713	0.177141592
921.9749146	0.175925866
921.057373	0.17530106
920.0081787	0.174334034
918.9584351	0.172860757
918.0394287	0.172113091
916.9886475	0.171392933
915.9372559	0.170314878
915.0168457	0.170154914
913.9644165	0.16958268
913.0430298	0.16856195
911.989563	0.16822198
910.9354858	0.168740168
910.0127563	0.168060646
908.9576416	0.168987274
908.0339355	0.168647632
906.9777832	0.16809544
906.0532227	0.168385789
904.9959717	0.168575987
903.9382324	0.169380978
903.012207	0.169396654
901.9534302	0.170739755
901.0264893	0.171346352
899.9666748	0.172117278
899.0388184	0.172310278
897.9779053	0.173967376
897.0491943	0.17484206
895.9872437	0.176220104
895.0576172	0.17729494
893.9946289	0.178646594
893.0640869	0.179428577
892.0001221	0.180615857
890.9355469	0.181018025
890.0036011	0.181819275
888.9380493	0.183048755
888.005188	0.183215618
886.9385986	0.183489069
886.0048828	0.182885319
884.9372559	0.182701096
884.0026245	0.182323843
882.93396	0.18193917
881.9984741	0.180877015
881.0625	0.180023924
879.9923706	0.179366007
879.055542	0.178248927
877.984375	0.177685723
877.0466309	0.176723182
875.9744873	0.175449759
875.0358887	0.173671618
873.9626465	0.174610585
873.0231934	0.173287198
871.9489746	0.173044875
871.008606	0.1716232
869.9334106	0.171828315
868.9921265	0.170840785
868.0504761	0.169850975
866.9738159	0.17049849
866.03125	0.170289591
864.9535522	0.169954211
864.0101318	0.169885159
863.0663452	0.169220284
861.9871826	0.168602705
861.0424805	0.169414014
859.9623413	0.168989301
859.0167847	0.167928934
857.9356079	0.168483496
856.9891968	0.168707788
856.0423584	0.168240711
854.9597778	0.167648867
854.0120239	0.167993218
853.0639648	0.168559924
851.9799194	0.168225497
851.0309448	0.169166207
849.9459229	0.169132039
848.9960938	0.168387666
848.0458374	0.169384837
846.9593506	0.169560447
846.0083008	0.168994188
845.0567627	0.169854388
843.9688721	0.169268012
843.0165405	0.170969859
842.0637817	0.169699132
840.9744873	0.17074953
840.020874	0.170755208
839.0668945	0.171453401
837.9761353	0.171053708
837.0213013	0.172167733
836.06604	0.171230912
834.973877	0.172168151
834.0177612	0.172232449
833.0613403	0.172526971
831.9677124	0.172761411
831.010376	0.172632307
830.0526733	0.173616245
828.9577026	0.174026579
827.9991455	0.174193949
827.0402222	0.174994901
825.9437866	0.175497219
824.9840088	0.175492793
824.0238647	0.176099092
823.0632935	0.176369384
821.9650879	0.177865267
821.0036621	0.17790769
820.0419312	0.178874046
818.9422607	0.17904149
817.9796753	0.179812983
817.0166626	0.180670843
816.0532837	0.181445077
814.9518433	0.182225034
813.9876099	0.18234992
813.0230713	0.18313317
812.0581055	0.184343547
810.9547729	0.183469638
809.9890137	0.184959784
809.0228271	0.184876964
808.0562744	0.185135499
806.9511719	0.18591556
805.9838257	0.185341671
805.0160522	0.184202448
804.0479126	0.184898123
802.94104	0.185095266
801.9721069	0.183811635
801.0027466	0.183860332
800.0330811	0.182904378
799.0629883	0.183121249
797.9538574	0.182355836
796.9829712	0.181604669
796.0117188	0.182329595
795.0401001	0.182190731
794.0680542	0.180999443
792.9567261	0.180643484
791.9838867	0.180136666
791.0107422	0.18060492
790.0371704	0.179262579
789.0632324	0.180249825
787.949707	0.179351762
786.9749756	0.179209471
785.9998779	0.179174542
785.024353	0.179611921
784.0485229	0.179676175
782.9328003	0.180102184
781.9561768	0.180063576
780.979187	0.180180296
780.00177	0.180426627
779.0240479	0.181557477
778.0458984	0.181179926
777.0674438	0.18162401
775.9487305	0.18265745
774.9694824	0.182832286
773.9898071	0.183120057
773.0098267	0.184236541
772.02948	0.184773684
771.0487061	0.185615525
770.067627	0.186663404
768.9459229	0.18774797
767.9640503	0.188377976
766.9818115	0.189301759
765.9992676	0.190621376
765.0162964	0.191660419
764.032959	0.192360461
763.0492554	0.193860933
762.0652466	0.194681108
760.9401855	0.19673574
759.9553833	0.19744423
758.9702148	0.199403256
757.9846802	0.200915679
756.9987793	0.202459917
756.0125732	0.203765884
755.0259399	0.206264481
754.0390015	0.207973287
753.0516968	0.208604634
752.0640259	0.211223975
750.9348145	0.213113934
749.9464111	0.215002805
748.9575806	0.217451051
747.9684448	0.218628317
746.9789429	0.221047431
745.9891357	0.222840816
744.9989624	0.225104719
744.0083618	0.22635518
743.0175171	0.227600947
742.0262451	0.229635462
741.034668	0.231148675
740.0426636	0.232391089
739.050415	0.233805344
738.0577393	0.235436618
737.0647583	0.236948505
735.9295044	0.237760425
734.93573	0.238729432
733.9416504	0.239356846
732.9472046	0.24032262
731.9524536	0.240478635
730.9572754	0.24020879
729.961853	0.239393905
728.9660034	0.239455491
727.9698486	0.238460392
726.9733276	0.236866683
725.9765015	0.235146746
724.9793091	0.234307066
723.9818115	0.232318699
722.9838867	0.230866462
721.9857178	0.228705108
720.9871216	0.226980016
719.9882202	0.225313768
718.9890137	0.223759949
717.9894409	0.222291738
716.989502	0.220762149
715.9892578	0.219388172
714.9886475	0.21861963
713.9877319	0.217555955
712.9864502	0.216817662
711.9848633	0.215992644
710.9829102	0.215632007
709.9806519	0.215338141
708.9780273	0.215132907
707.9750977	0.214794546
706.9718018	0.214362904
705.9682007	0.215025827
704.9642334	0.214871809
703.9599609	0.215241253
702.9553833	0.215630561
701.9504395	0.215924799
700.9451294	0.216118231
699.9395752	0.216386423
698.9335938	0.217031807
698.071106	0.217411965
697.0645752	0.218233228
696.0576782	0.218723878
695.0504761	0.219526768
694.0429688	0.220762491
693.0350952	0.22146669
692.0269165	0.222778559
691.0183716	0.223268181
690.0095215	0.225368559
689.0003662	0.226424456
687.9908447	0.227575243
686.9810791	0.228500471
685.9708862	0.230084032
684.9604492	0.231760636
683.949646	0.232771903
682.9385376	0.233943328
682.0715942	0.234872714
681.0598755	0.235999465
680.0478516	0.237193823
679.0355225	0.238788009
678.0228271	0.239423782
677.0098267	0.240546286
675.996521	0.242144585
674.9829102	0.242851883
673.9689331	0.243427068
672.9546509	0.244464621
671.9400635	0.245575726
671.0701904	0.246487275
670.0549927	0.247406915
669.0394897	0.249027446
668.0236816	0.25079602
667.0075684	0.25217703
665.9911499	0.253906995
664.9743652	0.25507468
663.9573364	0.256986857
662.9399414	0.25888449
662.067627	0.260731727
661.0496826	0.262627602
660.0313721	0.263670832
659.0128174	0.264875799
657.9938965	0.265805334
656.9747314	0.266622186
655.9552002	0.267211169
654.9353638	0.267148435
654.0609741	0.266585499
653.0405884	0.266335219
652.0198364	0.264413029
650.9988403	0.26371336
649.9775391	0.262239337
648.9558716	0.259928167
647.93396	0.258116663
647.0577393	0.255983919
646.0352173	0.254296303
645.0124512	0.25199008
643.9893188	0.249656126
642.9658813	0.248079762
641.9421997	0.245430395
641.0644531	0.24342683
640.0401611	0.241067544
639.015564	0.239052534
637.9906616	0.23684141
636.9655151	0.234756708
635.9400024	0.233264774
635.060791	0.231529012
634.034729	0.22956501
633.0083618	0.22844851
631.9816895	0.227483526
630.9547729	0.226987436
629.9275513	0.226021648
629.046814	0.225660026
628.0189819	0.225246534
626.9909058	0.224789947
625.9625244	0.224933103
624.9338379	0.225279763
624.0518799	0.225111768
623.022644	0.225900561
621.993103	0.226087824
620.9633179	0.226219013
619.9331665	0.22689791
619.0499878	0.227037028
618.0193481	0.227294371
616.9884033	0.227582187
615.9571533	0.227979928
615.072998	0.228522018
614.0411987	0.228704393
613.0091553	0.229595587
611.9768066	0.229745284
610.9441528	0.23089011
610.0587769	0.231590122
609.0255737	0.232554764
607.9921265	0.233865827
606.958374	0.234856889
606.0720825	0.236122772
605.0377808	0.237502232
604.0031738	0.238878235
602.9683228	0.240299568
601.9332275	0.242310524
601.0457153	0.243627653
600.0100098	0.245226741
598.9740601	0.246602491
597.9378662	0.247948572
597.0494385	0.248294577
596.0126343	0.249280959
594.9755859	0.250197619
593.9382935	0.250384361
593.0489502	0.250389189
592.0110474	0.251036078
590.9729614	0.251470238
589.9345703	0.251758069
589.0442505	0.251860589
588.0053711	0.252319694
586.9661255	0.252872646
585.9266968	0.252894044
585.0354614	0.253532499
583.9954834	0.254098713
582.9552002	0.255188763
582.0633545	0.255743623
581.022583	0.256965488
579.9815063	0.257664651
578.9401855	0.258643955
578.0474243	0.259671271
577.0056152	0.260731101
575.963501	0.261423111
575.0700684	0.261835724
574.0274048	0.262295574
572.9845581	0.262361974
571.9414063	0.262275964
571.0470581	0.262129247
570.003418	0.261909753
568.9594727	0.261480391
568.0645142	0.261081636
567.0200806	0.260839641
565.9754028	0.260489136
564.9304199	0.260219455
564.0345459	0.260271877
562.9890747	0.260062188
561.9433594	0.259945691
561.046875	0.25954327
560.0006714	0.25944978
558.9541626	0.258803129
558.0570068	0.258155346
557.0100098	0.257743985
555.9628296	0.256604493
555.0650024	0.256341755
554.0172729	0.25511381
552.9692993	0.254001319
552.0708618	0.253130496
551.0223999	0.252018273
549.9736328	0.251068115
549.0745239	0.250277489
548.0253296	0.249624848
546.9758911	0.24869445
545.9262085	0.248058036
545.0262451	0.247544348
543.9760132	0.246920228
542.9255981	0.246313751
542.0249634	0.246115387
540.9740601	0.24563174
540.0730591	0.245705888
539.0216675	0.245684236
537.9700317	0.245862111
537.0684204	0.245957971
536.0162964	0.245911866
534.9638672	0.246481061
534.0616455	0.246717066
533.0087891	0.247230604
531.9556885	0.248312682
531.0528564	0.248954937
529.9992676	0.250375152
528.9454956	0.25128594
528.0419922	0.251657784
526.9877319	0.253638744
525.9331665	0.255332738
525.0291138	0.256473213
523.9741211	0.258506984
523.0696411	0.260744602
522.0142212	0.262908965
520.9584961	0.265079111
520.0534668	0.267046332
518.9973145	0.269319087
517.940918	0.271424651
517.0352173	0.273723245
515.9783936	0.275776625
515.0723267	0.278089613
514.0150146	0.279896885
512.9574585	0.281820446
512.0507813	0.28312102
510.9927979	0.284633249
509.9345703	0.285540372
509.0273438	0.286133826
507.9686584	0.286090165
507.0610046	0.285743713
506.0018921	0.285123885
504.9425354	0.284216613
504.0343018	0.282772809
502.9745178	0.281276286
502.065918	0.280456901
501.0056763	0.278771967
499.9451904	0.277254522
499.0360107	0.275773436
497.9750977	0.274522215
497.0655212	0.273560494
496.0041809	0.272252053
494.9425964	0.271180928
494.0324707	0.27027598
492.9704285	0.26943925
492.0599365	0.268378973
490.9974976	0.268147707
489.9347839	0.267918736
489.0237427	0.267987162
487.9606018	0.267773598
487.0491943	0.267718554
485.9856567	0.267968386
485.0738525	0.268476725
484.0098877	0.268655002
482.9456787	0.26912427
482.0333252	0.269904822
480.968689	0.271169871
480.0559998	0.272304297
478.9909363	0.273463845
477.9256592	0.274531096
477.0123901	0.276418537
475.9467163	0.278151661
475.0330811	0.279860795
473.96698	0.281453311
473.053009	0.282640964
471.9864807	0.284741223
471.0721436	0.286387295
470.005188	0.288239569
468.9380493	0.289970338
468.0231628	0.290948182
466.9555969	0.292446733
466.0403748	0.293903053
464.9723816	0.295373678
464.0567932	0.29644686
462.9884033	0.297418892
462.0724792	0.298221976
461.0036926	0.299356848
459.9346924	0.299399912
459.018219	0.299820006
457.948822	0.299972236
457.0320129	0.300004453
455.9621887	0.299570113
455.0450439	0.299311608
453.974823	0.299002081
453.0573425	0.29840669
451.9867249	0.297937959
451.0689087	0.297570288
449.9978943	0.297165036
448.9266663	0.296725243
448.0083313	0.296827406
446.9367065	0.296227068
446.0180359	0.296090841
444.9460144	0.296061903
444.0270081	0.296233922
442.9546204	0.29641059
442.0352478	0.296732664
440.9624634	0.297045589
440.0427856	0.297559947
438.9696045	0.298503429
438.0495911	0.299259543
436.9760437	0.30062291
436.0556946	0.301768005
434.9817505	0.30290848
434.0610962	0.303991735
432.9867859	0.305633545
432.0657654	0.307320744
430.9910889	0.309183687
430.0697632	0.310570777
428.9946899	0.312152475
428.0730286	0.314096719
426.9975891	0.316332072
426.0756226	0.318383277
424.9997864	0.32040602
423.9237671	0.321961552
423.0013123	0.324151278
421.9249268	0.326831818
421.0021362	0.328199357
419.9253845	0.330632597
419.0022888	0.332241595
417.9251709	0.334659278
417.0017395	0.336890459
415.9242554	0.338927656
415.0005188	0.340263724
414.0766602	0.340861052
412.9986267	0.341921032
412.0744629	0.342481732
410.9960632	0.342753768
410.0715942	0.342618763
408.9928284	0.342487723
408.0680542	0.342657715
406.9889526	0.342408538
406.0638428	0.342251182
404.984375	0.342571408
404.05896	0.342566282
402.9791565	0.343023032
402.0534363	0.343786359
400.9732666	0.345102012
400.0472717	0.346212715
398.9667358	0.347905725
398.0404358	0.349233568
396.9595642	0.351728439
396.032959	0.354496598
394.9517212	0.356409371
394.0248108	0.359100878
392.9432678	0.362721264
392.0160522	0.365107507
390.9341431	0.368653715
390.0066528	0.372094452
388.924408	0.375675291
387.9966125	0.379160225
387.0686951	0.382069022
385.9859314	0.386510104
385.0577393	0.390944868
383.9746399	0.394869447
383.0461426	0.398876071
381.9627075	0.403714091
381.0339355	0.406855166
379.9501648	0.410374075
379.0210876	0.413098991
377.9370117	0.41421476
377.0076294	0.414681017
375.9232178	0.41408667
374.9935913	0.413959533
374.0638123	0.413484544
372.9789124	0.413227707
372.0488586	0.412771553
370.963623	0.413460106
370.0332947	0.413457215
368.9477539	0.414958745
368.0171204	0.416545898
366.9312439	0.418091953
366.0003662	0.420287341
365.0693359	0.423092693
363.9830017	0.426783651
363.0517273	0.430141836
361.9650574	0.432655186
361.0335083	0.436681718
359.9465027	0.440751761
359.014679	0.446824312
357.9273987	0.450632662
356.9953003	0.454900593
356.0630493	0.458361298
354.9753113	0.463196874
354.0428162	0.466775984
352.9547424	0.470937789
352.0220032	0.475199074
350.9336243	0.478100836
350.0006104	0.480825901
349.0674744	0.483880103
347.9786377	0.486919045
347.0452271	0.488969863
345.9561157	0.49168545
345.0224304	0.492715776
343.9330139	0.495326459
342.9990845	0.497631133
342.0650635	0.499220908
340.9751892	0.501141787
340.0408936	0.503278315
338.9507141	0.505872786
338.0161743	0.508357108
336.9256897	0.512511909
335.9909058	0.514692307
335.0559692	0.517811596
333.9650879	0.522474468
333.0299072	0.526718557
331.9387207	0.532883644
331.0032959	0.536263824
330.067749	0.541197538
328.9761353	0.548006117
328.0403442	0.553689957
326.9484558	0.558530688
326.0124207	0.562762678
325.0762634	0.566665232
323.9839478	0.571628034
323.0475464	0.575925291
321.9549561	0.580701351
321.0183411	0.584075689
319.9254456	0.588813007
318.9885559	0.592969716
318.0515747	0.59800005
316.9582825	0.603936434
316.0210571	0.608121336
314.9274902	0.612592161
313.9900513	0.618860662
313.0524597	0.626305163
311.9584961	0.634197235
311.0206909	0.639339745
309.9264526	0.646271288
308.9884338	0.654267073
308.0502625	0.662835121
306.9556274	0.674248934
306.0172729	0.682050526
304.9223633	0.693154037
303.9837341	0.709312379
303.0450439	0.724586129
301.9497375	0.744707823
301.0108032	0.757809579
300.0717468	0.773537219
298.9760742	0.8006019
298.0368042	0.820084572
296.9408569	0.845655739
296.0013733	0.865535319
295.0617676	0.886343658
293.9654541	0.915920794
293.0256348	0.94000113
291.9290771	0.970638871
290.9890137	0.987952769
290.0488892	1.007432938
288.9519348	1.036607027
288.0115967	1.054953337
287.0711365	1.073661923
285.9738159	1.090079069
285.0331421	1.10405755
283.9355774	1.124548793
282.9946899	1.138086677
282.0537109	1.149248242
280.95578	1.16208303
280.0145874	1.173213005
279.0733032	1.182742119
277.9750061	1.196163177
277.0335083	1.203400373
275.934967	1.210074067
274.9932556	1.214721322
274.0514526	1.220740795
272.9525757	1.226571321
272.0105591	1.230031252
271.0684509	1.228137732
269.9692078	1.231249332
269.0269165	1.232489824
267.9274292	1.234989643
266.9849243	1.235341072
266.0423279	1.236840963
264.9425354	1.240749598
263.9997253	1.244061708
263.0568237	1.247577906
261.9566956	1.255118966
261.0135803	1.258687139
260.0704041	1.260346532
258.9699402	1.26374805
258.0265503	1.262367606
256.9258423	1.263687491
255.9822693	1.262947083
255.03862	1.25958395
253.9375763	1.255379081
252.9937286	1.25425005
252.0497894	1.246038914
250.9484253	1.243238091
250.004303	1.236977816
249.0657043	1.227218151
247.9705811	1.217942476
247.0318298	1.20870173
245.9364929	1.198347449
244.9975433	1.187410116
244.0585175	1.176361799
242.9628754	1.163448453
242.0236511	1.157238841
240.9277954	1.144799113
239.9884033	1.136337042
239.0489349	1.127046227
237.952774	1.117475986
237.0131073	1.111072302
236.0733795	1.105437994
234.9769135	1.099767208
234.0370026	1.096822619
232.9403381	1.095229506
232.0002441	1.095052838
231.0600891	1.096244931
229.9631195	1.101506233
229.0227814	1.106408834
227.9256134	1.118024588
226.9851074	1.129625678
226.0445251	1.142994046
224.9470673	1.161670327
224.0063171	1.183560729
223.0654907	1.204419971
221.9677429	1.23621738
221.0267487	1.26895988
219.9288177	1.307279944
218.9876556	1.349784374
218.0464172	1.395762324
216.9482117	1.460899472
216.0068054	1.520546317
215.0653381	1.590566993
213.9668579	1.667552829
213.0252228	1.746091127
211.9265594	1.85352397
210.9847565	1.948203325
210.0428925	2.043066025
208.9439545	2.140703678
208.0019379	2.245841503
207.059845	2.352689505
205.9606323	2.477880478
205.0183868	2.590825081
204.0760651	2.669261217
202.9766083	2.757725954
202.0341339	2.9101336
200.9345093	2.770761967
199.9917755	2.823510647