1100.043823	0.171758264
1098.989746	0.134446502
1098.052124	0.158015505
1096.99646	0.150826991
1096.057495	0.149957046
1095.000122	0.154624522
1093.942017	0.159067035
1093.000854	0.150961742
1091.94104	0.154836923
1090.998413	0.161194474
1090.055054	0.152394176
1088.99292	0.13592425
1088.048096	0.155552492
1086.984497	0.141889095
1086.038208	0.168108717
1084.9729	0.162877142
1084.025269	0.158044368
1082.958374	0.165714875
1082.009277	0.159942076
1080.940796	0.169791609
1079.990356	0.165347308
1079.039185	0.158750206
1077.968384	0.168276519
1077.015869	0.152822062
1075.943359	0.171750724
1074.98938	0.171161145
1074.03479	0.163166359
1072.960083	0.164312154
1072.004028	0.163338333
1071.047363	0.168130025
1069.970215	0.172388047
1069.012085	0.169707537
1068.053345	0.176858991
1066.973999	0.172147796
1066.013794	0.16914843
1065.052979	0.173915342
1063.971313	0.175540656
1063.009033	0.16818732
1062.046143	0.178317413
1060.962158	0.180320948
1059.997925	0.175777227
1059.032959	0.171465963
1057.946655	0.183700949
1056.980347	0.17335704
1056.013428	0.181949094
1055.045898	0.179789603
1053.956543	0.178074881
1052.987549	0.176103786
1052.017944	0.178425223
1051.047607	0.180728957
1049.9552	0.185616881
1048.983643	0.186428025
1048.01123	0.182858899
1047.03833	0.192392752
1045.942993	0.184907198
1044.968628	0.184828594
1043.993652	0.191522792
1043.018066	0.190970063
1042.041748	0.191301897
1040.942749	0.187396094
1039.965088	0.186398119
1038.986816	0.190022305
1038.007935	0.190823868
1037.028442	0.185354754
1036.048218	0.189038664
1034.944702	0.184683457
1033.963257	0.18220675
1032.981079	0.182716072
1031.998169	0.18038401
1031.014771	0.179570273
1030.03064	0.181814745
1029.045898	0.177586019
1028.060547	0.177261576
1026.951294	0.179224715
1025.9646	0.180170924
1024.977295	0.180426747
1023.989258	0.17598708
1023.000671	0.177705333
1022.011414	0.178939432
1021.021545	0.18106994
1020.031067	0.179762423
1019.039978	0.186037317
1018.048218	0.184146941
1017.055847	0.184388071
1015.93866	0.18562223
1014.944946	0.183935612
1013.950623	0.18696402
1012.955627	0.189909294
1011.960022	0.189219922
1010.963806	0.190024912
1009.96698	0.190203533
1008.969543	0.188734457
1007.971436	0.189928055
1006.972778	0.192234993
1005.97345	0.190378174
1004.973511	0.191317126
1003.9729	0.192015737
1002.971741	0.193634823
1001.96991	0.193171829
1000.967529	0.193401128
999.9644775	0.192523703
998.9608154	0.194074884
997.956543	0.192585409
996.9516602	0.191183716
995.946167	0.191290826
994.9400635	0.192953393
994.0592041	0.190466225
993.0519409	0.190412283
992.0440674	0.188478679
991.0355835	0.188116834
990.0264893	0.188139498
989.0167847	0.185978845
988.0064697	0.186564639
986.9955444	0.184117392
985.9839478	0.183005512
984.9718018	0.182002813
983.9591064	0.182172105
982.9457397	0.180968612
982.0585327	0.179678515
981.0440063	0.178885371
980.0289307	0.179400355
979.0132446	0.179346755
977.9968872	0.178921178
976.9799805	0.178883925
975.9624634	0.178071991
974.9443359	0.178266287
974.0530396	0.178635687
973.0337524	0.176545277
972.013916	0.177650735
970.9934692	0.176343978
969.9724121	0.176204056
968.9508057	0.173385978
968.0563965	0.173503026
967.0336304	0.169199795
966.0102539	0.168779716
964.9863281	0.167625219
963.961731	0.164047167
962.9365845	0.162611678
962.0391235	0.160107121
961.0128784	0.161313802
959.9860229	0.158444151
958.9585571	0.157106608
958.059082	0.156950489
957.0305176	0.152929694
956.0014038	0.151500598
954.9716797	0.152764797
953.9413452	0.14987421
953.0393066	0.149534643
952.0079346	0.148624465
950.9758911	0.147335455
949.9432983	0.147310451
949.0393066	0.145864099
948.0056152	0.144171074
946.9713135	0.145115376
945.9364624	0.144488603
945.0305176	0.144413725
943.9945679	0.143502101
942.9580078	0.143776313
942.0505371	0.142934129
941.0129395	0.142751157
939.9747314	0.143066347
938.9359131	0.142971575
938.0265503	0.14325574
936.9866333	0.143722355
935.946228	0.143365607
935.0353394	0.144042909
933.9937744	0.143236816
932.9517212	0.144271493
932.0393677	0.144624159
930.9962158	0.14302659
929.9524536	0.144429401
929.0386963	0.143141568
927.9938354	0.143419549
926.9484253	0.143151179
926.0332031	0.142867208
924.9867554	0.14243418
923.9396973	0.141454265
923.0230713	0.141065225
921.9749146	0.140114591
921.057373	0.139241576
920.0081787	0.139032498
918.9584351	0.138461143
918.0394287	0.138655126
916.9886475	0.137931183
915.9372559	0.137314037
915.0168457	0.137209147
913.9644165	0.136928365
913.0430298	0.136822969
911.989563	0.136224464
910.9354858	0.137775689
910.0127563	0.1365937
908.9576416	0.138638139
908.0339355	0.137642577
906.9777832	0.137760937
906.0532227	0.137956888
904.9959717	0.137805909
903.9382324	0.138832167
903.012207	0.138386518
901.9534302	0.139386073
901.0264893	0.1408346
899.9666748	0.140650883
899.0388184	0.14213039
897.9779053	0.142622978
897.0491943	0.143335179
895.9872437	0.143742442
895.0576172	0.145008341
893.9946289	0.144986868
893.0640869	0.145943061
892.0001221	0.147876471
890.9355469	0.147779554
890.0036011	0.147510693
888.9380493	0.148606867
888.005188	0.149255574
886.9385986	0.149140716
886.0048828	0.149293751
884.9372559	0.148670763
884.0026245	0.148090377
882.93396	0.147940561
881.9984741	0.147169769
881.0625	0.14621751
879.9923706	0.146097004
879.055542	0.145834073
877.984375	0.143921956
877.0466309	0.144269839
875.9744873	0.143522307
875.0358887	0.142233759
873.9626465	0.142362863
873.0231934	0.142008871
871.9489746	0.140956923
871.008606	0.140522063
869.9334106	0.139199704
868.9921265	0.140509516
868.0504761	0.138778761
866.9738159	0.139503941
866.03125	0.138660684
864.9535522	0.139055997
864.0101318	0.138147026
863.0663452	0.138901949
861.9871826	0.137108788
861.0424805	0.138132438
859.9623413	0.137673318
859.0167847	0.137242064
857.9356079	0.137219548
856.9891968	0.136673152
856.0423584	0.137657225
854.9597778	0.136305839
854.0120239	0.136627659
853.0639648	0.137426227
851.9799194	0.137458488
851.0309448	0.136821613
849.9459229	0.137175635
848.9960938	0.137124434
848.0458374	0.138328984
846.9593506	0.137288719
846.0083008	0.137991041
845.0567627	0.138585568
843.9688721	0.138434038
843.0165405	0.138153538
842.0637817	0.139360055
840.9744873	0.13927789
840.020874	0.139136225
839.0668945	0.139067903
837.9761353	0.139320567
837.0213013	0.139717504
836.06604	0.139619023
834.973877	0.140571937
834.0177612	0.140128791
833.0613403	0.139751747
831.9677124	0.140727282
831.010376	0.141210571
830.0526733	0.141183093
828.9577026	0.14215216
827.9991455	0.142040312
827.0402222	0.142985389
825.9437866	0.14337723
824.9840088	0.143168494
824.0238647	0.144058749
823.0632935	0.143962354
821.9650879	0.144545868
821.0036621	0.144777492
820.0419312	0.145471484
818.9422607	0.145731479
817.9796753	0.147661954
817.0166626	0.14728719
816.0532837	0.148582146
814.9518433	0.148175865
813.9876099	0.149406165
813.0230713	0.149508417
812.0581055	0.150193736
810.9547729	0.149831072
809.9890137	0.150192529
809.0228271	0.151087537
808.0562744	0.150711447
806.9511719	0.15166691
805.9838257	0.150269583
805.0160522	0.150741994
804.0479126	0.150654584
802.94104	0.15085344
801.9721069	0.150966361
801.0027466	0.150152296
800.0330811	0.149885327
799.0629883	0.149559259
797.9538574	0.149719462
796.9829712	0.148805291
796.0117188	0.149890661
795.0401001	0.14836368
794.0680542	0.148092851
792.9567261	0.148443744
791.9838867	0.147888988
791.0107422	0.147353917
790.0371704	0.147289783
789.0632324	0.147647813
787.949707	0.146851987
786.9749756	0.147220954
785.9998779	0.14738673
785.024353	0.147524178
784.0485229	0.147118449
782.9328003	0.147819683
781.9561768	0.148240417
780.979187	0.147451833
780.00177	0.148619294
779.0240479	0.148624495
778.0458984	0.149048358
777.0674438	0.149263889
775.9487305	0.150152296
774.9694824	0.150929749
773.9898071	0.150574282
773.0098267	0.15141508
772.02948	0.151816174
771.0487061	0.152813852
770.067627	0.153862923
768.9459229	0.154247984
767.9640503	0.155177742
766.9818115	0.155982763
765.9992676	0.157175675
765.0162964	0.157879904
764.032959	0.158779115
763.0492554	0.159675703
762.0652466	0.160321072
760.9401855	0.161944419
759.9553833	0.163063318
758.9702148	0.163985685
757.9846802	0.165426299
756.9987793	0.166882008
756.0125732	0.167661205
755.0259399	0.169648811
754.0390015	0.170714468
753.0516968	0.172303543
752.0640259	0.173811808
750.9348145	0.175234169
749.9464111	0.176303536
748.9575806	0.177847415
747.9684448	0.178954899
746.9789429	0.180633292
745.9891357	0.18177025
744.9989624	0.182739735
744.0083618	0.184635416
743.0175171	0.185211465
742.0262451	0.186686888
741.034668	0.187932521
740.0426636	0.188517794
739.050415	0.189826295
738.0577393	0.190463573
737.0647583	0.191563115
735.9295044	0.192149356
734.93573	0.192609772
733.9416504	0.193064094
732.9472046	0.193454474
731.9524536	0.193234876
730.9572754	0.193592101
729.961853	0.193146557
728.9660034	0.192741722
727.9698486	0.192054004
726.9733276	0.190797225
725.9765015	0.189646348
724.9793091	0.188956425
723.9818115	0.18804805
722.9838867	0.186187118
721.9857178	0.185110837
720.9871216	0.183557689
719.9882202	0.182034433
718.9890137	0.181048691
717.9894409	0.180117145
716.989502	0.179239079
715.9892578	0.178094268
714.9886475	0.177314833
713.9877319	0.176702887
712.9864502	0.17625618
711.9848633	0.175696611
710.9829102	0.175478458
709.9806519	0.175080657
708.9780273	0.174591467
707.9750977	0.174790442
706.9718018	0.174627841
705.9682007	0.174950004
704.9642334	0.175111845
703.9599609	0.175309971
702.9553833	0.175812975
701.9504395	0.175998956
700.9451294	0.176466659
699.9395752	0.176838681
698.9335938	0.177169815
698.071106	0.177706301
697.0645752	0.17843011
696.0576782	0.178810433
695.0504761	0.179648995
694.0429688	0.180815965
693.0350952	0.18167451
692.0269165	0.182469934
691.0183716	0.183213517
690.0095215	0.184862271
689.0003662	0.185712934
687.9908447	0.186802
686.9810791	0.187391266
685.9708862	0.18915312
684.9604492	0.190124363
683.949646	0.190940812
682.9385376	0.191822201
682.0715942	0.192262679
681.0598755	0.193074271
680.0478516	0.19371368
679.0355225	0.194743291
678.0228271	0.195434064
677.0098267	0.196143761
675.996521	0.197001725
674.9829102	0.197275937
673.9689331	0.197997883
672.9546509	0.198732153
671.9400635	0.199107751
671.0701904	0.200197905
670.0549927	0.200547829
669.0394897	0.201760173
668.0236816	0.202869982
667.0075684	0.203687638
665.9911499	0.205158025
664.9743652	0.205699161
663.9573364	0.2073908
662.9399414	0.208132222
662.067627	0.209499136
661.0496826	0.210405514
660.0313721	0.211046681
659.0128174	0.211896211
657.9938965	0.212364376
656.9747314	0.213262707
655.9552002	0.213157699
654.9353638	0.213392168
654.0609741	0.213193432
653.0405884	0.212807223
652.0198364	0.211935386
650.9988403	0.210968152
649.9775391	0.210053846
648.9558716	0.208698973
647.93396	0.207349569
647.0577393	0.206391409
646.0352173	0.20478636
645.0124512	0.20366843
643.9893188	0.202039644
642.9658813	0.200655714
641.9421997	0.198671401
641.0644531	0.197452471
640.0401611	0.195827305
639.015564	0.194455147
637.9906616	0.192819044
636.9655151	0.191368491
635.9400024	0.189789742
635.060791	0.188994855
634.034729	0.187443748
633.0083618	0.186799139
631.9816895	0.186112285
630.9547729	0.185800076
629.9275513	0.184660167
629.046814	0.184384704
628.0189819	0.184121504
626.9909058	0.183784172
625.9625244	0.183921143
624.9338379	0.184321657
624.0518799	0.18425478
623.022644	0.184556469
621.993103	0.18498373
620.9633179	0.185123891
619.9331665	0.185687333
619.0499878	0.186149284
618.0193481	0.185956553
616.9884033	0.186368614
615.9571533	0.186868399
615.072998	0.187348947
614.0411987	0.187729031
613.0091553	0.188299581
611.9768066	0.188793391
610.9441528	0.189474165
610.0587769	0.189967781
609.0255737	0.190693855
607.9921265	0.191666216
606.958374	0.192918599
606.0720825	0.193918094
605.0377808	0.194908038
604.0031738	0.196004793
602.9683228	0.196895346
601.9332275	0.19840309
601.0457153	0.199082121
600.0100098	0.200595692
598.9740601	0.201540262
597.9378662	0.20232296
597.0494385	0.202778056
596.0126343	0.203217268
594.9755859	0.204178587
593.9382935	0.204135969
593.0489502	0.204485521
592.0110474	0.204603761
590.9729614	0.205179617
589.9345703	0.205138266
589.0442505	0.204942241
588.0053711	0.20529975
586.9661255	0.205742806
585.9266968	0.205939874
585.0354614	0.206299901
583.9954834	0.206524864
582.9552002	0.207100272
582.0633545	0.207334295
581.022583	0.207892358
579.9815063	0.208632469
578.9401855	0.209254012
578.0474243	0.209838629
577.0056152	0.210536376
575.963501	0.211167559
575.0700684	0.211584419
574.0274048	0.211944655
572.9845581	0.212618053
571.9414063	0.212719679
571.0470581	0.213104129
570.003418	0.213624641
568.9594727	0.213995189
568.0645142	0.214293703
567.0200806	0.214521736
565.9754028	0.214614645
564.9304199	0.215164855
564.0345459	0.215622693
562.9890747	0.215780422
561.9433594	0.21630311
561.046875	0.216178909
560.0006714	0.216489539
558.9541626	0.216172054
558.0570068	0.21591118
557.0100098	0.215714663
555.9628296	0.214929521
555.0650024	0.214679152
554.0172729	0.213923246
552.9692993	0.212770894
552.0708618	0.212251604
551.0223999	0.211474791
549.9736328	0.210151687
549.0745239	0.209612995
548.0253296	0.209134251
546.9758911	0.208044127
545.9262085	0.207541093
545.0262451	0.206993997
543.9760132	0.206291169
542.9255981	0.205839679
542.0249634	0.205323711
540.9740601	0.205099955
540.0730591	0.205041885
539.0216675	0.205159113
537.9700317	0.205227941
537.0684204	0.205260456
536.0162964	0.205268264
534.9638672	0.205983579
534.0616455	0.205922529
533.0087891	0.206407979
531.9556885	0.207246676
531.0528564	0.207915589
529.9992676	0.209159225
528.9454956	0.209914178
528.0419922	0.210492969
526.9877319	0.212272242
525.9331665	0.213752732
525.0291138	0.214982688
523.9741211	0.216846034
523.0696411	0.218751207
522.0142212	0.220496446
520.9584961	0.222710729
520.0534668	0.224626452
518.9973145	0.226794735
517.940918	0.22899197
517.0352173	0.23108922
515.9783936	0.233505517
515.0723267	0.235921875
514.0150146	0.238029838
512.9574585	0.239814803
512.0507813	0.241181284
510.9927979	0.242834315
509.9345703	0.243883804
509.0273438	0.24468337
507.9686584	0.244848341
507.0610046	0.244689971
506.0018921	0.244030833
504.9425354	0.243260562
504.0343018	0.241829291
502.9745178	0.240518361
502.065918	0.239326209
501.0056763	0.237868026
499.9451904	0.236307308
499.0360107	0.234895349
497.9750977	0.233528614
497.0655212	0.232382789
496.0041809	0.231102616
494.9425964	0.230095714
494.0324707	0.229204133
492.9704285	0.228396252
492.0599365	0.227552861
490.9974976	0.226889521
489.9347839	0.226630598
489.0237427	0.226982325
487.9606018	0.22673434
487.0491943	0.226449043
485.9856567	0.226727545
485.0738525	0.227275312
484.0098877	0.227525353
482.9456787	0.227683187
482.0333252	0.228420913
480.968689	0.229538798
480.0559998	0.230678856
478.9909363	0.231716991
477.9256592	0.232598022
477.0123901	0.234295264
475.9467163	0.235821575
475.0330811	0.237329707
473.96698	0.238646686
473.053009	0.239976436
471.9864807	0.241686106
471.0721436	0.243106574
470.005188	0.24482891
468.9380493	0.246309727
468.0231628	0.247262299
466.9555969	0.248587489
466.0403748	0.249890596
464.9723816	0.251095206
464.0567932	0.25202319
462.9884033	0.252764463
462.0724792	0.253616691
461.0036926	0.25456509
459.9346924	0.254391909
459.018219	0.254740268
457.948822	0.254865795
457.0320129	0.254781187
455.9621887	0.254441798
455.0450439	0.253989637
453.974823	0.253638357
453.0573425	0.253110349
451.9867249	0.252578676
451.0689087	0.252273679
449.9978943	0.251810312
448.9266663	0.251352876
448.0083313	0.251472682
446.9367065	0.250739962
446.0180359	0.250623584
444.9460144	0.250499308
444.0270081	0.250554025
442.9546204	0.250580311
442.0352478	0.250795424
440.9624634	0.2509332
440.0427856	0.25124374
438.9696045	0.251811266
438.0495911	0.252531171
436.9760437	0.253419042
436.0556946	0.254361987
434.9817505	0.25529024
434.0610962	0.256145001
432.9867859	0.257386833
432.0657654	0.258788884
430.9910889	0.260361403
430.0697632	0.261246324
428.9946899	0.262735903
428.0730286	0.264439523
426.9975891	0.266288281
426.0756226	0.267780036
424.9997864	0.269296229
423.9237671	0.270604849
423.0013123	0.272403538
421.9249268	0.274689317
421.0021362	0.275516868
419.9253845	0.277633101
419.0022888	0.278853536
417.9251709	0.280973375
417.0017395	0.282679588
415.9242554	0.284227371
415.0005188	0.285401374
414.0766602	0.285946727
412.9986267	0.286587894
412.0744629	0.287093431
410.9960632	0.287517458
410.0715942	0.287076056
408.9928284	0.287135273
408.0680542	0.286994726
406.9889526	0.286836624
406.0638428	0.286631435
404.984375	0.286741614
404.05896	0.286707103
402.9791565	0.287078351
402.0534363	0.287760764
400.9732666	0.288673729
400.0472717	0.289521635
398.9667358	0.290831298
398.0404358	0.291724443
396.9595642	0.29367134
396.032959	0.295575798
394.9517212	0.297590375
394.0248108	0.299616039
392.9432678	0.302407682
392.0160522	0.304457367
390.9341431	0.306767583
390.0066528	0.309625149
388.924408	0.312945545
387.9966125	0.315430313
387.0686951	0.318014443
385.9859314	0.321171284
385.0577393	0.324158758
383.9746399	0.32775861
383.0461426	0.330291301
381.9627075	0.334126651
381.0339355	0.33662191
379.9501648	0.339149803
379.0210876	0.340978503
377.9370117	0.342007369
377.0076294	0.342546314
375.9232178	0.342189342
374.9935913	0.342296124
374.0638123	0.342039049
372.9789124	0.341866642
372.0488586	0.341934264
370.963623	0.342343718
370.0332947	0.343100637
368.9477539	0.343844771
368.0171204	0.345232397
366.9312439	0.346500248
366.0003662	0.348164976
365.0693359	0.35050863
363.9830017	0.353169739
363.0517273	0.356153727
361.9650574	0.357919782
361.0335083	0.360797793
359.9465027	0.364133447
359.014679	0.368147135
357.9273987	0.372164488
356.9953003	0.375108838
356.0630493	0.377784669
354.9753113	0.381277651
354.0428162	0.384191781
352.9547424	0.387942404
352.0220032	0.39060995
350.9336243	0.393337816
350.0006104	0.395651996
349.0674744	0.39803493
347.9786377	0.401487768
347.0452271	0.402986109
345.9561157	0.405309975
345.0224304	0.40605554
343.9330139	0.408713013
342.9990845	0.41111353
342.0650635	0.412609726
340.9751892	0.414307386
340.0408936	0.416132629
338.9507141	0.418733537
338.0161743	0.421128333
336.9256897	0.424563825
335.9909058	0.426894844
335.0559692	0.429378629
333.9650879	0.433390558
333.0299072	0.43648687
331.9387207	0.442294151
331.0032959	0.445559859
330.067749	0.449644357
328.9761353	0.454515547
328.0403442	0.460088432
326.9484558	0.465172947
326.0124207	0.468118817
325.0762634	0.472518176
323.9839478	0.475960285
323.0475464	0.479959875
321.9549561	0.48448658
321.0183411	0.488578558
319.9254456	0.492097884
318.9885559	0.495666057
318.0515747	0.500182569
316.9582825	0.50581789
316.0210571	0.509363473
314.9274902	0.51238507
313.9900513	0.518400848
313.0524597	0.523833096
311.9584961	0.530527175
311.0206909	0.535311163
309.9264526	0.541363716
308.9884338	0.548997521
308.0502625	0.557820082
306.9556274	0.567485333
306.0172729	0.574442685
304.9223633	0.582752824
303.9837341	0.597577572
303.0450439	0.610511065
301.9497375	0.630613267
301.0108032	0.641602874
300.0717468	0.657699883
298.9760742	0.682255268
298.0368042	0.702259541
296.9408569	0.725782991
296.0013733	0.745616436
295.0617676	0.767872572
293.9654541	0.793766797
293.0256348	0.815374076
291.9290771	0.843991041
290.9890137	0.862308562
290.0488892	0.877896369
288.9519348	0.904278576
288.0115967	0.925783634
287.0711365	0.9427948
285.9738159	0.959498227
285.0331421	0.973177433
283.9355774	0.991775036
282.9946899	1.007887602
282.0537109	1.016458392
280.95578	1.030454159
280.0145874	1.040324807
279.0733032	1.050577044
277.9750061	1.062350035
277.0335083	1.070533395
275.934967	1.078454733
274.9932556	1.082985759
274.0514526	1.088846803
272.9525757	1.095540881
272.0105591	1.09947896
271.0684509	1.098896503
269.9692078	1.10223341
269.0269165	1.104077935
267.9274292	1.109504223
266.9849243	1.108668685
266.0423279	1.111029625
264.9425354	1.11391747
263.9997253	1.119043231
263.0568237	1.123334408
261.9566956	1.129780054
261.0135803	1.133696556
260.0704041	1.136085629
258.9699402	1.1395365
258.0265503	1.139425397
256.9258423	1.139672756
255.9822693	1.139179826
255.03862	1.135203362
253.9375763	1.131957889
252.9937286	1.128357053
252.0497894	1.1219877
250.9484253	1.116870761
250.004303	1.109547853
249.0657043	1.100493789
247.9705811	1.091430664
247.0318298	1.08140862
245.9364929	1.071708322
244.9975433	1.059292555
244.0585175	1.046756387
242.9628754	1.033638597
242.0236511	1.025051475
240.9277954	1.012599587
239.9884033	1.002174854
239.0489349	0.993169308
237.952774	0.982983768
237.0131073	0.97621429
236.0733795	0.970392227
234.9769135	0.965813279
234.0370026	0.962161779
232.9403381	0.961892426
232.0002441	0.961965859
231.0600891	0.964289606
229.9631195	0.973089278
229.0227814	0.978917182
227.9256134	0.995508969
226.9851074	1.012598991
226.0445251	1.027769208
224.9470673	1.057218671
224.0063171	1.083199024
223.0654907	1.115615964
221.9677429	1.154324174
221.0267487	1.196186185
219.9288177	1.254042983
218.9876556	1.313746691
218.0464172	1.374978065
216.9482117	1.451258302
216.0068054	1.532052159
215.0653381	1.614656925
213.9668579	1.73430264
213.0252228	1.832786918
211.9265594	1.964932561
210.9847565	2.086196661
210.0428925	2.202232361
208.9439545	2.350694656
208.0019379	2.464447021
207.059845	2.6089499
205.9606323	2.797648907
205.0183868	2.879601717
204.0760651	3.105625153
202.9766083	2.980439425
202.0341339	2.951267481
200.9345093	2.971754551
199.9917755	2.651079655