   9.3929523e-02   8.3394746e+00   1.8794625e+01   9.2842545e+02
   3.0600465e-01   1.6124739e+01   2.7373742e+01   9.7215008e+02
   6.6979814e-01   9.9879241e+00   2.8163279e+01   9.9230289e+02
   2.6705111e-01   1.4242631e+01   3.3928629e+01   1.0414971e+03
   0.0000000e+00   1.3800000e+01   1.9290000e+01   1.0730000e+03
   0.0000000e+00   2.3990000e+01   1.2880000e+01   1.1170000e+03
   0.0000000e+00   2.6060000e+01   1.9810000e+01   1.1220000e+03
   0.0000000e+00   2.3530000e+01   3.5310000e+01   1.1360000e+03
   0.0000000e+00   1.5680000e+01   5.5030000e+01   1.1940000e+03
   0.0000000e+00   2.3950000e+01   2.1510000e+01   1.2620000e+03
   0.0000000e+00   3.4260000e+01   2.6140000e+01   1.2760000e+03
   0.0000000e+00   1.8750000e+01   3.1060000e+01   1.2890000e+03
   2.1843452e-01   1.0000000e+00   1.0000000e+00   1.0000000e+00
