   3.3133572e-03   1.1462717e+01   1.9596027e+01   9.2595707e+02
   3.1893714e-02   1.7251640e+01   2.4280893e+01   9.6962903e+02
   1.3871590e-01   1.1243037e+01   2.7144992e+01   9.9475061e+02
   5.5507086e-02   2.1416150e+01   3.5788406e+01   1.0391541e+03
   0.0000000e+00   1.3800000e+01   1.9290000e+01   1.0730000e+03
   0.0000000e+00   2.3990000e+01   1.2880000e+01   1.1170000e+03
   0.0000000e+00   2.6060000e+01   1.9810000e+01   1.1220000e+03
   0.0000000e+00   2.3530000e+01   3.5310000e+01   1.1360000e+03
   0.0000000e+00   1.5680000e+01   5.5030000e+01   1.1940000e+03
   0.0000000e+00   2.3950000e+01   2.1510000e+01   1.2620000e+03
   0.0000000e+00   3.4260000e+01   2.6140000e+01   1.2760000e+03
   0.0000000e+00   1.8750000e+01   3.1060000e+01   1.2890000e+03
   8.7997411e-02   1.0000000e+00   1.0000000e+00   1.0000000e+00
