   6.4596542e-02   6.5033822e+00   1.6652885e+01   9.2583224e+02
   1.4122346e-01   9.9345409e+00   2.4836861e+01   9.6705944e+02
   6.4973299e-01   1.3849261e+01   3.2731999e+01   9.9590244e+02
   2.6079245e-01   1.5756080e+01   5.4130570e+01   1.0380683e+03
   0.0000000e+00   1.3800000e+01   1.9290000e+01   1.0730000e+03
   0.0000000e+00   2.3990000e+01   1.2880000e+01   1.1170000e+03
   0.0000000e+00   2.6060000e+01   1.9810000e+01   1.1220000e+03
   0.0000000e+00   2.3530000e+01   3.5310000e+01   1.1360000e+03
   0.0000000e+00   1.5680000e+01   5.5030000e+01   1.1940000e+03
   0.0000000e+00   2.3950000e+01   2.1510000e+01   1.2620000e+03
   0.0000000e+00   3.4260000e+01   2.6140000e+01   1.2760000e+03
   0.0000000e+00   1.8750000e+01   3.1060000e+01   1.2890000e+03
   2.2793356e-01   1.0000000e+00   1.0000000e+00   1.0000000e+00
