  1.2920499e-001  1.1972732e+001  2.2623549e+001  9.2396350e+002
  2.0309621e-001  1.6819189e+001  1.1258207e+001  9.6818260e+002
  7.5173211e-001  1.3657567e+001  2.2340310e+001  9.8981713e+002
  3.9832253e-001  4.3705890e+001  1.7430000e+001  1.0447300e+003
  0.0000000e+000  1.3800000e+001  1.9290000e+001  1.0730000e+003
  0.0000000e+000  2.3990000e+001  1.2880000e+001  1.1170000e+003
  0.0000000e+000  2.6060000e+001  1.9810000e+001  1.1220000e+003
  0.0000000e+000  2.3530000e+001  3.5310000e+001  1.1360000e+003
  0.0000000e+000  1.5680000e+001  5.5030000e+001  1.1940000e+003
  0.0000000e+000  2.3950000e+001  2.1510000e+001  1.2620000e+003
  0.0000000e+000  3.4260000e+001  2.6140000e+001  1.2760000e+003
  0.0000000e+000  1.8750000e+001  3.1060000e+001  1.2890000e+003
  1.8021316e-001  1.0000000e+000  1.0000000e+000  1.0000000e+000
