1100.043823	0.174350232
1098.989746	0.322059989
1098.052124	0.221340463
1096.99646	0.226274237
1096.057495	0.318164915
1095.000122	0.202808619
1093.942017	0.239154264
1093.000854	0.211606368
1091.94104	0.202781484
1090.998413	0.192888379
1090.055054	0.201386601
1088.99292	0.20583424
1088.048096	0.206085086
1086.984497	0.212362722
1086.038208	0.229121208
1084.9729	0.268902302
1084.025269	0.173337817
1082.958374	0.215114906
1082.009277	0.265026182
1080.940796	0.203970373
1079.990356	0.234150901
1079.039185	0.230603784
1077.968384	0.259728104
1077.015869	0.238113448
1075.943359	0.218136713
1074.98938	0.197320461
1074.03479	0.253655165
1072.960083	0.244108394
1072.004028	0.256234556
1071.047363	0.224322185
1069.970215	0.21852684
1069.012085	0.218589529
1068.053345	0.247064546
1066.973999	0.197295949
1066.013794	0.210334241
1065.052979	0.24192977
1063.971313	0.252585173
1063.009033	0.21944876
1062.046143	0.219218463
1060.962158	0.176162109
1059.997925	0.227154806
1059.032959	0.239780307
1057.946655	0.226733998
1056.980347	0.223206982
1056.013428	0.252550721
1055.045898	0.228553742
1053.956543	0.223755404
1052.987549	0.240732789
1052.017944	0.249071732
1051.047607	0.24969697
1049.9552	0.249320209
1048.983643	0.241655082
1048.01123	0.276410878
1047.03833	0.271487773
1045.942993	0.267239273
1044.968628	0.287672222
1043.993652	0.270377159
1043.018066	0.260555118
1042.041748	0.266216606
1040.942749	0.273890406
1039.965088	0.262243062
1038.986816	0.274163067
1038.007935	0.279345065
1037.028442	0.268364817
1036.048218	0.271881849
1034.944702	0.274375647
1033.963257	0.275242269
1032.981079	0.262302965
1031.998169	0.249383092
1031.014771	0.251453877
1030.03064	0.273849428
1029.045898	0.261917204
1028.060547	0.253852934
1026.951294	0.254085839
1025.9646	0.273346573
1024.977295	0.246945143
1023.989258	0.263348013
1023.000671	0.263345897
1022.011414	0.275702179
1021.021545	0.268943369
1020.031067	0.262614757
1019.039978	0.269923449
1018.048218	0.277424365
1017.055847	0.272762269
1015.93866	0.269047588
1014.944946	0.272854805
1013.950623	0.278773099
1012.955627	0.290486306
1011.960022	0.288895428
1010.963806	0.28630349
1009.96698	0.290793359
1008.969543	0.28676182
1007.971436	0.300417036
1006.972778	0.306326777
1005.97345	0.300720185
1004.973511	0.308852196
1003.9729	0.309423
1002.971741	0.322301358
1001.96991	0.319462121
1000.967529	0.323016226
999.9644775	0.326183409
998.9608154	0.328591436
997.956543	0.326503873
996.9516602	0.334816665
995.946167	0.33459118
994.9400635	0.335603088
994.0592041	0.340284407
993.0519409	0.334810585
992.0440674	0.328752697
991.0355835	0.325398713
990.0264893	0.334475935
989.0167847	0.321850449
988.0064697	0.327573925
986.9955444	0.317187727
985.9839478	0.312081993
984.9718018	0.302626431
983.9591064	0.297017306
982.9457397	0.296120048
982.0585327	0.293132007
981.0440063	0.289043874
980.0289307	0.283512712
979.0132446	0.283409149
977.9968872	0.283056974
976.9799805	0.278884172
975.9624634	0.278769225
974.9443359	0.282867312
974.0530396	0.280251771
973.0337524	0.274149627
972.013916	0.271367043
970.9934692	0.270372212
969.9724121	0.275224149
968.9508057	0.265077919
968.0563965	0.259158403
967.0336304	0.260563135
966.0102539	0.260509461
964.9863281	0.248257205
963.961731	0.247140959
962.9365845	0.247967318
962.0391235	0.236533418
961.0128784	0.234809369
959.9860229	0.235936761
958.9585571	0.226896688
958.059082	0.224274322
957.0305176	0.22418122
956.0014038	0.218656287
954.9716797	0.212931261
953.9413452	0.213025942
953.0393066	0.210867271
952.0079346	0.209317133
950.9758911	0.207958624
949.9432983	0.207280219
949.0393066	0.205739737
948.0056152	0.205448538
946.9713135	0.203692064
945.9364624	0.205673009
945.0305176	0.197794557
943.9945679	0.203614071
942.9580078	0.204222426
942.0505371	0.206432626
941.0129395	0.20325245
939.9747314	0.203490347
938.9359131	0.205129758
938.0265503	0.205560714
936.9866333	0.20826447
935.946228	0.209898695
935.0353394	0.209292188
933.9937744	0.215439305
932.9517212	0.21088481
932.0393677	0.211680874
930.9962158	0.210817218
929.9524536	0.213994682
929.0386963	0.208832726
927.9938354	0.211706758
926.9484253	0.204169899
926.0332031	0.207483649
924.9867554	0.203244835
923.9396973	0.20038183
923.0230713	0.199283481
921.9749146	0.198769137
921.057373	0.197173417
920.0081787	0.196029916
918.9584351	0.192869157
918.0394287	0.192138761
916.9886475	0.191008717
915.9372559	0.187389955
915.0168457	0.188848317
913.9644165	0.189753965
913.0430298	0.188334674
911.989563	0.187043577
910.9354858	0.185611799
910.0127563	0.18480356
908.9576416	0.183283582
908.0339355	0.186328828
906.9777832	0.185464174
906.0532227	0.185013488
904.9959717	0.183711171
903.9382324	0.184197545
903.012207	0.185723096
901.9534302	0.185473695
901.0264893	0.186112642
899.9666748	0.18806909
899.0388184	0.186453983
897.9779053	0.190499902
897.0491943	0.190132186
895.9872437	0.192940116
895.0576172	0.19265604
893.9946289	0.195664153
893.0640869	0.196721897
892.0001221	0.195545733
890.9355469	0.198288128
890.0036011	0.199092522
888.9380493	0.1990145
888.005188	0.200592443
886.9385986	0.200094074
886.0048828	0.200164035
884.9372559	0.199239612
884.0026245	0.198173314
882.93396	0.198301047
881.9984741	0.197421834
881.0625	0.195846126
879.9923706	0.195884973
879.055542	0.193385646
877.984375	0.193117559
877.0466309	0.19138518
875.9744873	0.191401273
875.0358887	0.191400871
873.9626465	0.190517202
873.0231934	0.191847354
871.9489746	0.187411666
871.008606	0.188808858
869.9334106	0.186900646
868.9921265	0.185581833
868.0504761	0.187492341
866.9738159	0.187806964
866.03125	0.187426299
864.9535522	0.18708089
864.0101318	0.183516994
863.0663452	0.183857098
861.9871826	0.187241808
861.0424805	0.183699518
859.9623413	0.183798477
859.0167847	0.184833109
857.9356079	0.185496077
856.9891968	0.182624742
856.0423584	0.180154458
854.9597778	0.184480727
854.0120239	0.184687734
853.0639648	0.182303608
851.9799194	0.183375776
851.0309448	0.181306377
849.9459229	0.18306154
848.9960938	0.182161555
848.0458374	0.183710158
846.9593506	0.184625357
846.0083008	0.182133168
845.0567627	0.183263183
843.9688721	0.18340227
843.0165405	0.184380978
842.0637817	0.185613737
840.9744873	0.185187995
840.020874	0.184073135
839.0668945	0.185549125
837.9761353	0.185940862
837.0213013	0.185704604
836.06604	0.186503142
834.973877	0.185959369
834.0177612	0.187062174
833.0613403	0.187532648
831.9677124	0.186511055
831.010376	0.188732058
830.0526733	0.191451028
828.9577026	0.188893825
827.9991455	0.190193832
827.0402222	0.189033061
825.9437866	0.190884516
824.9840088	0.19015801
824.0238647	0.19222194
823.0632935	0.193036392
821.9650879	0.192953363
821.0036621	0.193694621
820.0419312	0.194816649
818.9422607	0.196970806
817.9796753	0.195691407
817.0166626	0.1975573
816.0532837	0.197124213
814.9518433	0.199640289
813.9876099	0.200947493
813.0230713	0.201966807
812.0581055	0.202671006
810.9547729	0.204712242
809.9890137	0.202195436
809.0228271	0.204300478
808.0562744	0.202613503
806.9511719	0.204699755
805.9838257	0.206827998
805.0160522	0.203361258
804.0479126	0.203225255
802.94104	0.204988465
801.9721069	0.203794971
801.0027466	0.202215686
800.0330811	0.203151643
799.0629883	0.201580286
797.9538574	0.200188577
796.9829712	0.200120702
796.0117188	0.199765384
795.0401001	0.19859235
794.0680542	0.200298235
792.9567261	0.198917463
791.9838867	0.195892826
791.0107422	0.196589142
790.0371704	0.195889488
789.0632324	0.194370091
787.949707	0.194029436
786.9749756	0.194744095
785.9998779	0.192928687
785.024353	0.193446383
784.0485229	0.193868741
782.9328003	0.19678323
781.9561768	0.195764616
780.979187	0.195025653
780.00177	0.196796179
779.0240479	0.194319159
778.0458984	0.196691975
777.0674438	0.195990324
775.9487305	0.196359456
774.9694824	0.197347373
773.9898071	0.199472874
773.0098267	0.198881164
772.02948	0.199645087
771.0487061	0.201866806
770.067627	0.20294027
768.9459229	0.202759981
767.9640503	0.203272954
766.9818115	0.205739394
765.9992676	0.207733542
765.0162964	0.206027091
764.032959	0.209799051
763.0492554	0.210691094
762.0652466	0.211609408
760.9401855	0.212094814
759.9553833	0.216281384
758.9702148	0.215525195
757.9846802	0.219355062
756.9987793	0.220709473
756.0125732	0.222475275
755.0259399	0.225525603
754.0390015	0.228261381
753.0516968	0.231850386
752.0640259	0.230653763
750.9348145	0.234751508
749.9464111	0.240877554
748.9575806	0.241256982
747.9684448	0.244300485
746.9789429	0.246150285
745.9891357	0.249090061
744.9989624	0.250597388
744.0083618	0.25205195
743.0175171	0.253947318
742.0262451	0.258094549
741.034668	0.258570135
740.0426636	0.261955887
739.050415	0.263398051
738.0577393	0.266970336
737.0647583	0.267189413
735.9295044	0.26803273
734.93573	0.269031912
733.9416504	0.270009667
732.9472046	0.26983121
731.9524536	0.270035803
730.9572754	0.268775672
729.961853	0.268971652
728.9660034	0.267391026
727.9698486	0.266646713
726.9733276	0.265336931
725.9765015	0.261614829
724.9793091	0.260248691
723.9818115	0.257637441
722.9838867	0.254845411
721.9857178	0.253532112
720.9871216	0.250136286
719.9882202	0.247787193
718.9890137	0.245769247
717.9894409	0.244795978
716.989502	0.241603792
715.9892578	0.240405098
714.9886475	0.239019856
713.9877319	0.237989083
712.9864502	0.236342594
711.9848633	0.236467376
710.9829102	0.235396564
709.9806519	0.235247165
708.9780273	0.23499015
707.9750977	0.234525874
706.9718018	0.234978899
705.9682007	0.235500768
704.9642334	0.235035598
703.9599609	0.234732345
702.9553833	0.236227199
701.9504395	0.236014217
700.9451294	0.236414686
699.9395752	0.236577421
698.9335938	0.236991838
698.071106	0.237685651
697.0645752	0.237778321
696.0576782	0.23869884
695.0504761	0.239378274
694.0429688	0.24044387
693.0350952	0.241443753
692.0269165	0.242130891
691.0183716	0.244653449
690.0095215	0.246140614
689.0003662	0.247857824
687.9908447	0.24952428
686.9810791	0.250144094
685.9708862	0.253060997
684.9604492	0.254389614
683.949646	0.256361455
682.9385376	0.258372277
682.0715942	0.258889407
681.0598755	0.259192139
680.0478516	0.261623949
679.0355225	0.262401044
678.0228271	0.263768345
677.0098267	0.264216155
675.996521	0.266017228
674.9829102	0.267311126
673.9689331	0.268690288
672.9546509	0.270276487
671.9400635	0.26906091
671.0701904	0.271746844
670.0549927	0.273808926
669.0394897	0.273865521
668.0236816	0.278222889
667.0075684	0.278998584
665.9911499	0.281705409
664.9743652	0.282597005
663.9573364	0.284412056
662.9399414	0.287879646
662.067627	0.28981325
661.0496826	0.292170435
660.0313721	0.29331553
659.0128174	0.295563102
657.9938965	0.296701342
656.9747314	0.296841919
655.9552002	0.297893167
654.9353638	0.296221376
654.0609741	0.296524495
653.0405884	0.295600325
652.0198364	0.293759465
650.9988403	0.292510599
649.9775391	0.291663021
648.9558716	0.288213193
647.93396	0.285240471
647.0577393	0.282284021
646.0352173	0.279290795
645.0124512	0.277605742
643.9893188	0.274015129
642.9658813	0.271544546
641.9421997	0.26957038
641.0644531	0.26556012
640.0401611	0.264186561
639.015564	0.261109233
637.9906616	0.258319646
636.9655151	0.255990267
635.9400024	0.254353344
635.060791	0.25274986
634.034729	0.250911236
633.0083618	0.249048114
631.9816895	0.248233557
630.9547729	0.246135593
629.9275513	0.248000816
629.046814	0.245689616
628.0189819	0.246649355
626.9909058	0.246349677
625.9625244	0.246116027
624.9338379	0.247474596
624.0518799	0.246995837
623.022644	0.246933579
621.993103	0.247737974
620.9633179	0.248465821
619.9331665	0.248266563
619.0499878	0.248608455
618.0193481	0.249839142
616.9884033	0.248430908
615.9571533	0.249294102
615.072998	0.248743653
614.0411987	0.249882117
613.0091553	0.249787793
611.9768066	0.251192123
610.9441528	0.252556086
610.0587769	0.252577245
609.0255737	0.254616171
607.9921265	0.25581649
606.958374	0.258381426
606.0720825	0.259834319
605.0377808	0.261654675
604.0031738	0.263389707
602.9683228	0.265937924
601.9332275	0.26877901
601.0457153	0.270654529
600.0100098	0.273311406
598.9740601	0.274964213
597.9378662	0.276872128
597.0494385	0.277455598
596.0126343	0.279097557
594.9755859	0.279398203
593.9382935	0.280709565
593.0489502	0.280147702
592.0110474	0.280642003
590.9729614	0.280349612
589.9345703	0.280933231
589.0442505	0.280115038
588.0053711	0.280549943
586.9661255	0.282000631
585.9266968	0.282157689
585.0354614	0.281906188
583.9954834	0.283516944
582.9552002	0.28446123
582.0633545	0.286400557
581.022583	0.287771016
579.9815063	0.289467931
578.9401855	0.290592581
578.0474243	0.29217431
577.0056152	0.293109238
575.963501	0.294296712
575.0700684	0.294451207
574.0274048	0.29484123
572.9845581	0.294150382
571.9414063	0.294049293
571.0470581	0.293502033
570.003418	0.293391883
568.9594727	0.292074829
568.0645142	0.291018248
567.0200806	0.290286601
565.9754028	0.288802654
564.9304199	0.288963348
564.0345459	0.288347364
562.9890747	0.287703186
561.9433594	0.28725636
561.046875	0.286576837
560.0006714	0.285872728
558.9541626	0.284567475
558.0570068	0.284884721
557.0100098	0.282982141
555.9628296	0.28110531
555.0650024	0.280395269
554.0172729	0.279524446
552.9692993	0.276818961
552.0708618	0.27543658
551.0223999	0.274547458
549.9736328	0.273003191
549.0745239	0.271487802
548.0253296	0.270479083
546.9758911	0.269697309
545.9262085	0.268432528
545.0262451	0.267355859
543.9760132	0.266809762
542.9255981	0.266352236
542.0249634	0.265857279
540.9740601	0.265341848
540.0730591	0.265077919
539.0216675	0.264856309
537.9700317	0.264820844
537.0684204	0.264847279
536.0162964	0.265158415
534.9638672	0.265418619
534.0616455	0.265433788
533.0087891	0.26638329
531.9556885	0.26759842
531.0528564	0.268264741
529.9992676	0.269408703
528.9454956	0.27088514
528.0419922	0.271346837
526.9877319	0.273590446
525.9331665	0.275465578
525.0291138	0.276832163
523.9741211	0.279130489
523.0696411	0.281102032
522.0142212	0.28423813
520.9584961	0.286023736
520.0534668	0.288399935
518.9973145	0.290966749
517.940918	0.292777002
517.0352173	0.295826584
515.9783936	0.298033387
515.0723267	0.301382214
514.0150146	0.303352088
512.9574585	0.30522731
512.0507813	0.306460947
510.9927979	0.308540165
509.9345703	0.309664607
509.0273438	0.309408456
507.9686584	0.308991402
507.0610046	0.308363497
506.0018921	0.3075023
504.9425354	0.305946171
504.0343018	0.303792208
502.9745178	0.301980764
502.065918	0.30063206
501.0056763	0.298032314
499.9451904	0.296308428
499.0360107	0.294472158
497.9750977	0.293201268
497.0655212	0.29191649
496.0041809	0.290546089
494.9425964	0.289333612
494.0324707	0.288178712
492.9704285	0.287007362
492.0599365	0.286264479
490.9974976	0.285753638
489.9347839	0.285412043
489.0237427	0.285153031
487.9606018	0.285161167
487.0491943	0.285082459
485.9856567	0.285547108
485.0738525	0.286062956
484.0098877	0.286481112
482.9456787	0.286987424
482.0333252	0.28806603
480.968689	0.289516807
480.0559998	0.29064256
478.9909363	0.291849315
477.9256592	0.293244839
477.0123901	0.295334488
475.9467163	0.296956271
475.0330811	0.299185336
473.96698	0.301017523
473.053009	0.302206397
471.9864807	0.303767711
471.0721436	0.306079477
470.005188	0.307637364
468.9380493	0.310030878
468.0231628	0.310597032
466.9555969	0.312465906
466.0403748	0.313736916
464.9723816	0.315025419
464.0567932	0.316668302
462.9884033	0.317316741
462.0724792	0.318427533
461.0036926	0.319694668
459.9346924	0.31952396
459.018219	0.320144445
457.948822	0.320240855
457.0320129	0.320283175
455.9621887	0.320078164
455.0450439	0.319799066
453.974823	0.319318235
453.0573425	0.318821102
451.9867249	0.31821844
451.0689087	0.317882001
449.9978943	0.317990691
448.9266663	0.317462295
448.0083313	0.317461371
446.9367065	0.317431003
446.0180359	0.317045778
444.9460144	0.316830307
444.0270081	0.316783011
442.9546204	0.316821605
442.0352478	0.317309648
440.9624634	0.317374796
440.0427856	0.318058699
438.9696045	0.318920106
438.0495911	0.319725603
436.9760437	0.321200609
436.0556946	0.322286576
434.9817505	0.323919833
434.0610962	0.32503888
432.9867859	0.327091217
432.0657654	0.328984767
430.9910889	0.331132114
430.0697632	0.33192569
428.9946899	0.334165186
428.0730286	0.336628139
426.9975891	0.33909297
426.0756226	0.341514677
424.9997864	0.343600929
423.9237671	0.345564455
423.0013123	0.348242581
421.9249268	0.351477593
421.0021362	0.353156358
419.9253845	0.357014269
419.0022888	0.359323144
417.9251709	0.362227649
417.0017395	0.364551663
415.9242554	0.367212176
415.0005188	0.369318605
414.0766602	0.369419664
412.9986267	0.370369017
412.0744629	0.371728122
410.9960632	0.370808661
410.0715942	0.370981306
408.9928284	0.370479614
408.0680542	0.370546103
406.9889526	0.370069325
406.0638428	0.369895071
404.984375	0.369181454
404.05896	0.369595796
402.9791565	0.370804161
402.0534363	0.371368617
400.9732666	0.372525543
400.0472717	0.374579668
398.9667358	0.376265228
398.0404358	0.378350198
396.9595642	0.381070316
396.032959	0.384217411
394.9517212	0.387690425
394.0248108	0.391751736
392.9432678	0.394725263
392.0160522	0.39767465
390.9341431	0.401427925
390.0066528	0.406417787
388.924408	0.409407616
387.9966125	0.414315641
387.0686951	0.417657971
385.9859314	0.422674686
385.0577393	0.428019345
383.9746399	0.433444351
383.0461426	0.437485576
381.9627075	0.443175793
381.0339355	0.445869625
379.9501648	0.449763089
379.0210876	0.452779919
377.9370117	0.453830481
377.0076294	0.454202443
375.9232178	0.452841878
374.9935913	0.452745199
374.0638123	0.451397598
372.9789124	0.450467616
372.0488586	0.450633198
370.963623	0.45101282
370.0332947	0.451465875
368.9477539	0.453030318
368.0171204	0.454918385
366.9312439	0.456882805
366.0003662	0.459374934
365.0693359	0.461314708
363.9830017	0.466996789
363.0517273	0.470513463
361.9650574	0.473739475
361.0335083	0.477460027
359.9465027	0.482626051
359.014679	0.488986373
357.9273987	0.495012343
356.9953003	0.500575542
356.0630493	0.504217029
354.9753113	0.510161281
354.0428162	0.513077796
352.9547424	0.518341899
352.0220032	0.522483468
350.9336243	0.526390672
350.0006104	0.530130029
349.0674744	0.533726633
347.9786377	0.536415756
347.0452271	0.539338768
345.9561157	0.540559828
345.0224304	0.541962802
343.9330139	0.544704855
342.9990845	0.545798838
342.0650635	0.548016787
340.9751892	0.549654186
340.0408936	0.551114678
338.9507141	0.553118408
338.0161743	0.55634582
336.9256897	0.56131804
335.9909058	0.563513875
335.0559692	0.566476405
333.9650879	0.571364999
333.0299072	0.576221645
331.9387207	0.582244515
331.0032959	0.587139845
330.067749	0.591798127
328.9761353	0.598721027
328.0403442	0.604658127
326.9484558	0.611153841
326.0124207	0.614006102
325.0762634	0.618691266
323.9839478	0.624398351
323.0475464	0.629054189
321.9549561	0.633801162
321.0183411	0.636728227
319.9254456	0.641567171
318.9885559	0.645858944
318.0515747	0.650379121
316.9582825	0.655538082
316.0210571	0.659707665
314.9274902	0.66375804
313.9900513	0.670276523
313.0524597	0.677000701
311.9584961	0.684633553
311.0206909	0.688811779
309.9264526	0.693342984
308.9884338	0.700262606
308.0502625	0.709453762
306.9556274	0.71756196
306.0172729	0.723172188
304.9223633	0.728836417
303.9837341	0.737625182
303.0450439	0.749098301
301.9497375	0.759805381
301.0108032	0.766448081
300.0717468	0.775986314
298.9760742	0.79319346
298.0368042	0.80970943
296.9408569	0.832965374
296.0013733	0.843082964
295.0617676	0.859078229
293.9654541	0.889242053
293.0256348	0.909779728
291.9290771	0.939347208
290.9890137	0.958274782
290.0488892	0.973391533
288.9519348	1.00651443
288.0115967	1.028858066
287.0711365	1.054874659
285.9738159	1.081210613
285.0331421	1.097444892
283.9355774	1.12767899
282.9946899	1.159018278
282.0537109	1.181490541
280.95578	1.207365394
280.0145874	1.221192598
279.0733032	1.253863692
277.9750061	1.28595829
277.0335083	1.31090951
275.934967	1.336704969
274.9932556	1.354961038
274.0514526	1.394075274
272.9525757	1.425506115
272.0105591	1.44581306
271.0684509	1.469563365
269.9692078	1.498324156
269.0269165	1.523480892
267.9274292	1.551091194
266.9849243	1.571087241
266.0423279	1.590690136
264.9425354	1.616800427
263.9997253	1.634287953
263.0568237	1.667465568
261.9566956	1.688818812
261.0135803	1.699278593
260.0704041	1.721706986
258.9699402	1.737517118
258.0265503	1.741901517
256.9258423	1.757600665
255.9822693	1.771637559
255.03862	1.773956895
253.9375763	1.782539487
252.9937286	1.779256463
252.0497894	1.769635439
250.9484253	1.769878983
250.004303	1.752313018
249.0657043	1.744000673
247.9705811	1.717782497
247.0318298	1.70414269
245.9364929	1.681071997
244.9975433	1.637869477
244.0585175	1.603873491
242.9628754	1.570219517
242.0236511	1.54863143
240.9277954	1.51139915
239.9884033	1.47663343
239.0489349	1.430903196
237.952774	1.391633749
237.0131073	1.366021276
236.0733795	1.33161068
234.9769135	1.306786418
234.0370026	1.282538652
232.9403381	1.242593408
232.0002441	1.225729465
231.0600891	1.215214372
229.9631195	1.200879216
229.0227814	1.194709897
227.9256134	1.192872763
226.9851074	1.193076372
226.0445251	1.20413959
224.9470673	1.22592175
224.0063171	1.255102396
223.0654907	1.290594816
221.9677429	1.339630246
221.0267487	1.386339903
219.9288177	1.469711661
218.9876556	1.57415247
218.0464172	1.644052505
216.9482117	1.72076416
216.0068054	1.821516991
215.0653381	1.968219995
213.9668579	2.067749023
213.0252228	2.211890936
211.9265594	2.327002048
210.9847565	2.412210226
210.0428925	2.528690338
208.9439545	2.653862715
208.0019379	2.713059425
207.059845	2.786813498
205.9606323	2.923011065
205.0183868	2.899382591
204.0760651	3.350955725
202.9766083	2.859695435
202.0341339	2.802380323
200.9345093	2.902531862
199.9917755	2.402122021