  7.9362385e-002  9.9341351e+000  2.0974986e+001  9.2611797e+002
  1.5093659e-001  1.6425385e+001  1.9911817e+001  9.6806001e+002
  6.3472801e-001  1.6863811e+001  2.5237607e+001  9.9483180e+002
  3.8661400e-001  4.6925586e+001  1.7430000e+001  1.0401444e+003
  0.0000000e+000  1.3800000e+001  1.9290000e+001  1.0730000e+003
  0.0000000e+000  2.3990000e+001  1.2880000e+001  1.1170000e+003
  0.0000000e+000  2.6060000e+001  1.9810000e+001  1.1220000e+003
  0.0000000e+000  2.3530000e+001  3.5310000e+001  1.1360000e+003
  0.0000000e+000  1.5680000e+001  5.5030000e+001  1.1940000e+003
  0.0000000e+000  2.3950000e+001  2.1510000e+001  1.2620000e+003
  0.0000000e+000  3.4260000e+001  2.6140000e+001  1.2760000e+003
  0.0000000e+000  1.8750000e+001  3.1060000e+001  1.2890000e+003
  2.0876102e-001  1.0000000e+000  1.0000000e+000  1.0000000e+000
