1100.043823	0.119412325
1098.989746	0.134209916
1098.052124	0.102053896
1096.99646	0.103772864
1096.057495	0.116402328
1095.000122	0.102059692
1093.942017	0.102569252
1093.000854	0.105568305
1091.94104	0.105353668
1090.998413	0.113152407
1090.055054	0.11871551
1088.99292	0.09166275
1088.048096	0.09883257
1086.984497	0.115618222
1086.038208	0.136139631
1084.9729	0.114751771
1084.025269	0.102005929
1082.958374	0.102352023
1082.009277	0.099853717
1080.940796	0.112206221
1079.990356	0.110165954
1079.039185	0.108917542
1077.968384	0.121196918
1077.015869	0.112497784
1075.943359	0.105716243
1074.98938	0.123695955
1074.03479	0.116987087
1072.960083	0.120592795
1072.004028	0.103371404
1071.047363	0.118775494
1069.970215	0.115773104
1069.012085	0.113595389
1068.053345	0.105440445
1066.973999	0.108275443
1066.013794	0.115644269
1065.052979	0.12845166
1063.971313	0.116485491
1063.009033	0.115066744
1062.046143	0.111554965
1060.962158	0.127238348
1059.997925	0.116815068
1059.032959	0.127411142
1057.946655	0.121831998
1056.980347	0.115789697
1056.013428	0.114323773
1055.045898	0.120827243
1053.956543	0.124854527
1052.987549	0.122739591
1052.017944	0.121492803
1051.047607	0.118756071
1049.9552	0.121328749
1048.983643	0.118493289
1048.01123	0.121791221
1047.03833	0.120807618
1045.942993	0.122910194
1044.968628	0.116812356
1043.993652	0.125823066
1043.018066	0.117928065
1042.041748	0.125273868
1040.942749	0.123881459
1039.965088	0.126146048
1038.986816	0.119313508
1038.007935	0.124927484
1037.028442	0.125376597
1036.048218	0.124602072
1034.944702	0.124341078
1033.963257	0.128578737
1032.981079	0.127049103
1031.998169	0.127441198
1031.014771	0.128860474
1030.03064	0.128721505
1029.045898	0.131661519
1028.060547	0.128303006
1026.951294	0.131614909
1025.9646	0.134719387
1024.977295	0.132495433
1023.989258	0.138584882
1023.000671	0.137866348
1022.011414	0.142013431
1021.021545	0.1404517
1020.031067	0.143300325
1019.039978	0.144733056
1018.048218	0.147649407
1017.055847	0.147213981
1015.93866	0.150459766
1014.944946	0.15121831
1013.950623	0.151233673
1012.955627	0.152183846
1011.960022	0.15454559
1010.963806	0.155440912
1009.96698	0.155165568
1008.969543	0.156013116
1007.971436	0.15413177
1006.972778	0.152705118
1005.97345	0.158017993
1004.973511	0.153200522
1003.9729	0.151749358
1002.971741	0.150681973
1001.96991	0.151429817
1000.967529	0.15036808
999.9644775	0.148008063
998.9608154	0.145866737
997.956543	0.148555473
996.9516602	0.14858003
995.946167	0.14625825
994.9400635	0.147238433
994.0592041	0.145441636
993.0519409	0.144152924
992.0440674	0.143646509
991.0355835	0.144004285
990.0264893	0.142502815
989.0167847	0.142010987
988.0064697	0.140932709
986.9955444	0.140644297
985.9839478	0.138327032
984.9718018	0.138861045
983.9591064	0.139539242
982.9457397	0.138768137
982.0585327	0.135667861
981.0440063	0.134506404
980.0289307	0.133875847
979.0132446	0.13374424
977.9968872	0.133685529
976.9799805	0.13273555
975.9624634	0.130548373
974.9443359	0.129580468
974.0530396	0.12908113
973.0337524	0.129148528
972.013916	0.125268161
970.9934692	0.125956968
969.9724121	0.124780864
968.9508057	0.123271294
968.0563965	0.121965833
967.0336304	0.121099748
966.0102539	0.120532528
964.9863281	0.118058637
963.961731	0.119716004
962.9365845	0.117045514
962.0391235	0.115481868
961.0128784	0.114989691
959.9860229	0.113843508
958.9585571	0.112096697
958.059082	0.111312896
957.0305176	0.112753302
956.0014038	0.111201122
954.9716797	0.111539498
953.9413452	0.110013887
953.0393066	0.110084362
952.0079346	0.109688528
950.9758911	0.109700464
949.9432983	0.109148458
949.0393066	0.107342459
948.0056152	0.108126596
946.9713135	0.108320154
945.9364624	0.107992172
945.0305176	0.108625606
943.9945679	0.108826801
942.9580078	0.108619422
942.0505371	0.107734032
941.0129395	0.108721092
939.9747314	0.107897349
938.9359131	0.108624876
938.0265503	0.108372472
936.9866333	0.109503523
935.946228	0.10919755
935.0353394	0.109691799
933.9937744	0.109701827
932.9517212	0.109345965
932.0393677	0.110979036
930.9962158	0.109541401
929.9524536	0.109551057
929.0386963	0.107897982
927.9938354	0.108754508
926.9484253	0.106570758
926.0332031	0.106546037
924.9867554	0.106205747
923.9396973	0.104400627
923.0230713	0.105199285
921.9749146	0.104874678
921.057373	0.10465271
920.0081787	0.103742689
918.9584351	0.103576362
918.0394287	0.10276182
916.9886475	0.102421001
915.9372559	0.102302618
915.0168457	0.102412939
913.9644165	0.102732994
913.0430298	0.102954082
911.989563	0.102609538
910.9354858	0.103102349
910.0127563	0.102700494
908.9576416	0.102857888
908.0339355	0.103327073
906.9777832	0.102370605
906.0532227	0.103274956
904.9959717	0.103906214
903.9382324	0.105630361
903.012207	0.104384303
901.9534302	0.106130481
901.0264893	0.107015118
899.9666748	0.108005881
899.0388184	0.10841357
897.9779053	0.109656438
897.0491943	0.110535108
895.9872437	0.111771718
895.0576172	0.112722561
893.9946289	0.113989919
893.0640869	0.115815789
892.0001221	0.117205314
890.9355469	0.118084222
890.0036011	0.119736597
888.9380493	0.120583877
888.005188	0.121902011
886.9385986	0.121795677
886.0048828	0.122224279
884.9372559	0.122568302
884.0026245	0.122178555
882.93396	0.122527592
881.9984741	0.122089841
881.0625	0.120997123
879.9923706	0.120125897
879.055542	0.11942821
877.984375	0.119070247
877.0466309	0.11750935
875.9744873	0.116464131
875.0358887	0.11535646
873.9626465	0.114124395
873.0231934	0.11342901
871.9489746	0.11170844
871.008606	0.112281442
869.9334106	0.110642538
868.9921265	0.110208593
868.0504761	0.109952599
866.9738159	0.108517088
866.03125	0.10838975
864.9535522	0.107620858
864.0101318	0.107527576
863.0663452	0.10672231
861.9871826	0.105358154
861.0424805	0.105764784
859.9623413	0.105027095
859.0167847	0.105452955
857.9356079	0.104996271
856.9891968	0.106464565
856.0423584	0.104632847
854.9597778	0.103975505
854.0120239	0.104780726
853.0639648	0.104305171
851.9799194	0.104346216
851.0309448	0.104967259
849.9459229	0.105633237
848.9960938	0.104021058
848.0458374	0.104752392
846.9593506	0.104965977
846.0083008	0.104666308
845.0567627	0.105378315
843.9688721	0.105962277
843.0165405	0.104971677
842.0637817	0.105410747
840.9744873	0.105804317
840.020874	0.104982652
839.0668945	0.105374217
837.9761353	0.105955504
837.0213013	0.1052045
836.06604	0.105431698
834.973877	0.105212048
834.0177612	0.105185174
833.0613403	0.106213577
831.9677124	0.104982652
831.010376	0.10552308
830.0526733	0.106145747
828.9577026	0.105958119
827.9991455	0.106069997
827.0402222	0.106205218
825.9437866	0.106354632
824.9840088	0.106149614
824.0238647	0.107096933
823.0632935	0.107065298
821.9650879	0.106454544
821.0036621	0.107194759
820.0419312	0.107029066
818.9422607	0.107256889
817.9796753	0.107994527
817.0166626	0.107465573
816.0532837	0.107911386
814.9518433	0.107563488
813.9876099	0.108014047
813.0230713	0.108056471
812.0581055	0.108649075
810.9547729	0.107872196
809.9890137	0.108500935
809.0228271	0.107885599
808.0562744	0.107931331
806.9511719	0.108549491
805.9838257	0.1082488
805.0160522	0.107889451
804.0479126	0.108554073
802.94104	0.108137317
801.9721069	0.108802423
801.0027466	0.108670585
800.0330811	0.10852626
799.0629883	0.107816979
797.9538574	0.108040072
796.9829712	0.107319422
796.0117188	0.107661359
795.0401001	0.107104778
794.0680542	0.107741967
792.9567261	0.10813795
791.9838867	0.107609421
791.0107422	0.108165316
790.0371704	0.10785494
789.0632324	0.107419297
787.949707	0.107852913
786.9749756	0.108166479
785.9998779	0.108543739
785.024353	0.108304374
784.0485229	0.108577341
782.9328003	0.10940031
781.9561768	0.109296851
780.979187	0.109822281
780.00177	0.110013828
779.0240479	0.110190742
778.0458984	0.110303856
777.0674438	0.111129738
775.9487305	0.111132279
774.9694824	0.112017863
773.9898071	0.112165935
773.0098267	0.112881884
772.02948	0.112510763
771.0487061	0.113179348
770.067627	0.113567345
768.9459229	0.114774399
767.9640503	0.114236079
766.9818115	0.115267068
765.9992676	0.115782604
765.0162964	0.116575807
764.032959	0.117682591
763.0492554	0.118151866
762.0652466	0.11864689
760.9401855	0.119313747
759.9553833	0.119246297
758.9702148	0.120942645
757.9846802	0.120943703
756.9987793	0.122938812
756.0125732	0.123529136
755.0259399	0.123979114
754.0390015	0.124799147
753.0516968	0.12535131
752.0640259	0.126119435
750.9348145	0.127206981
749.9464111	0.128782198
748.9575806	0.129080012
747.9684448	0.130316451
746.9789429	0.131011397
745.9891357	0.131685004
744.9989624	0.132487908
744.0083618	0.133372501
743.0175171	0.134397075
742.0262451	0.134419903
741.034668	0.135715202
740.0426636	0.136221558
739.050415	0.136426076
738.0577393	0.137378782
737.0647583	0.137907922
735.9295044	0.138489738
734.93573	0.138790697
733.9416504	0.139187858
732.9472046	0.138881639
731.9524536	0.139088512
730.9572754	0.139069185
729.961853	0.139364764
728.9660034	0.139119327
727.9698486	0.138468906
726.9733276	0.138252467
725.9765015	0.137576297
724.9793091	0.137051433
723.9818115	0.135939434
722.9838867	0.135392711
721.9857178	0.134506017
720.9871216	0.133579552
719.9882202	0.133232385
718.9890137	0.131959051
717.9894409	0.131826967
716.989502	0.131216303
715.9892578	0.130446181
714.9886475	0.129835114
713.9877319	0.129629418
712.9864502	0.129344195
711.9848633	0.128900945
710.9829102	0.129002631
709.9806519	0.128484532
708.9780273	0.128856123
707.9750977	0.12861678
706.9718018	0.128605261
705.9682007	0.128601015
704.9642334	0.128660962
703.9599609	0.128710747
702.9553833	0.128748864
701.9504395	0.129414871
700.9451294	0.129167065
699.9395752	0.129117623
698.9335938	0.129331291
698.071106	0.129745647
697.0645752	0.129919976
696.0576782	0.130074695
695.0504761	0.130417034
694.0429688	0.130587533
693.0350952	0.130947202
692.0269165	0.131543443
691.0183716	0.131636247
690.0095215	0.131860152
689.0003662	0.132651851
687.9908447	0.132781446
686.9810791	0.13375403
685.9708862	0.13432163
684.9604492	0.134367272
683.949646	0.134725422
682.9385376	0.134891838
682.0715942	0.135808662
681.0598755	0.136051104
680.0478516	0.136307254
679.0355225	0.136811867
678.0228271	0.137609854
677.0098267	0.137814552
675.996521	0.138558358
674.9829102	0.138869375
673.9689331	0.138815701
672.9546509	0.140189663
671.9400635	0.140174359
671.0701904	0.141091883
670.0549927	0.141108826
669.0394897	0.141499654
668.0236816	0.142377585
667.0075684	0.143063217
665.9911499	0.143731475
664.9743652	0.143874303
663.9573364	0.14444232
662.9399414	0.145122469
662.067627	0.144719586
661.0496826	0.145520479
660.0313721	0.145849466
659.0128174	0.145863295
657.9938965	0.146193981
656.9747314	0.146271929
655.9552002	0.146434218
654.9353638	0.146323696
654.0609741	0.146060988
653.0405884	0.146296471
652.0198364	0.145993382
650.9988403	0.145575851
649.9775391	0.145253375
648.9558716	0.144778326
647.93396	0.14430584
647.0577393	0.144022927
646.0352173	0.143479705
645.0124512	0.142824158
643.9893188	0.142218888
642.9658813	0.14132838
641.9421997	0.140433535
641.0644531	0.140169218
640.0401611	0.139631376
639.015564	0.138850197
637.9906616	0.138304576
636.9655151	0.137790084
635.9400024	0.137515932
635.060791	0.136935324
634.034729	0.136777178
633.0083618	0.136282951
631.9816895	0.136232019
630.9547729	0.136111021
629.9275513	0.136428624
629.046814	0.13583301
628.0189819	0.136089489
626.9909058	0.13618961
625.9625244	0.136609867
624.9338379	0.137004972
624.0518799	0.13704823
623.022644	0.137234822
621.993103	0.137523577
620.9633179	0.138008922
619.9331665	0.138206482
619.0499878	0.138641954
618.0193481	0.139267519
616.9884033	0.139523
615.9571533	0.139963716
615.072998	0.140278146
614.0411987	0.140855938
613.0091553	0.141535088
611.9768066	0.141852096
610.9441528	0.14253898
610.0587769	0.14317058
609.0255737	0.144075945
607.9921265	0.14467746
606.958374	0.1457389
606.0720825	0.146253839
605.0377808	0.147164792
604.0031738	0.147817746
602.9683228	0.149063543
601.9332275	0.149925202
601.0457153	0.15105857
600.0100098	0.151796103
598.9740601	0.15274404
597.9378662	0.153387725
597.0494385	0.154075444
596.0126343	0.154967681
594.9755859	0.155736923
593.9382935	0.156156689
593.0489502	0.156394482
592.0110474	0.15706186
590.9729614	0.157630876
589.9345703	0.157861665
589.0442505	0.158158436
588.0053711	0.158229157
586.9661255	0.158546612
585.9266968	0.158888459
585.0354614	0.159094364
583.9954834	0.158989236
582.9552002	0.159008712
582.0633545	0.159240529
581.022583	0.159357801
579.9815063	0.159647659
578.9401855	0.160128906
578.0474243	0.159956843
577.0056152	0.160273179
575.963501	0.16050987
575.0700684	0.160663024
574.0274048	0.160672128
572.9845581	0.160860404
571.9414063	0.160829216
571.0470581	0.161190569
570.003418	0.161284521
568.9594727	0.161421478
568.0645142	0.161433607
567.0200806	0.161380872
565.9754028	0.16155687
564.9304199	0.161789075
564.0345459	0.161834389
562.9890747	0.161741167
561.9433594	0.162039936
561.046875	0.161961526
560.0006714	0.161941826
558.9541626	0.162035197
558.0570068	0.161969602
557.0100098	0.161581174
555.9628296	0.161177024
555.0650024	0.161081478
554.0172729	0.160842046
552.9692993	0.160345778
552.0708618	0.160100609
551.0223999	0.159915283
549.9736328	0.159686133
549.0745239	0.159238771
548.0253296	0.159107626
546.9758911	0.158640757
545.9262085	0.158478305
545.0262451	0.158347517
543.9760132	0.158422977
542.9255981	0.158224866
542.0249634	0.158212647
540.9740601	0.15834856
540.0730591	0.158786804
539.0216675	0.158996627
537.9700317	0.159615293
537.0684204	0.159819081
536.0162964	0.160382256
534.9638672	0.161082223
534.0616455	0.161720708
533.0087891	0.162223429
531.9556885	0.163232967
531.0528564	0.163741663
529.9992676	0.164849967
528.9454956	0.165998235
528.0419922	0.166409478
526.9877319	0.16800198
525.9331665	0.169453323
525.0291138	0.170558378
523.9741211	0.172182471
523.0696411	0.1737777
522.0142212	0.175552562
520.9584961	0.177419677
520.0534668	0.17920661
518.9973145	0.180911601
517.940918	0.182926655
517.0352173	0.184125736
515.9783936	0.186189577
515.0723267	0.18788676
514.0150146	0.189294919
512.9574585	0.19038704
512.0507813	0.191231564
510.9927979	0.192381099
509.9345703	0.192980975
509.0273438	0.193308488
507.9686584	0.193301812
507.0610046	0.19310613
506.0018921	0.192659184
504.9425354	0.191879928
504.0343018	0.190931603
502.9745178	0.189774558
502.065918	0.189094514
501.0056763	0.188097104
499.9451904	0.186916202
499.0360107	0.186025113
497.9750977	0.184765756
497.0655212	0.184341967
496.0041809	0.183410123
494.9425964	0.182666838
494.0324707	0.181991562
492.9704285	0.181098178
492.0599365	0.180868343
490.9974976	0.180389538
489.9347839	0.179909647
489.0237427	0.179995209
487.9606018	0.179902956
487.0491943	0.179735914
485.9856567	0.179910317
485.0738525	0.180199072
484.0098877	0.180287466
482.9456787	0.180814207
482.0333252	0.181326017
480.968689	0.182127684
480.0559998	0.182781205
478.9909363	0.183707774
477.9256592	0.184447512
477.0123901	0.185689598
475.9467163	0.186801493
475.0330811	0.18778263
473.96698	0.189037547
473.053009	0.189757004
471.9864807	0.191296503
471.0721436	0.192358285
470.005188	0.193794921
468.9380493	0.19490245
468.0231628	0.195598111
466.9555969	0.196613237
466.0403748	0.197583452
464.9723816	0.198369622
464.0567932	0.198951259
462.9884033	0.199529052
462.0724792	0.199846208
461.0036926	0.200497925
459.9346924	0.200140148
459.018219	0.200487003
457.948822	0.200539157
457.0320129	0.20020546
455.9621887	0.200263947
455.0450439	0.199727163
453.974823	0.199608848
453.0573425	0.199192807
451.9867249	0.198867291
451.0689087	0.198682696
449.9978943	0.198102027
448.9266663	0.197950184
448.0083313	0.197916821
446.9367065	0.19750312
446.0180359	0.197622418
444.9460144	0.197648078
444.0270081	0.197780877
442.9546204	0.197809458
442.0352478	0.197850883
440.9624634	0.198181689
440.0427856	0.198493317
438.9696045	0.198976845
438.0495911	0.199644268
436.9760437	0.200168595
436.0556946	0.200686991
434.9817505	0.201308027
434.0610962	0.201936364
432.9867859	0.202928707
432.0657654	0.203741834
430.9910889	0.204930499
430.0697632	0.205474213
428.9946899	0.20658356
428.0730286	0.207542226
426.9975891	0.209047988
426.0756226	0.209953591
424.9997864	0.211034685
423.9237671	0.212259442
423.0013123	0.213423565
421.9249268	0.214918941
421.0021362	0.21578604
419.9253845	0.217240751
419.0022888	0.218258813
417.9251709	0.21964398
417.0017395	0.221042872
415.9242554	0.222444996
415.0005188	0.223331854
414.0766602	0.22393319
412.9986267	0.224827617
412.0744629	0.225459516
410.9960632	0.225812689
410.0715942	0.225966543
408.9928284	0.226271093
408.0680542	0.226499766
406.9889526	0.226683915
406.0638428	0.226973295
404.984375	0.227190048
404.05896	0.227394685
402.9791565	0.227924541
402.0534363	0.228534684
400.9732666	0.229301676
400.0472717	0.229981899
398.9667358	0.230905667
398.0404358	0.23172012
396.9595642	0.23327744
396.032959	0.234606996
394.9517212	0.236045957
394.0248108	0.237300694
392.9432678	0.239288166
392.0160522	0.240763173
390.9341431	0.24263835
390.0066528	0.244707525
388.924408	0.246681154
387.9966125	0.248731539
387.0686951	0.250788659
385.9859314	0.253141344
385.0577393	0.255324632
383.9746399	0.257950783
383.0461426	0.259690434
381.9627075	0.262577891
381.0339355	0.26440984
379.9501648	0.266987473
379.0210876	0.268326402
377.9370117	0.269732833
377.0076294	0.2709077
375.9232178	0.271411985
374.9935913	0.272402376
374.0638123	0.273174107
372.9789124	0.274201065
372.0488586	0.274667352
370.963623	0.275501996
370.0332947	0.276596129
368.9477539	0.277479678
368.0171204	0.278834254
366.9312439	0.279740095
366.0003662	0.281532377
365.0693359	0.283392847
363.9830017	0.285757333
363.0517273	0.287346453
361.9650574	0.289220899
361.0335083	0.290837735
359.9465027	0.293421775
359.014679	0.296294898
357.9273987	0.2989811
356.9953003	0.3014341
356.0630493	0.303550869
354.9753113	0.306367576
354.0428162	0.308595449
352.9547424	0.311438263
352.0220032	0.313797593
350.9336243	0.315632433
350.0006104	0.317279488
349.0674744	0.31940347
347.9786377	0.32164973
347.0452271	0.323129594
345.9561157	0.324483037
345.0224304	0.325296581
343.9330139	0.326988876
342.9990845	0.329072475
342.0650635	0.330242544
340.9751892	0.331733346
340.0408936	0.332992107
338.9507141	0.335078389
338.0161743	0.336910337
336.9256897	0.339237481
335.9909058	0.341079384
335.0559692	0.34320724
333.9650879	0.346197009
333.0299072	0.348791987
331.9387207	0.35272795
331.0032959	0.354748994
330.067749	0.357899755
328.9761353	0.361248285
328.0403442	0.364735961
326.9484558	0.36788711
326.0124207	0.369380832
325.0762634	0.372004032
323.9839478	0.375285268
323.0475464	0.377997696
321.9549561	0.380797476
321.0183411	0.382326037
319.9254456	0.384638667
318.9885559	0.387252867
318.0515747	0.390074015
316.9582825	0.392523646
316.0210571	0.395186365
314.9274902	0.397583783
313.9900513	0.401119024
313.0524597	0.40399009
311.9584961	0.4074426
311.0206909	0.409202725
309.9264526	0.411870122
308.9884338	0.414291054
308.0502625	0.416805893
306.9556274	0.419625312
306.0172729	0.421987236
304.9223633	0.424078047
303.9837341	0.427418679
303.0450439	0.430522591
301.9497375	0.433852285
301.0108032	0.437074274
300.0717468	0.440637201
298.9760742	0.447784931
298.0368042	0.454088211
296.9408569	0.464432329
296.0013733	0.473258227
295.0617676	0.481157154
293.9654541	0.497144371
293.0256348	0.510484994
291.9290771	0.53420943
290.9890137	0.54913044
290.0488892	0.56641072
288.9519348	0.592168152
288.0115967	0.619048476
287.0711365	0.643465877
285.9738159	0.67136699
285.0331421	0.692741334
283.9355774	0.732031226
282.9946899	0.764028609
282.0537109	0.792581379
280.95578	0.830957949
280.0145874	0.856898725
279.0733032	0.89838922
277.9750061	0.939739764
277.0335083	0.976828337
275.934967	1.015378594
274.9932556	1.045040011
274.0514526	1.090844154
272.9525757	1.140908003
272.0105591	1.171083927
271.0684509	1.195568442
269.9692078	1.236427665
269.0269165	1.268298864
267.9274292	1.296772003
266.9849243	1.316248298
266.0423279	1.330630898
264.9425354	1.35001266
263.9997253	1.363375545
263.0568237	1.375594497
261.9566956	1.386166811
261.0135803	1.391072392
260.0704041	1.393659234
258.9699402	1.392650962
258.0265503	1.385926485
256.9258423	1.372345567
255.9822693	1.357256413
255.03862	1.335380673
253.9375763	1.305375814
252.9937286	1.282304645
252.0497894	1.258451462
250.9484253	1.227716446
250.004303	1.196894765
249.0657043	1.165967941
247.9705811	1.129545689
247.0318298	1.104008079
245.9364929	1.065716982
244.9975433	1.027872801
244.0585175	0.991120577
242.9628754	0.962691188
242.0236511	0.939615309
240.9277954	0.913918912
239.9884033	0.889010787
239.0489349	0.866169691
237.952774	0.841174841
237.0131073	0.827607513
236.0733795	0.814189494
234.9769135	0.802468002
234.0370026	0.79534179
232.9403381	0.790776789
232.0002441	0.792343915
231.0600891	0.796454489
229.9631195	0.807449102
229.0227814	0.818576813
227.9256134	0.844190896
226.9851074	0.867925882
226.0445251	0.899280071
224.9470673	0.943493128
224.0063171	0.992787063
223.0654907	1.044456124
221.9677429	1.119637609
221.0267487	1.191405416
219.9288177	1.291480184
218.9876556	1.392960787
218.0464172	1.492687941
216.9482117	1.617955685
216.0068054	1.73521328
215.0653381	1.86311698
213.9668579	2.017213821
213.0252228	2.111876965
211.9265594	2.248108387
210.9847565	2.353086472
210.0428925	2.466019869
208.9439545	2.582922935
208.0019379	2.641319513
207.059845	2.759545326
205.9606323	2.838554144
205.0183868	2.86152792
204.0760651	2.921879292
202.9766083	2.846174002
202.0341339	2.651648045
200.9345093	2.786543846
199.9917755	2.545195103