  1.4058671e-001  1.4130671e+001  2.2259382e+001  9.2764912e+002
  3.2336210e-001  1.8522068e+001  1.6036328e+001  9.7192117e+002
  9.4103561e-001  1.1305917e+001  2.2521736e+001  9.9074317e+002
  1.7125786e-001  4.4854588e+001  1.7430000e+001  1.0427201e+003
  0.0000000e+000  1.3800000e+001  1.9290000e+001  1.0730000e+003
  0.0000000e+000  2.3990000e+001  1.2880000e+001  1.1170000e+003
  0.0000000e+000  2.6060000e+001  1.9810000e+001  1.1220000e+003
  0.0000000e+000  2.3530000e+001  3.5310000e+001  1.1360000e+003
  0.0000000e+000  1.5680000e+001  5.5030000e+001  1.1940000e+003
  0.0000000e+000  2.3950000e+001  2.1510000e+001  1.2620000e+003
  0.0000000e+000  3.4260000e+001  2.6140000e+001  1.2760000e+003
  0.0000000e+000  1.8750000e+001  3.1060000e+001  1.2890000e+003
  2.3532657e-001  1.0000000e+000  1.0000000e+000  1.0000000e+000
