  4.3067179e-002  1.3960130e+001  2.3582968e+001  9.2981546e+002
  2.3882322e-002  1.4558052e+001  2.0072548e+001  9.7436768e+002
  2.7700683e-001  2.7781547e+001  3.5359263e+001  1.0046804e+003
  1.0094867e-001  5.4050824e+001  1.7430000e+001  1.0144445e+003
  0.0000000e+000  1.3800000e+001  1.9290000e+001  1.0730000e+003
  0.0000000e+000  2.3990000e+001  1.2880000e+001  1.1170000e+003
  0.0000000e+000  2.6060000e+001  1.9810000e+001  1.1220000e+003
  0.0000000e+000  2.3530000e+001  3.5310000e+001  1.1360000e+003
  0.0000000e+000  1.5680000e+001  5.5030000e+001  1.1940000e+003
  0.0000000e+000  2.3950000e+001  2.1510000e+001  1.2620000e+003
  0.0000000e+000  3.4260000e+001  2.6140000e+001  1.2760000e+003
  0.0000000e+000  1.8750000e+001  3.1060000e+001  1.2890000e+003
  9.5874490e-002  1.0000000e+000  1.0000000e+000  1.0000000e+000
