1100.043823	0.129804179
1098.989746	0.132442966
1098.052124	0.113059439
1096.99646	0.12885268
1096.057495	0.148973018
1095.000122	0.130861893
1093.942017	0.110983148
1093.000854	0.119786635
1091.94104	0.118919119
1090.998413	0.138545781
1090.055054	0.137375653
1088.99292	0.117358118
1088.048096	0.116300508
1086.984497	0.117779411
1086.038208	0.138982266
1084.9729	0.136450201
1084.025269	0.126077905
1082.958374	0.127872989
1082.009277	0.126625985
1080.940796	0.124610215
1079.990356	0.124895357
1079.039185	0.111969151
1077.968384	0.135331795
1077.015869	0.120691598
1075.943359	0.118938215
1074.98938	0.133264616
1074.03479	0.127063081
1072.960083	0.135777861
1072.004028	0.108019128
1071.047363	0.138485417
1069.970215	0.132685125
1069.012085	0.131340519
1068.053345	0.119479328
1066.973999	0.119699664
1066.013794	0.127923921
1065.052979	0.123175621
1063.971313	0.12644431
1063.009033	0.129094973
1062.046143	0.122605234
1060.962158	0.134500399
1059.997925	0.139242262
1059.032959	0.135453239
1057.946655	0.138859049
1056.980347	0.136360765
1056.013428	0.13334702
1055.045898	0.133703068
1053.956543	0.136315554
1052.987549	0.133415401
1052.017944	0.135647699
1051.047607	0.131607086
1049.9552	0.133182719
1048.983643	0.137588024
1048.01123	0.133280873
1047.03833	0.139650345
1045.942993	0.136807069
1044.968628	0.132568762
1043.993652	0.139371514
1043.018066	0.136097416
1042.041748	0.138392001
1040.942749	0.1407765
1039.965088	0.138728768
1038.986816	0.139920235
1038.007935	0.139573053
1037.028442	0.144646764
1036.048218	0.141817823
1034.944702	0.140726388
1033.963257	0.136547759
1032.981079	0.141566709
1031.998169	0.140765011
1031.014771	0.143114567
1030.03064	0.143738911
1029.045898	0.14173235
1028.060547	0.143803209
1026.951294	0.146974012
1025.9646	0.151246548
1024.977295	0.149210632
1023.989258	0.153254747
1023.000671	0.153090999
1022.011414	0.153720886
1021.021545	0.154371917
1020.031067	0.157785311
1019.039978	0.159670547
1018.048218	0.160871401
1017.055847	0.162949354
1015.93866	0.16527766
1014.944946	0.16987823
1013.950623	0.165227935
1012.955627	0.16852963
1011.960022	0.169507667
1010.963806	0.17189765
1009.96698	0.169261828
1008.969543	0.169737354
1007.971436	0.171006233
1006.972778	0.167621866
1005.97345	0.169140145
1004.973511	0.168328077
1003.9729	0.167920083
1002.971741	0.168535397
1001.96991	0.166168302
1000.967529	0.166792616
999.9644775	0.164836124
998.9608154	0.162130535
997.956543	0.16215457
996.9516602	0.163258329
995.946167	0.160602585
994.9400635	0.162099332
994.0592041	0.159231082
993.0519409	0.158600658
992.0440674	0.157035723
991.0355835	0.157403082
990.0264893	0.155719847
989.0167847	0.154272467
988.0064697	0.152484819
986.9955444	0.15398103
985.9839478	0.152521849
984.9718018	0.14996393
983.9591064	0.151854739
982.9457397	0.15161629
982.0585327	0.147361144
981.0440063	0.147417009
980.0289307	0.145700231
979.0132446	0.146231428
977.9968872	0.145372376
976.9799805	0.145494536
975.9624634	0.142403573
974.9443359	0.141047001
974.0530396	0.140720561
973.0337524	0.139749855
972.013916	0.138473213
970.9934692	0.137307823
969.9724121	0.136710674
968.9508057	0.134520412
968.0563965	0.133960947
967.0336304	0.133306339
966.0102539	0.131316006
964.9863281	0.12944904
963.961731	0.129683122
962.9365845	0.127613425
962.0391235	0.128134549
961.0128784	0.126025543
959.9860229	0.126090944
958.9585571	0.123995751
958.059082	0.122712739
957.0305176	0.122890472
956.0014038	0.123367094
954.9716797	0.122783721
953.9413452	0.121586874
953.0393066	0.121344522
952.0079346	0.120564126
950.9758911	0.120073915
949.9432983	0.120699525
949.0393066	0.120166756
948.0056152	0.120649353
946.9713135	0.119288877
945.9364624	0.119232908
945.0305176	0.119942226
943.9945679	0.119133592
942.9580078	0.119225755
942.0505371	0.119154975
941.0129395	0.119556539
939.9747314	0.119572386
938.9359131	0.119939394
938.0265503	0.119828656
936.9866333	0.120596416
935.946228	0.120373473
935.0353394	0.120356672
933.9937744	0.120568879
932.9517212	0.119993851
932.0393677	0.120173484
930.9962158	0.120077975
929.9524536	0.120690264
929.0386963	0.119043686
927.9938354	0.119078726
926.9484253	0.11784032
926.0332031	0.118305683
924.9867554	0.117818415
923.9396973	0.116244748
923.0230713	0.116618402
921.9749146	0.115781009
921.057373	0.115610145
920.0081787	0.11555671
918.9584351	0.115277968
918.0394287	0.114145905
916.9886475	0.114444576
915.9372559	0.113886245
915.0168457	0.113998339
913.9644165	0.113736033
913.0430298	0.113810845
911.989563	0.114584312
910.9354858	0.115090802
910.0127563	0.115152583
908.9576416	0.114194557
908.0339355	0.11506442
906.9777832	0.114985816
906.0532227	0.115516886
904.9959717	0.115480483
903.9382324	0.116442435
903.012207	0.117028162
901.9534302	0.117779881
901.0264893	0.118572466
899.9666748	0.120181538
899.0388184	0.120195642
897.9779053	0.120949514
897.0491943	0.122629888
895.9872437	0.123975292
895.0576172	0.125012428
893.9946289	0.125772893
893.0640869	0.127833754
892.0001221	0.129842654
890.9355469	0.13083145
890.0036011	0.132541373
888.9380493	0.133529827
888.005188	0.133793846
886.9385986	0.134779334
886.0048828	0.135188893
884.9372559	0.134785757
884.0026245	0.135365173
882.93396	0.13478449
881.9984741	0.13451688
881.0625	0.133131966
879.9923706	0.132295042
879.055542	0.132797465
877.984375	0.130964384
877.0466309	0.130157858
875.9744873	0.129210189
875.0358887	0.127474979
873.9626465	0.125607178
873.0231934	0.12497142
871.9489746	0.124461316
871.008606	0.124565177
869.9334106	0.122398585
868.9921265	0.122238889
868.0504761	0.12142285
866.9738159	0.11988467
866.03125	0.120791651
864.9535522	0.11979837
864.0101318	0.119364925
863.0663452	0.11811313
861.9871826	0.117584914
861.0424805	0.117969811
859.9623413	0.116474859
859.0167847	0.116557054
857.9356079	0.11568062
856.9891968	0.11635644
856.0423584	0.116355389
854.9597778	0.115952589
854.0120239	0.116386086
853.0639648	0.116502173
851.9799194	0.115491897
851.0309448	0.116354272
849.9459229	0.116409436
848.9960938	0.116374612
848.0458374	0.115966886
846.9593506	0.116546489
846.0083008	0.116468228
845.0567627	0.116888449
843.9688721	0.116979666
843.0165405	0.116993286
842.0637817	0.116198883
840.9744873	0.117446519
840.020874	0.11623849
839.0668945	0.11716985
837.9761353	0.117244072
837.0213013	0.117452182
836.06604	0.1178011
834.973877	0.117147408
834.0177612	0.116885126
833.0613403	0.117565848
831.9677124	0.11769753
831.010376	0.117154256
830.0526733	0.117731303
828.9577026	0.117663413
827.9991455	0.117680691
827.0402222	0.11812482
825.9437866	0.118400432
824.9840088	0.118435212
824.0238647	0.118674174
823.0632935	0.118470103
821.9650879	0.118243963
821.0036621	0.11874783
820.0419312	0.119403839
818.9422607	0.118835934
817.9796753	0.119973615
817.0166626	0.119240776
816.0532837	0.119771287
814.9518433	0.120143816
813.9876099	0.120133475
813.0230713	0.119432636
812.0581055	0.120397933
810.9547729	0.120277785
809.9890137	0.120177716
809.0228271	0.119429469
808.0562744	0.120193765
806.9511719	0.119818009
805.9838257	0.119810134
805.0160522	0.12018837
804.0479126	0.120763928
802.94104	0.119643129
801.9721069	0.119801402
801.0027466	0.119632013
800.0330811	0.119725138
799.0629883	0.119348675
797.9538574	0.120015115
796.9829712	0.119155489
796.0117188	0.119049788
795.0401001	0.118396759
794.0680542	0.118879497
792.9567261	0.118743919
791.9838867	0.118627667
791.0107422	0.119289152
790.0371704	0.119495489
789.0632324	0.118287638
787.949707	0.118870348
786.9749756	0.119693324
785.9998779	0.119929873
785.024353	0.120369241
784.0485229	0.119937107
782.9328003	0.120895319
781.9561768	0.12010815
780.979187	0.121675454
780.00177	0.121684186
779.0240479	0.121956475
778.0458984	0.12216045
777.0674438	0.123171464
775.9487305	0.123194598
774.9694824	0.123156168
773.9898071	0.123837389
773.0098267	0.12453524
772.02948	0.12440981
771.0487061	0.125063047
770.067627	0.125108138
768.9459229	0.126011878
767.9640503	0.126392543
766.9818115	0.127545223
765.9992676	0.1276263
765.0162964	0.128604889
764.032959	0.129566863
763.0492554	0.129909709
762.0652466	0.130861968
760.9401855	0.131156951
759.9553833	0.132132188
758.9702148	0.133286282
757.9846802	0.133768618
756.9987793	0.134868532
756.0125732	0.13540335
755.0259399	0.136081949
754.0390015	0.13655591
753.0516968	0.138043389
752.0640259	0.138072282
750.9348145	0.139762998
749.9464111	0.140366972
748.9575806	0.141596332
747.9684448	0.142568126
746.9789429	0.143706426
745.9891357	0.143851981
744.9989624	0.145385981
744.0083618	0.145520806
743.0175171	0.146657124
742.0262451	0.146950692
741.034668	0.148226947
740.0426636	0.149197534
739.050415	0.149332598
738.0577393	0.1503959
737.0647583	0.151031017
735.9295044	0.151044861
734.93573	0.151855797
733.9416504	0.152034491
732.9472046	0.152507722
731.9524536	0.15259622
730.9572754	0.152408704
729.961853	0.152614057
728.9660034	0.152185202
727.9698486	0.151949301
726.9733276	0.151665926
725.9765015	0.150647432
724.9793091	0.150057599
723.9818115	0.149153486
722.9838867	0.14850384
721.9857178	0.147402838
720.9871216	0.146467328
719.9882202	0.145942226
718.9890137	0.144994453
717.9894409	0.144408494
716.989502	0.143516511
715.9892578	0.142886818
714.9886475	0.142333254
713.9877319	0.141916007
712.9864502	0.141603187
711.9848633	0.141251147
710.9829102	0.141488969
709.9806519	0.140936077
708.9780273	0.14099814
707.9750977	0.14054887
706.9718018	0.140587643
705.9682007	0.140486583
704.9642334	0.140747875
703.9599609	0.140510008
702.9553833	0.140951261
701.9504395	0.141094104
700.9451294	0.140915811
699.9395752	0.14102608
698.9335938	0.141396761
698.071106	0.141605094
697.0645752	0.14190571
696.0576782	0.142242983
695.0504761	0.142579302
694.0429688	0.142772332
693.0350952	0.142852426
692.0269165	0.143240631
691.0183716	0.143760055
690.0095215	0.144245684
689.0003662	0.144852758
687.9908447	0.145125285
686.9810791	0.146335155
685.9708862	0.146175578
684.9604492	0.146461353
683.949646	0.14714253
682.9385376	0.147374302
682.0715942	0.147811785
681.0598755	0.148566261
680.0478516	0.148550406
679.0355225	0.149238303
678.0228271	0.149684712
677.0098267	0.150224432
675.996521	0.151031703
674.9829102	0.151589617
673.9689331	0.151649505
672.9546509	0.152349398
671.9400635	0.153412342
671.0701904	0.153735817
670.0549927	0.15427202
669.0394897	0.154487431
668.0236816	0.155286878
667.0075684	0.156180799
665.9911499	0.156701282
664.9743652	0.1569179
663.9573364	0.157542288
662.9399414	0.158236012
662.067627	0.158201098
661.0496826	0.158808038
660.0313721	0.159004837
659.0128174	0.159011558
657.9938965	0.159583703
656.9747314	0.15955469
655.9552002	0.159906343
654.9353638	0.159642726
654.0609741	0.159373194
653.0405884	0.159385711
652.0198364	0.159257188
650.9988403	0.158812106
649.9775391	0.158313602
648.9558716	0.157699913
647.93396	0.156753987
647.0577393	0.156655505
646.0352173	0.156285703
645.0124512	0.1553009
643.9893188	0.155264705
642.9658813	0.154044613
641.9421997	0.153184831
641.0644531	0.153084219
640.0401611	0.152141333
639.015564	0.151549757
637.9906616	0.150804818
636.9655151	0.150161877
635.9400024	0.149913073
635.060791	0.14934209
634.034729	0.149011225
633.0083618	0.148899853
631.9816895	0.148571506
630.9547729	0.148467392
629.9275513	0.148562685
629.046814	0.148317128
628.0189819	0.148322985
626.9909058	0.148667544
625.9625244	0.148807734
624.9338379	0.149279222
624.0518799	0.149453059
623.022644	0.149687201
621.993103	0.149783388
620.9633179	0.15044494
619.9331665	0.150655091
619.0499878	0.151148096
618.0193481	0.151282743
616.9884033	0.151750013
615.9571533	0.15243201
615.072998	0.152774259
614.0411987	0.153490737
613.0091553	0.15376924
611.9768066	0.154808745
610.9441528	0.155103967
610.0587769	0.156106293
609.0255737	0.156852305
607.9921265	0.157698914
606.958374	0.158345401
606.0720825	0.159462571
605.0377808	0.16028437
604.0031738	0.161011562
602.9683228	0.162189722
601.9332275	0.163031295
601.0457153	0.164199889
600.0100098	0.16551587
598.9740601	0.166031137
597.9378662	0.166976675
597.0494385	0.167457998
596.0126343	0.168378815
594.9755859	0.169205025
593.9382935	0.169703722
593.0489502	0.170132995
592.0110474	0.170634985
590.9729614	0.171378464
589.9345703	0.171477452
589.0442505	0.172202632
588.0053711	0.17194961
586.9661255	0.172122821
585.9266968	0.172639355
585.0354614	0.17254892
583.9954834	0.172824189
582.9552002	0.172540173
582.0633545	0.172986895
581.022583	0.172951922
579.9815063	0.173342913
578.9401855	0.173506275
578.0474243	0.173690885
577.0056152	0.1737784
575.963501	0.174063802
575.0700684	0.174234763
574.0274048	0.174160078
572.9845581	0.174490839
571.9414063	0.174464494
571.0470581	0.174646229
570.003418	0.174756154
568.9594727	0.174925417
568.0645142	0.174922869
567.0200806	0.174733192
565.9754028	0.175076902
564.9304199	0.175116226
564.0345459	0.175218776
562.9890747	0.175212085
561.9433594	0.175371841
561.046875	0.175385058
560.0006714	0.175214678
558.9541626	0.175220519
558.0570068	0.175041065
557.0100098	0.174702108
555.9628296	0.174410105
555.0650024	0.174036622
554.0172729	0.173739046
552.9692993	0.173633859
552.0708618	0.173097551
551.0223999	0.172992095
549.9736328	0.172564209
549.0745239	0.172274143
548.0253296	0.172158495
546.9758911	0.171842158
545.9262085	0.171761692
545.0262451	0.171702802
543.9760132	0.171741039
542.9255981	0.17158927
542.0249634	0.171741575
540.9740601	0.171985254
540.0730591	0.172373414
539.0216675	0.172670141
537.9700317	0.173319832
537.0684204	0.173644438
536.0162964	0.174127176
534.9638672	0.174812049
534.0616455	0.175544068
533.0087891	0.176236764
531.9556885	0.177176476
531.0528564	0.177838564
529.9992676	0.178792805
528.9454956	0.180206671
528.0419922	0.180726126
526.9877319	0.182255074
525.9331665	0.183858365
525.0291138	0.18507956
523.9741211	0.186712071
523.0696411	0.188534066
522.0142212	0.190350041
520.9584961	0.192026854
520.0534668	0.193680033
518.9973145	0.195716187
517.940918	0.197436199
517.0352173	0.199057519
515.9783936	0.201172501
515.0723267	0.202711508
514.0150146	0.204145417
512.9574585	0.205432713
512.0507813	0.20627214
510.9927979	0.207309559
509.9345703	0.208083957
509.0273438	0.208336815
507.9686584	0.208304495
507.0610046	0.208297715
506.0018921	0.207650974
504.9425354	0.207046822
504.0343018	0.205984741
502.9745178	0.204958126
502.065918	0.204587132
501.0056763	0.203255877
499.9451904	0.202251598
499.0360107	0.201247916
497.9750977	0.200117588
497.0655212	0.199612498
496.0041809	0.198759556
494.9425964	0.198053628
494.0324707	0.197282985
492.9704285	0.196464807
492.0599365	0.19630824
490.9974976	0.195997566
489.9347839	0.195509583
489.0237427	0.195523679
487.9606018	0.195446283
487.0491943	0.19539547
485.9856567	0.195581868
485.0738525	0.195812926
484.0098877	0.196042001
482.9456787	0.196630329
482.0333252	0.197109014
480.968689	0.198122621
480.0559998	0.198765978
478.9909363	0.199611068
477.9256592	0.200387076
477.0123901	0.201590166
475.9467163	0.203075409
475.0330811	0.204244047
473.96698	0.20543769
473.053009	0.206216157
471.9864807	0.208177
471.0721436	0.209284186
470.005188	0.210825384
468.9380493	0.21192129
468.0231628	0.21299766
466.9555969	0.214034796
466.0403748	0.215563119
464.9723816	0.216578141
464.0567932	0.217403978
462.9884033	0.218240589
462.0724792	0.218711108
461.0036926	0.21949476
459.9346924	0.219473556
459.018219	0.220056042
457.948822	0.219912648
457.0320129	0.219708026
455.9621887	0.219523892
455.0450439	0.21894148
453.974823	0.218819067
453.0573425	0.21819593
451.9867249	0.21790643
451.0689087	0.217516094
449.9978943	0.216947034
448.9266663	0.216608748
448.0083313	0.216608971
446.9367065	0.216132492
446.0180359	0.216212943
444.9460144	0.216241166
444.0270081	0.216299951
442.9546204	0.216444373
442.0352478	0.216405466
440.9624634	0.216645107
440.0427856	0.216946304
438.9696045	0.217392623
438.0495911	0.217914254
436.9760437	0.218771547
436.0556946	0.219199285
434.9817505	0.220015302
434.0610962	0.220550939
432.9867859	0.221640185
432.0657654	0.222583517
430.9910889	0.223657951
430.0697632	0.224425286
428.9946899	0.225621909
428.0730286	0.226608872
426.9975891	0.228085607
426.0756226	0.229256079
424.9997864	0.230446175
423.9237671	0.231848523
423.0013123	0.233033359
421.9249268	0.234769017
421.0021362	0.235868141
419.9253845	0.23731406
419.0022888	0.238434613
417.9251709	0.239969909
417.0017395	0.24134095
415.9242554	0.242699772
415.0005188	0.243723244
414.0766602	0.244470984
412.9986267	0.245157823
412.0744629	0.245862305
410.9960632	0.246372595
410.0715942	0.246580854
408.9928284	0.246979371
408.0680542	0.247191086
406.9889526	0.247424126
406.0638428	0.247777894
404.984375	0.248145029
404.05896	0.248370692
402.9791565	0.24905768
402.0534363	0.249572426
400.9732666	0.250321239
400.0472717	0.251124829
398.9667358	0.252267897
398.0404358	0.253212959
396.9595642	0.254699409
396.032959	0.256155938
394.9517212	0.257838368
394.0248108	0.259620488
392.9432678	0.261732101
392.0160522	0.26297763
390.9341431	0.265120447
390.0066528	0.267098188
388.924408	0.269897133
387.9966125	0.271621138
387.0686951	0.273767233
385.9859314	0.276370108
385.0577393	0.278601736
383.9746399	0.281338215
383.0461426	0.283221543
381.9627075	0.286326081
381.0339355	0.28799966
379.9501648	0.29090634
379.0210876	0.29240495
377.9370117	0.294132054
377.0076294	0.294953734
375.9232178	0.295959801
374.9935913	0.296731859
374.0638123	0.297935516
372.9789124	0.298796654
372.0488586	0.299568594
370.963623	0.3009184
370.0332947	0.30187121
368.9477539	0.302806556
368.0171204	0.304290623
366.9312439	0.305697441
366.0003662	0.307189137
365.0693359	0.308839113
363.9830017	0.31091851
363.0517273	0.313441873
361.9650574	0.315606237
361.0335083	0.31776619
359.9465027	0.320503831
359.014679	0.32348749
357.9273987	0.325952619
356.9953003	0.328598142
356.0630493	0.330266684
354.9753113	0.333248437
354.0428162	0.335650563
352.9547424	0.338778883
352.0220032	0.341258943
350.9336243	0.343638361
350.0006104	0.345636636
349.0674744	0.347795874
347.9786377	0.350065112
347.0452271	0.351894498
345.9561157	0.35354054
345.0224304	0.354653835
343.9330139	0.356652945
342.9990845	0.358200491
342.0650635	0.359631687
340.9751892	0.361241758
340.0408936	0.362693191
338.9507141	0.364826828
338.0161743	0.366942614
336.9256897	0.369296253
335.9909058	0.371579081
335.0559692	0.373603612
333.9650879	0.376802027
333.0299072	0.380126208
331.9387207	0.383862823
331.0032959	0.386574715
330.067749	0.389436632
328.9761353	0.39366129
328.0403442	0.396740824
326.9484558	0.40011248
326.0124207	0.402474999
325.0762634	0.405022442
323.9839478	0.408352375
323.0475464	0.411203444
321.9549561	0.414014339
321.0183411	0.416080177
319.9254456	0.418452114
318.9885559	0.420963705
318.0515747	0.424025148
316.9582825	0.427299619
316.0210571	0.430106282
314.9274902	0.432337314
313.9900513	0.436624736
313.0524597	0.439318687
311.9584961	0.442366183
311.0206909	0.444877148
309.9264526	0.448073775
308.9884338	0.451590061
308.0502625	0.454524785
306.9556274	0.457595706
306.0172729	0.459528089
304.9223633	0.462025136
303.9837341	0.464633972
303.0450439	0.468505025
301.9497375	0.472373784
301.0108032	0.47653544
300.0717468	0.480886638
298.9760742	0.488971889
298.0368042	0.49624306
296.9408569	0.504885912
296.0013733	0.514789045
295.0617676	0.523289084
293.9654541	0.540761113
293.0256348	0.556506634
291.9290771	0.575426936
290.9890137	0.588953495
290.0488892	0.60300678
288.9519348	0.632869542
288.0115967	0.659133315
287.0711365	0.683900476
285.9738159	0.710980058
285.0331421	0.733763993
283.9355774	0.769614756
282.9946899	0.800669432
282.0537109	0.827521801
280.95578	0.863426864
280.0145874	0.894991577
279.0733032	0.932195187
277.9750061	0.978654981
277.0335083	1.012950182
275.934967	1.051688194
274.9932556	1.085686088
274.0514526	1.126785874
272.9525757	1.171359539
272.0105591	1.201535702
271.0684509	1.224514127
269.9692078	1.263555288
269.0269165	1.29551053
267.9274292	1.326316714
266.9849243	1.34501636
266.0423279	1.359087944
264.9425354	1.379912734
263.9997253	1.394257307
263.0568237	1.403145313
261.9566956	1.414634347
261.0135803	1.420525193
260.0704041	1.422305703
258.9699402	1.422878027
258.0265503	1.414023995
256.9258423	1.403176665
255.9822693	1.390999556
255.03862	1.372379661
253.9375763	1.340704203
252.9937286	1.317106128
252.0497894	1.294595003
250.9484253	1.265283823
250.004303	1.23069787
249.0657043	1.203974962
247.9705811	1.162650466
247.0318298	1.140708923
245.9364929	1.108741999
244.9975433	1.06839025
244.0585175	1.037236929
242.9628754	1.008105755
242.0236511	0.9856776
240.9277954	0.957475722
239.9884033	0.932087779
239.0489349	0.911277533
237.952774	0.888418555
237.0131073	0.873402894
236.0733795	0.862207294
234.9769135	0.850924313
234.0370026	0.843272805
232.9403381	0.838735879
232.0002441	0.839638531
231.0600891	0.844711065
229.9631195	0.855328918
229.0227814	0.866445243
227.9256134	0.888845086
226.9851074	0.913654447
226.0445251	0.943119407
224.9470673	0.990125179
224.0063171	1.029825926
223.0654907	1.085928798
221.9677429	1.157566428
221.0267487	1.220218658
219.9288177	1.314142108
218.9876556	1.410179257
218.0464172	1.502866626
216.9482117	1.615710616
216.0068054	1.719932318
215.0653381	1.850326061
213.9668579	1.977932692
213.0252228	2.08326745
211.9265594	2.22939229
210.9847565	2.320657969
210.0428925	2.452000618
208.9439545	2.536342621
208.0019379	2.605895281
207.059845	2.68419385
205.9606323	2.793204308
205.0183868	2.753889799
204.0760651	2.863731384
202.9766083	2.747589588
202.0341339	2.765172958
200.9345093	2.685929298
199.9917755	2.373782873