  1.1921235e-001  1.2540934e+001  2.1349658e+001  9.3071589e+002
  2.2551531e-001  1.4457098e+001  1.8687225e+001  9.6978282e+002
  6.4302364e-001  1.2489887e+001  1.8167741e+001  9.9465623e+002
  2.5023234e-001  4.5620291e+001  1.7430000e+001  1.0413643e+003
  0.0000000e+000  1.3800000e+001  1.9290000e+001  1.0730000e+003
  0.0000000e+000  2.3990000e+001  1.2880000e+001  1.1170000e+003
  0.0000000e+000  2.6060000e+001  1.9810000e+001  1.1220000e+003
  0.0000000e+000  2.3530000e+001  3.5310000e+001  1.1360000e+003
  0.0000000e+000  1.5680000e+001  5.5030000e+001  1.1940000e+003
  0.0000000e+000  2.3950000e+001  2.1510000e+001  1.2620000e+003
  0.0000000e+000  3.4260000e+001  2.6140000e+001  1.2760000e+003
  0.0000000e+000  1.8750000e+001  3.1060000e+001  1.2890000e+003
  3.4141192e-002  1.0000000e+000  1.0000000e+000  1.0000000e+000
