1100.043823	0.235395134
1098.989746	0.295266897
1098.052124	0.250120163
1096.99646	0.27399987
1096.057495	0.268565923
1095.000122	0.295032501
1093.942017	0.270024836
1093.000854	0.286340803
1091.94104	0.297246307
1090.998413	0.275685966
1090.055054	0.290324122
1088.99292	0.272579491
1088.048096	0.28426826
1086.984497	0.293998659
1086.038208	0.292047203
1084.9729	0.285478145
1084.025269	0.296824604
1082.958374	0.290877104
1082.009277	0.282865077
1080.940796	0.297774494
1079.990356	0.287895382
1079.039185	0.29261446
1077.968384	0.298355848
1077.015869	0.287490219
1075.943359	0.281198114
1074.98938	0.2968207
1074.03479	0.295479029
1072.960083	0.284552336
1072.004028	0.290367961
1071.047363	0.288556606
1069.970215	0.297407508
1069.012085	0.280056149
1068.053345	0.288416982
1066.973999	0.276085436
1066.013794	0.276261449
1065.052979	0.277821094
1063.971313	0.295764834
1063.009033	0.286738873
1062.046143	0.30156377
1060.962158	0.312340438
1059.997925	0.294101059
1059.032959	0.308871985
1057.946655	0.289527386
1056.980347	0.297405601
1056.013428	0.301118493
1055.045898	0.301411927
1053.956543	0.306147099
1052.987549	0.307194173
1052.017944	0.312627077
1051.047607	0.31930849
1049.9552	0.321981281
1048.983643	0.321829975
1048.01123	0.32085529
1047.03833	0.317657918
1045.942993	0.337833434
1044.968628	0.33543545
1043.993652	0.349653959
1043.018066	0.338138908
1042.041748	0.342150092
1040.942749	0.334549099
1039.965088	0.34375754
1038.986816	0.329809576
1038.007935	0.340843082
1037.028442	0.334263265
1036.048218	0.333414853
1034.944702	0.332923383
1033.963257	0.33104676
1032.981079	0.323668599
1031.998169	0.327544063
1031.014771	0.319333375
1030.03064	0.322904199
1029.045898	0.319026202
1028.060547	0.318290532
1026.951294	0.309764385
1025.9646	0.31873557
1024.977295	0.315382659
1023.989258	0.326208174
1023.000671	0.317647845
1022.011414	0.32835424
1021.021545	0.326102793
1020.031067	0.326960087
1019.039978	0.326653302
1018.048218	0.339904517
1017.055847	0.33451587
1015.93866	0.335898012
1014.944946	0.337934494
1013.950623	0.34489885
1012.955627	0.346501768
1011.960022	0.352965742
1010.963806	0.352417767
1009.96698	0.360335857
1008.969543	0.363384366
1007.971436	0.365907461
1006.972778	0.370426118
1005.97345	0.380366296
1004.973511	0.381498098
1003.9729	0.387926579
1002.971741	0.390072554
1001.96991	0.396976382
1000.967529	0.402562469
999.9644775	0.405602634
998.9608154	0.404233962
997.956543	0.415283173
996.9516602	0.415136188
995.946167	0.414623559
994.9400635	0.41454649
994.0592041	0.415255994
993.0519409	0.412830681
992.0440674	0.41169405
991.0355835	0.410189986
990.0264893	0.402412862
989.0167847	0.398590714
988.0064697	0.389749855
986.9955444	0.384157419
985.9839478	0.381547064
984.9718018	0.372922421
983.9591064	0.368035227
982.9457397	0.364281118
982.0585327	0.362039685
981.0440063	0.356975108
980.0289307	0.354054183
979.0132446	0.352238357
977.9968872	0.347868502
976.9799805	0.34841767
975.9624634	0.344568223
974.9443359	0.341294795
974.0530396	0.343460977
973.0337524	0.33836484
972.013916	0.334470451
970.9934692	0.334998369
969.9724121	0.329080135
968.9508057	0.324348956
968.0563965	0.322387129
967.0336304	0.31944713
966.0102539	0.313133627
964.9863281	0.306878388
963.961731	0.30505994
962.9365845	0.300944179
962.0391235	0.296951085
961.0128784	0.289015085
959.9860229	0.28652966
958.9585571	0.282251239
958.059082	0.279265583
957.0305176	0.275929928
956.0014038	0.27169773
954.9716797	0.269564152
953.9413452	0.266664267
953.0393066	0.26424259
952.0079346	0.263043463
950.9758911	0.262249738
949.9432983	0.259465873
949.0393066	0.258840561
948.0056152	0.257540762
946.9713135	0.256333292
945.9364624	0.256302327
945.0305176	0.25584802
943.9945679	0.256218374
942.9580078	0.255750626
942.0505371	0.255381525
941.0129395	0.257635444
939.9747314	0.257502198
938.9359131	0.259038717
938.0265503	0.259632587
936.9866333	0.261212766
935.946228	0.261669189
935.0353394	0.262988597
933.9937744	0.263034701
932.9517212	0.264182895
932.0393677	0.2645818
930.9962158	0.264713377
929.9524536	0.263065994
929.0386963	0.264018536
927.9938354	0.260732114
926.9484253	0.258830398
926.0332031	0.2585392
924.9867554	0.256962836
923.9396973	0.254394651
923.0230713	0.251820207
921.9749146	0.250421733
921.057373	0.24970986
920.0081787	0.246473402
918.9584351	0.245136872
918.0394287	0.243685722
916.9886475	0.242050782
915.9372559	0.241970301
915.0168457	0.240290791
913.9644165	0.239585623
913.0430298	0.238222569
911.989563	0.238503382
910.9354858	0.237267166
910.0127563	0.237812117
908.9576416	0.237285271
908.0339355	0.237592414
906.9777832	0.237794668
906.0532227	0.237749726
904.9959717	0.23818709
903.9382324	0.239724204
903.012207	0.239354551
901.9534302	0.240799174
901.0264893	0.241390139
899.9666748	0.242840707
899.0388184	0.244182378
897.9779053	0.246141166
897.0491943	0.247234345
895.9872437	0.248435646
895.0576172	0.250445366
893.9946289	0.251903594
893.0640869	0.254712999
892.0001221	0.255531311
890.9355469	0.25692308
890.0036011	0.258516938
888.9380493	0.258879453
888.005188	0.259625405
886.9385986	0.259343088
886.0048828	0.259087652
884.9372559	0.258883953
884.0026245	0.25866887
882.93396	0.257855147
881.9984741	0.257481337
881.0625	0.256420851
879.9923706	0.254907906
879.055542	0.254605115
877.984375	0.253715754
877.0466309	0.253179967
875.9744873	0.250887245
875.0358887	0.25058794
873.9626465	0.2503995
873.0231934	0.248426244
871.9489746	0.249509156
871.008606	0.248607397
869.9334106	0.247415245
868.9921265	0.247135326
868.0504761	0.246714637
866.9738159	0.246176064
866.03125	0.245969147
864.9535522	0.246510834
864.0101318	0.246334836
863.0663452	0.245430768
861.9871826	0.24637191
861.0424805	0.245519638
859.9623413	0.246255383
859.0167847	0.244974956
857.9356079	0.245351151
856.9891968	0.246267155
856.0423584	0.243782133
854.9597778	0.246599615
854.0120239	0.244153813
853.0639648	0.245113984
851.9799194	0.244186103
851.0309448	0.24475427
849.9459229	0.245963901
848.9960938	0.245438144
848.0458374	0.245579973
846.9593506	0.245363534
846.0083008	0.247448102
845.0567627	0.247213498
843.9688721	0.24688521
843.0165405	0.246453628
842.0637817	0.247668684
840.9744873	0.248906255
840.020874	0.247340292
839.0668945	0.248734608
837.9761353	0.248002455
837.0213013	0.249291584
836.06604	0.249887094
834.973877	0.249618605
834.0177612	0.250089228
833.0613403	0.251349151
831.9677124	0.252646059
831.010376	0.251854599
830.0526733	0.252433717
828.9577026	0.254029244
827.9991455	0.254314005
827.0402222	0.25552091
825.9437866	0.256567836
824.9840088	0.256684274
824.0238647	0.257431835
823.0632935	0.258850992
821.9650879	0.260415465
821.0036621	0.26120618
820.0419312	0.262370825
818.9422607	0.262910247
817.9796753	0.264752299
817.0166626	0.266142219
816.0532837	0.266262621
814.9518433	0.268382043
813.9876099	0.270106465
813.0230713	0.269269168
812.0581055	0.27196753
810.9547729	0.272752285
809.9890137	0.273728013
809.0228271	0.274442583
808.0562744	0.27498132
806.9511719	0.274533331
805.9838257	0.27411747
805.0160522	0.275144309
804.0479126	0.274990499
802.94104	0.274752259
801.9721069	0.273876369
801.0027466	0.2744461
800.0330811	0.273213267
799.0629883	0.272454977
797.9538574	0.271721602
796.9829712	0.271246225
796.0117188	0.269984394
795.0401001	0.268501788
794.0680542	0.26794377
792.9567261	0.267917842
791.9838867	0.267079055
791.0107422	0.266170681
790.0371704	0.267585576
789.0632324	0.265994847
787.949707	0.266479433
786.9749756	0.266286939
785.9998779	0.266184002
785.024353	0.266166568
784.0485229	0.266038746
782.9328003	0.266753018
781.9561768	0.267106086
780.979187	0.268307865
780.00177	0.26821512
779.0240479	0.268886477
778.0458984	0.269349098
777.0674438	0.270305067
775.9487305	0.271273971
774.9694824	0.271534115
773.9898071	0.273055702
773.0098267	0.274393201
772.02948	0.275009751
771.0487061	0.276414782
770.067627	0.277638614
768.9459229	0.278566718
767.9640503	0.281132758
766.9818115	0.281800926
765.9992676	0.283887476
765.0162964	0.284698039
764.032959	0.286795288
763.0492554	0.288530082
762.0652466	0.290904075
760.9401855	0.293772638
759.9553833	0.295058608
758.9702148	0.29769969
757.9846802	0.299746245
756.9987793	0.30281508
756.0125732	0.304892361
755.0259399	0.308487177
754.0390015	0.311178505
753.0516968	0.314166397
752.0640259	0.316832036
750.9348145	0.318741947
749.9464111	0.323720455
748.9575806	0.326910585
747.9684448	0.33004579
746.9789429	0.333226472
745.9891357	0.336686224
744.9989624	0.338875622
744.0083618	0.342371762
743.0175171	0.344266594
742.0262451	0.347191602
741.034668	0.350074321
740.0426636	0.353200555
739.050415	0.354778707
738.0577393	0.356687218
737.0647583	0.358417988
735.9295044	0.360519379
734.93573	0.361867845
733.9416504	0.36242339
732.9472046	0.363419801
731.9524536	0.362879604
730.9572754	0.363305867
729.961853	0.362170905
728.9660034	0.361033827
727.9698486	0.359788001
726.9733276	0.357652843
725.9765015	0.354893237
724.9793091	0.352627724
723.9818115	0.349396527
722.9838867	0.346884877
721.9857178	0.34418264
720.9871216	0.341320366
719.9882202	0.339072883
718.9890137	0.336396545
717.9894409	0.334374219
716.989502	0.332215399
715.9892578	0.330172211
714.9886475	0.329049677
713.9877319	0.327622771
712.9864502	0.32627964
711.9848633	0.325476706
710.9829102	0.324930012
709.9806519	0.324602366
708.9780273	0.324626476
707.9750977	0.32449317
706.9718018	0.324747801
705.9682007	0.324711978
704.9642334	0.325116426
703.9599609	0.325544894
702.9553833	0.325720221
701.9504395	0.326350808
700.9451294	0.326700717
699.9395752	0.326958954
698.9335938	0.32729435
698.071106	0.328753501
697.0645752	0.329356849
696.0576782	0.330430776
695.0504761	0.330935299
694.0429688	0.33301568
693.0350952	0.334144533
692.0269165	0.335814565
691.0183716	0.337740451
690.0095215	0.339449853
689.0003662	0.341782719
687.9908447	0.343471438
686.9810791	0.345041335
685.9708862	0.348048568
684.9604492	0.349098951
683.949646	0.351881146
682.9385376	0.353804171
682.0715942	0.355238766
681.0598755	0.356589764
680.0478516	0.358074963
679.0355225	0.360248268
678.0228271	0.362132967
677.0098267	0.363702089
675.996521	0.365992546
674.9829102	0.366456807
673.9689331	0.368173242
672.9546509	0.369729549
671.9400635	0.371086597
671.0701904	0.37299338
670.0549927	0.374530643
669.0394897	0.377103657
668.0236816	0.3794927
667.0075684	0.381735653
665.9911499	0.384665579
664.9743652	0.386607379
663.9573364	0.389370471
662.9399414	0.392678082
662.067627	0.395298511
661.0496826	0.397849381
660.0313721	0.39958629
659.0128174	0.401492983
657.9938965	0.402770281
656.9747314	0.404194772
655.9552002	0.403958589
654.9353638	0.404699445
654.0609741	0.404242277
653.0405884	0.402785301
652.0198364	0.400866985
650.9988403	0.399349153
649.9775391	0.397229433
648.9558716	0.393766075
647.93396	0.391133845
647.0577393	0.388527632
646.0352173	0.385658562
645.0124512	0.383331567
643.9893188	0.379568756
642.9658813	0.375850081
641.9421997	0.372508138
641.0644531	0.369795948
640.0401611	0.366734743
639.015564	0.363342196
637.9906616	0.360392958
636.9655151	0.357966274
635.9400024	0.355712801
635.060791	0.353476465
634.034729	0.351539969
633.0083618	0.349746883
631.9816895	0.348706663
630.9547729	0.348424941
629.9275513	0.347473204
629.046814	0.346907347
628.0189819	0.347022712
626.9909058	0.346944124
625.9625244	0.347110838
624.9338379	0.348107457
624.0518799	0.348486751
623.022644	0.349006474
621.993103	0.350164324
620.9633179	0.350011557
619.9331665	0.351227224
619.0499878	0.351695359
618.0193481	0.351481348
616.9884033	0.352125168
615.9571533	0.352225065
615.072998	0.353273869
614.0411987	0.353685856
613.0091553	0.354615301
611.9768066	0.355562002
610.9441528	0.356643915
610.0587769	0.35819608
609.0255737	0.359982401
607.9921265	0.361950278
606.958374	0.364476562
606.0720825	0.366553694
605.0377808	0.369022459
604.0031738	0.371200621
602.9683228	0.373901367
601.9332275	0.37784937
601.0457153	0.380821347
600.0100098	0.383216411
598.9740601	0.38526082
597.9378662	0.387568057
597.0494385	0.388435751
596.0126343	0.390057623
594.9755859	0.390923917
593.9382935	0.391445637
593.0489502	0.392221838
592.0110474	0.392618924
590.9729614	0.392666549
589.9345703	0.39313966
589.0442505	0.393414825
588.0053711	0.394187033
586.9661255	0.394783199
585.9266968	0.39559409
585.0354614	0.396281898
583.9954834	0.397595078
582.9552002	0.399526179
582.0633545	0.40079084
581.022583	0.40303117
579.9815063	0.404631645
578.9401855	0.406484902
578.0474243	0.40834865
577.0056152	0.410113931
575.963501	0.411375135
575.0700684	0.412329167
574.0274048	0.412526608
572.9845581	0.412725776
571.9414063	0.412094265
571.0470581	0.411676318
570.003418	0.410849214
568.9594727	0.40982613
568.0645142	0.409167439
567.0200806	0.408111602
565.9754028	0.407269329
564.9304199	0.406530857
564.0345459	0.406209737
562.9890747	0.405679017
561.9433594	0.40457803
561.046875	0.404354751
560.0006714	0.404107571
558.9541626	0.402524531
558.0570068	0.401621252
557.0100098	0.400352389
555.9628296	0.398790747
555.0650024	0.397645384
554.0172729	0.39609924
552.9692993	0.393699557
552.0708618	0.392626047
551.0223999	0.390752375
549.9736328	0.388829321
549.0745239	0.387733012
548.0253296	0.386417657
546.9758911	0.385354698
545.9262085	0.384139448
545.0262451	0.383342177
543.9760132	0.382467538
542.9255981	0.381690145
542.0249634	0.381172538
540.9740601	0.380958349
540.0730591	0.380847454
539.0216675	0.380871475
537.9700317	0.381003857
537.0684204	0.381087303
536.0162964	0.381407708
534.9638672	0.382021219
534.0616455	0.382688999
533.0087891	0.383432597
531.9556885	0.384949714
531.0528564	0.385808647
529.9992676	0.387658179
528.9454956	0.389233619
528.0419922	0.390318781
526.9877319	0.39301312
525.9331665	0.395459384
525.0291138	0.397243977
523.9741211	0.400130719
523.0696411	0.403336138
522.0142212	0.40607512
520.9584961	0.408999711
520.0534668	0.411870122
518.9973145	0.414972782
517.940918	0.418014377
517.0352173	0.421143055
515.9783936	0.424417943
515.0723267	0.427505165
514.0150146	0.430540323
512.9574585	0.433002561
512.0507813	0.435048133
510.9927979	0.436845869
509.9345703	0.438071132
509.0273438	0.438471139
507.9686584	0.438096523
507.0610046	0.437575519
506.0018921	0.436491787
504.9425354	0.434423447
504.0343018	0.432630837
502.9745178	0.430428594
502.065918	0.428901285
501.0056763	0.426919222
499.9451904	0.424482763
499.0360107	0.422705263
497.9750977	0.420701623
497.0655212	0.419423759
496.0041809	0.418131203
494.9425964	0.416613251
494.0324707	0.415452987
492.9704285	0.414251089
492.0599365	0.413466752
490.9974976	0.41344747
489.9347839	0.41298005
489.0237427	0.412937015
487.9606018	0.413045347
487.0491943	0.413410574
485.9856567	0.413914025
485.0738525	0.414430231
484.0098877	0.415437013
482.9456787	0.416470707
482.0333252	0.417685837
480.968689	0.419301957
480.0559998	0.421039134
478.9909363	0.422859103
477.9256592	0.424585611
477.0123901	0.427119285
475.9467163	0.42925334
475.0330811	0.431838185
473.96698	0.434043258
473.053009	0.43591392
471.9864807	0.438428551
471.0721436	0.440670401
470.005188	0.442987889
468.9380493	0.445075929
468.0231628	0.446463406
466.9555969	0.448753059
466.0403748	0.450873315
464.9723816	0.452668905
464.0567932	0.454488426
462.9884033	0.456074983
462.0724792	0.45719111
461.0036926	0.458889484
459.9346924	0.45949167
459.018219	0.460191429
457.948822	0.460528076
457.0320129	0.460842341
455.9621887	0.460782766
455.0450439	0.460601956
453.974823	0.460308403
453.0573425	0.460157901
451.9867249	0.46007663
451.0689087	0.459934831
449.9978943	0.45969969
448.9266663	0.459414899
448.0083313	0.459780335
446.9367065	0.459616035
446.0180359	0.459609836
444.9460144	0.459915131
444.0270081	0.460143656
442.9546204	0.460351437
442.0352478	0.460848391
440.9624634	0.46160081
440.0427856	0.462561846
438.9696045	0.46382454
438.0495911	0.465287834
436.9760437	0.467050403
436.0556946	0.468673647
434.9817505	0.470489681
434.0610962	0.472218007
432.9867859	0.474939793
432.0657654	0.477159411
430.9910889	0.480040997
430.0697632	0.481954962
428.9946899	0.484745324
428.0730286	0.487396747
426.9975891	0.490831375
426.0756226	0.493793845
424.9997864	0.496728301
423.9237671	0.499805033
423.0013123	0.503153563
421.9249268	0.507479131
421.0021362	0.510505736
419.9253845	0.514730573
419.0022888	0.517508805
417.9251709	0.521367252
417.0017395	0.525493145
415.9242554	0.528443754
415.0005188	0.530761123
414.0766602	0.53222543
412.9986267	0.534041107
412.0744629	0.535128295
410.9960632	0.535175204
410.0715942	0.535141051
408.9928284	0.535290062
408.0680542	0.534927607
406.9889526	0.535238624
406.0638428	0.535312414
404.984375	0.535397887
404.05896	0.536158741
402.9791565	0.536940217
402.0534363	0.538425922
400.9732666	0.540374279
400.0472717	0.542253435
398.9667358	0.545506477
398.0404358	0.547573745
396.9595642	0.551766574
396.032959	0.55556953
394.9517212	0.559828103
394.0248108	0.564384401
392.9432678	0.569050193
392.0160522	0.573633492
390.9341431	0.578963757
390.0066528	0.584087431
388.924408	0.589506805
387.9966125	0.595035255
387.0686951	0.599949956
385.9859314	0.607024252
385.0577393	0.612627804
383.9746399	0.620134354
383.0461426	0.625773132
381.9627075	0.632626772
381.0339355	0.637211204
379.9501648	0.642137468
379.0210876	0.64490813
377.9370117	0.647545278
377.0076294	0.648482263
375.9232178	0.647569001
374.9935913	0.647647798
374.0638123	0.647128105
372.9789124	0.646586239
372.0488586	0.646770001
370.963623	0.647881091
370.0332947	0.648883402
368.9477539	0.651053965
368.0171204	0.653942943
366.9312439	0.656561077
366.0003662	0.659522951
365.0693359	0.664314628
363.9830017	0.670066237
363.0517273	0.67576772
361.9650574	0.681318283
361.0335083	0.685814619
359.9465027	0.694028318
359.014679	0.700965166
357.9273987	0.708749712
356.9953003	0.715036213
356.0630493	0.720772922
354.9753113	0.728097737
354.0428162	0.733778715
352.9547424	0.741188884
352.0220032	0.746763885
350.9336243	0.751590073
350.0006104	0.756369293
349.0674744	0.761067092
347.9786377	0.765498936
347.0452271	0.768604994
345.9561157	0.771719396
345.0224304	0.773455322
343.9330139	0.77792412
342.9990845	0.780127049
342.0650635	0.782325566
340.9751892	0.78605783
340.0408936	0.788394749
338.9507141	0.792701423
338.0161743	0.797249496
336.9256897	0.802513778
335.9909058	0.806314051
335.0559692	0.810681462
333.9650879	0.817683816
333.0299072	0.824073911
331.9387207	0.832719088
331.0032959	0.838267386
330.067749	0.844916046
328.9761353	0.853721917
328.0403442	0.862737954
326.9484558	0.870366871
326.0124207	0.875875175
325.0762634	0.881649017
323.9839478	0.889855146
323.0475464	0.895425022
321.9549561	0.903544724
321.0183411	0.907231331
319.9254456	0.912913382
318.9885559	0.919562161
318.0515747	0.926071048
316.9582825	0.93347019
316.0210571	0.938680947
314.9274902	0.946748078
313.9900513	0.9528898
313.0524597	0.962845683
311.9584961	0.973049998
311.0206909	0.979525685
309.9264526	0.987980843
308.9884338	0.997610807
308.0502625	1.007360816
306.9556274	1.01717937
306.0172729	1.022738099
304.9223633	1.032923341
303.9837341	1.044787884
303.0450439	1.058522463
301.9497375	1.069466352
301.0108032	1.081606984
300.0717468	1.094948292
298.9760742	1.115196705
298.0368042	1.134619594
296.9408569	1.156673789
296.0013733	1.175170898
295.0617676	1.195239305
293.9654541	1.224056482
293.0256348	1.250931621
291.9290771	1.281052947
290.9890137	1.301425219
290.0488892	1.324399948
288.9519348	1.360931754
288.0115967	1.386510372
287.0711365	1.412012458
285.9738159	1.438743353
285.0331421	1.463070273
283.9355774	1.493724227
282.9946899	1.523028851
282.0537109	1.548508167
280.95578	1.574645042
280.0145874	1.603071928
279.0733032	1.629284024
277.9750061	1.669000745
277.0335083	1.699016094
275.934967	1.72561872
274.9932556	1.755222797
274.0514526	1.793298125
272.9525757	1.825013876
272.0105591	1.850761414
271.0684509	1.867732048
269.9692078	1.905453205
269.0269165	1.935931325
267.9274292	1.96130383
266.9849243	1.982523203
266.0423279	1.999202013
264.9425354	2.028432131
263.9997253	2.054489374
263.0568237	2.076267004
261.9566956	2.10652709
261.0135803	2.125514507
260.0704041	2.144775391
258.9699402	2.165761948
258.0265503	2.178388596
256.9258423	2.192915678
255.9822693	2.199239254
255.03862	2.205479383
253.9375763	2.206908941
252.9937286	2.208614111
252.0497894	2.209084511
250.9484253	2.198344231
250.004303	2.181940556
249.0657043	2.176704884
247.9705811	2.156979799
247.0318298	2.133283138
245.9364929	2.10798645
244.9975433	2.073085546
244.0585175	2.04135108
242.9628754	2.003564358
242.0236511	1.981867909
240.9277954	1.947349787
239.9884033	1.902021289
239.0489349	1.869056344
237.952774	1.822415948
237.0131073	1.792871118
236.0733795	1.766219378
234.9769135	1.722768545
234.0370026	1.698282599
232.9403381	1.658033848
232.0002441	1.634888411
231.0600891	1.61629343
229.9631195	1.591282606
229.0227814	1.580946684
227.9256134	1.566345453
226.9851074	1.55510962
226.0445251	1.554064989
224.9470673	1.555772901
224.0063171	1.567480087
223.0654907	1.581518769
221.9677429	1.61059165
221.0267487	1.63984859
219.9288177	1.686300039
218.9876556	1.745135307
218.0464172	1.795910716
216.9482117	1.851287484
216.0068054	1.918908596
215.0653381	1.978334069
213.9668579	2.035030603
213.0252228	2.097802162
211.9265594	2.156769276
210.9847565	2.227205038
210.0428925	2.259505749
208.9439545	2.331226349
208.0019379	2.382734299
207.059845	2.416080952
205.9606323	2.492703199
205.0183868	2.498845339
204.0760651	2.491756916
202.9766083	2.565834761
202.0341339	2.590457439
200.9345093	2.526580334
199.9917755	2.510818481