  1.2873996e-001  1.3028661e+001  1.9565058e+001  9.3117360e+002
  2.4213343e-001  1.4813404e+001  1.7372075e+001  9.7023794e+002
  8.4251693e-001  1.3314328e+001  2.1158115e+001  9.9456967e+002
  3.6238809e-001  4.8753197e+001  1.7430000e+001  1.0367667e+003
  0.0000000e+000  1.3800000e+001  1.9290000e+001  1.0730000e+003
  0.0000000e+000  2.3990000e+001  1.2880000e+001  1.1170000e+003
  0.0000000e+000  2.6060000e+001  1.9810000e+001  1.1220000e+003
  0.0000000e+000  2.3530000e+001  3.5310000e+001  1.1360000e+003
  0.0000000e+000  1.5680000e+001  5.5030000e+001  1.1940000e+003
  0.0000000e+000  2.3950000e+001  2.1510000e+001  1.2620000e+003
  0.0000000e+000  3.4260000e+001  2.6140000e+001  1.2760000e+003
  0.0000000e+000  1.8750000e+001  3.1060000e+001  1.2890000e+003
  1.7721021e-001  1.0000000e+000  1.0000000e+000  1.0000000e+000
