   6.7158486e-02   9.8734234e+00   1.8976577e+01   9.2598263e+02
   2.0837801e-01   1.6901165e+01   2.4802016e+01   9.6828559e+02
   7.5766807e-01   1.0997323e+01   3.4705803e+01   9.9235484e+02
   2.2761028e-01   2.4639185e+01   3.9294466e+01   1.0395346e+03
   0.0000000e+00   1.3800000e+01   1.9290000e+01   1.0730000e+03
   0.0000000e+00   2.3990000e+01   1.2880000e+01   1.1170000e+03
   0.0000000e+00   2.6060000e+01   1.9810000e+01   1.1220000e+03
   0.0000000e+00   2.3530000e+01   3.5310000e+01   1.1360000e+03
   0.0000000e+00   1.5680000e+01   5.5030000e+01   1.1940000e+03
   0.0000000e+00   2.3950000e+01   2.1510000e+01   1.2620000e+03
   0.0000000e+00   3.4260000e+01   2.6140000e+01   1.2760000e+03
   0.0000000e+00   1.8750000e+01   3.1060000e+01   1.2890000e+03
   2.7457646e-01   1.0000000e+00   1.0000000e+00   1.0000000e+00
