   6.4704118e-02   7.6588079e+00   1.8107745e+01   9.2567916e+02
   1.8199179e-01   1.4346182e+01   2.6983882e+01   9.6701857e+02
   7.3172750e-01   1.2321309e+01   3.4467243e+01   9.9299916e+02
   2.5040913e-01   2.1563301e+01   4.8699693e+01   1.0386420e+03
   0.0000000e+00   1.3800000e+01   1.9290000e+01   1.0730000e+03
   0.0000000e+00   2.3990000e+01   1.2880000e+01   1.1170000e+03
   0.0000000e+00   2.6060000e+01   1.9810000e+01   1.1220000e+03
   0.0000000e+00   2.3530000e+01   3.5310000e+01   1.1360000e+03
   0.0000000e+00   1.5680000e+01   5.5030000e+01   1.1940000e+03
   0.0000000e+00   2.3950000e+01   2.1510000e+01   1.2620000e+03
   0.0000000e+00   3.4260000e+01   2.6140000e+01   1.2760000e+03
   0.0000000e+00   1.8750000e+01   3.1060000e+01   1.2890000e+03
   2.3391153e-01   1.0000000e+00   1.0000000e+00   1.0000000e+00
